run4/TEK00019.CSV

Model,TBS2102B
Firmware Version,v1.31.14

Point Format,Y,
Horizontal Units,S,
Horizontal Scale,0.002,
Sample Interval,1.6e-05,
Filter Frequency,2e+08,
Record Length,2000,
Gating,0.0% to 100.0%,0.0% to 100.0%
Probe Attenuation,1,1
Vertical Units,V,V
Vertical Offset,0,0
Vertical Scale,1,0.5
Label,,
TIME,CH1,CH2
-1.600e-02,-1.08,-1.1
-1.598e-02,-0.96,-0.98
-1.597e-02,-0.64,-0.88
-1.595e-02,-0.32,-0.78
-1.594e-02,0.08,-0.7
-1.592e-02,0.48,-0.62
-1.590e-02,0.92,-0.56
-1.589e-02,1.24,-0.52
-1.587e-02,1.56,-0.46
-1.586e-02,1.8,-0.4
-1.584e-02,2.04,-0.38
-1.582e-02,2.24,-0.36
-1.581e-02,2.32,-0.3
-1.579e-02,2.4,-0.28
-1.578e-02,2.44,-0.24
-1.576e-02,2.48,-0.2
-1.574e-02,2.44,-0.16
-1.573e-02,2.44,-0.14
-1.571e-02,2.44,-0.1
-1.570e-02,2.36,-0.06
-1.568e-02,2.32,-0.04
-1.566e-02,2.32,-0.02
-1.565e-02,2.32,0
-1.563e-02,2.24,0.02
-1.562e-02,2.28,0.04
-1.560e-02,2.28,0.06
-1.558e-02,2.24,0.06
-1.557e-02,2.24,0.04
-1.555e-02,2.24,0.04
-1.554e-02,2.28,0.02
-1.552e-02,2.28,0
-1.550e-02,2.28,-0.02
-1.549e-02,2.28,-0.04
-1.547e-02,2.28,-0.1
-1.546e-02,2.28,-0.14
-1.544e-02,2.24,-0.2
-1.542e-02,2.28,-0.26
-1.541e-02,2.24,-0.34
-1.539e-02,2.2,-0.4
-1.538e-02,2.12,-0.48
-1.536e-02,2.08,-0.58
-1.534e-02,2,-0.62
-1.533e-02,1.84,-0.7
-1.531e-02,1.68,-0.78
-1.530e-02,1.48,-0.86
-1.528e-02,1.28,-0.92
-1.526e-02,1,-0.98
-1.525e-02,0.64,-1.02
-1.523e-02,0.28,-1.06
-1.522e-02,-0.04,-1.08
-1.520e-02,-0.4,-1.1
-1.518e-02,-0.76,-1.1
-1.517e-02,-1.04,-1.1
-1.515e-02,-1.2,-1.08
-1.514e-02,-1.24,-1.08
-1.512e-02,-1.28,-1.06
-1.510e-02,-1.16,-1.04
-1.509e-02,-0.88,-1.04
-1.507e-02,-0.52,-1.04
-1.506e-02,-0.16,-1.04
-1.504e-02,0.2,-1.06
-1.502e-02,0.68,-1.1
-1.501e-02,1.12,-1.12
-1.499e-02,1.48,-1.16
-1.498e-02,1.8,-1.2
-1.496e-02,2.04,-1.24
-1.494e-02,2.2,-1.26
-1.493e-02,2.2,-1.3
-1.491e-02,2.08,-1.3
-1.490e-02,1.76,-1.3
-1.488e-02,1.4,-1.26
-1.486e-02,1,-1.2
-1.485e-02,0.48,-1.14
-1.483e-02,0,-1.04
-1.482e-02,-0.44,-0.94
-1.480e-02,-0.8,-0.8
-1.478e-02,-1.08,-0.66
-1.477e-02,-1.28,-0.52
-1.475e-02,-1.4,-0.36
-1.474e-02,-1.36,-0.22
-1.472e-02,-1.28,-0.08
-1.470e-02,-1.24,0.04
-1.469e-02,-1.16,0.18
-1.467e-02,-1,0.3
-1.466e-02,-0.96,0.44
-1.464e-02,-0.96,0.52
-1.462e-02,-0.96,0.64
-1.461e-02,-1,0.72
-1.459e-02,-1.08,0.82
-1.458e-02,-1.2,0.92
-1.456e-02,-1.24,1.02
-1.454e-02,-1.28,1.08
-1.453e-02,-1.32,1.14
-1.451e-02,-1.28,1.2
-1.450e-02,-1.08,1.28
-1.448e-02,-0.92,1.3
-1.446e-02,-0.52,1.32
-1.445e-02,-0.16,1.32
-1.443e-02,0.32,1.3
-1.442e-02,0.8,1.24
-1.440e-02,1.28,1.16
-1.438e-02,1.64,1.1
-1.437e-02,1.92,0.96
-1.435e-02,2.12,0.86
-1.434e-02,2.2,0.74
-1.432e-02,2.08,0.62
-1.430e-02,1.96,0.5
-1.429e-02,1.8,0.4
-1.427e-02,1.56,0.28
-1.426e-02,1.28,0.18
-1.424e-02,1.08,0.1
-1.422e-02,0.88,0
-1.421e-02,0.68,-0.08
-1.419e-02,0.56,-0.16
-1.418e-02,0.52,-0.24
-1.416e-02,0.48,-0.3
-1.414e-02,0.44,-0.4
-1.413e-02,0.52,-0.48
-1.411e-02,0.68,-0.56
-1.410e-02,0.8,-0.66
-1.408e-02,0.96,-0.76
-1.406e-02,1.16,-0.82
-1.405e-02,1.4,-0.92
-1.403e-02,1.6,-1.02
-1.402e-02,1.84,-1.1
-1.400e-02,2,-1.2
-1.398e-02,2.16,-1.3
-1.397e-02,2.24,-1.38
-1.395e-02,2.12,-1.46
-1.394e-02,1.96,-1.52
-1.392e-02,1.68,-1.56
-1.390e-02,1.24,-1.6
-1.389e-02,0.76,-1.58
-1.387e-02,0.2,-1.54
-1.386e-02,-0.28,-1.5
-1.384e-02,-0.68,-1.42
-1.382e-02,-0.92,-1.34
-1.381e-02,-1.04,-1.24
-1.379e-02,-0.96,-1.12
-1.378e-02,-0.76,-1.02
-1.376e-02,-0.4,-0.94
-1.374e-02,0,-0.86
-1.373e-02,0.44,-0.78
-1.371e-02,0.84,-0.72
-1.370e-02,1.28,-0.7
-1.368e-02,1.68,-0.66
-1.366e-02,1.92,-0.6
-1.365e-02,2.12,-0.58
-1.363e-02,2.28,-0.52
-1.362e-02,2.36,-0.5
-1.360e-02,2.4,-0.48
-1.358e-02,2.36,-0.44
-1.357e-02,2.32,-0.4
-1.355e-02,2.28,-0.34
-1.354e-02,2.12,-0.3
-1.352e-02,1.96,-0.24
-1.350e-02,1.88,-0.18
-1.349e-02,1.76,-0.14
-1.347e-02,1.6,-0.06
-1.346e-02,1.52,-0.02
-1.344e-02,1.48,0.06
-1.342e-02,1.4,0.1
-1.341e-02,1.28,0.14
-1.339e-02,1.28,0.18
-1.338e-02,1.36,0.22
-1.336e-02,1.36,0.26
-1.334e-02,1.36,0.26
-1.333e-02,1.48,0.26
-1.331e-02,1.52,0.28
-1.330e-02,1.56,0.24
-1.328e-02,1.64,0.22
-1.326e-02,1.76,0.18
-1.325e-02,1.84,0.14
-1.323e-02,1.88,0.08
-1.322e-02,1.96,0.02
-1.320e-02,2.04,-0.04
-1.318e-02,2.04,-0.12
-1.317e-02,2.08,-0.2
-1.315e-02,2.08,-0.3
-1.314e-02,2.08,-0.38
-1.312e-02,2.04,-0.46
-1.310e-02,1.96,-0.56
-1.309e-02,1.88,-0.68
-1.307e-02,1.76,-0.74
-1.306e-02,1.56,-0.82
-1.304e-02,1.32,-0.9
-1.302e-02,1.08,-0.96
-1.301e-02,0.8,-1.02
-1.299e-02,0.44,-1.08
-1.298e-02,0.08,-1.1
-1.296e-02,-0.24,-1.12
-1.294e-02,-0.6,-1.14
-1.293e-02,-0.88,-1.14
-1.291e-02,-1.12,-1.12
-1.290e-02,-1.28,-1.1
-1.288e-02,-1.28,-1.1
-1.286e-02,-1.16,-1.06
-1.285e-02,-0.92,-1.06
-1.283e-02,-0.64,-1.06
-1.282e-02,-0.24,-1.04
-1.280e-02,0.16,-1.06
-1.278e-02,0.64,-1.06
-1.277e-02,1.04,-1.1
-1.275e-02,1.44,-1.12
-1.274e-02,1.8,-1.14
-1.272e-02,2.08,-1.18
-1.270e-02,2.2,-1.22
-1.269e-02,2.2,-1.24
-1.267e-02,2.12,-1.24
-1.266e-02,1.88,-1.22
-1.264e-02,1.56,-1.2
-1.262e-02,1.12,-1.14
-1.261e-02,0.68,-1.08
-1.259e-02,0.2,-0.98
-1.258e-02,-0.24,-0.86
-1.256e-02,-0.64,-0.74
-1.254e-02,-1,-0.6
-1.253e-02,-1.24,-0.46
-1.251e-02,-1.32,-0.3
-1.250e-02,-1.48,-0.14
-1.248e-02,-1.48,-0.02
-1.246e-02,-1.44,0.14
-1.245e-02,-1.4,0.3
-1.243e-02,-1.36,0.42
-1.242e-02,-1.32,0.54
-1.240e-02,-1.32,0.66
-1.238e-02,-1.32,0.76
-1.237e-02,-1.36,0.88
-1.235e-02,-1.36,0.96
-1.234e-02,-1.36,1.04
-1.232e-02,-1.36,1.12
-1.230e-02,-1.24,1.2
-1.229e-02,-1.04,1.26
-1.227e-02,-0.8,1.3
-1.226e-02,-0.4,1.3
-1.224e-02,0,1.3
-1.222e-02,0.4,1.28
-1.221e-02,0.92,1.24
-1.219e-02,1.36,1.16
-1.218e-02,1.72,1.08
-1.216e-02,1.96,1
-1.214e-02,2.16,0.9
-1.213e-02,2.16,0.76
-1.211e-02,2.08,0.64
-1.210e-02,1.92,0.54
-1.208e-02,1.68,0.44
-1.206e-02,1.48,0.34
-1.205e-02,1.16,0.24
-1.203e-02,0.92,0.16
-1.202e-02,0.68,0.08
-1.200e-02,0.48,0
-1.198e-02,0.32,-0.06
-1.197e-02,0.24,-0.12
-1.195e-02,0.16,-0.2
-1.194e-02,0.12,-0.28
-1.192e-02,0.16,-0.36
-1.190e-02,0.24,-0.42
-1.189e-02,0.32,-0.5
-1.187e-02,0.4,-0.6
-1.186e-02,0.6,-0.66
-1.184e-02,0.84,-0.74
-1.182e-02,1,-0.82
-1.181e-02,1.24,-0.92
-1.179e-02,1.48,-1
-1.178e-02,1.72,-1.1
-1.176e-02,1.96,-1.18
-1.174e-02,2.12,-1.26
-1.173e-02,2.16,-1.36
-1.171e-02,2.2,-1.42
-1.170e-02,2.08,-1.48
-1.168e-02,1.8,-1.54
-1.166e-02,1.4,-1.54
-1.165e-02,0.92,-1.54
-1.163e-02,0.4,-1.52
-1.162e-02,-0.08,-1.46
-1.160e-02,-0.52,-1.38
-1.158e-02,-0.88,-1.3
-1.157e-02,-1.04,-1.18
-1.155e-02,-1.04,-1.06
-1.154e-02,-0.92,-0.98
-1.152e-02,-0.68,-0.86
-1.150e-02,-0.36,-0.76
-1.149e-02,0.08,-0.7
-1.147e-02,0.48,-0.6
-1.146e-02,0.88,-0.56
-1.144e-02,1.28,-0.48
-1.142e-02,1.56,-0.44
-1.141e-02,1.84,-0.38
-1.139e-02,2.04,-0.34
-1.138e-02,2.16,-0.32
-1.136e-02,2.28,-0.28
-1.134e-02,2.4,-0.26
-1.133e-02,2.4,-0.22
-1.131e-02,2.44,-0.18
-1.130e-02,2.44,-0.14
-1.128e-02,2.44,-0.14
-1.126e-02,2.4,-0.08
-1.125e-02,2.4,-0.06
-1.123e-02,2.4,-0.02
-1.122e-02,2.36,0
-1.120e-02,2.32,0.02
-1.118e-02,2.32,0.02
-1.117e-02,2.32,0.04
-1.115e-02,2.32,0.06
-1.114e-02,2.28,0.06
-1.112e-02,2.32,0.06
-1.110e-02,2.32,0.04
-1.109e-02,2.32,0.02
-1.107e-02,2.32,0
-1.106e-02,2.36,-0.04
-1.104e-02,2.32,-0.08
-1.102e-02,2.32,-0.14
-1.101e-02,2.32,-0.18
-1.099e-02,2.32,-0.24
-1.098e-02,2.28,-0.28
-1.096e-02,2.28,-0.36
-1.094e-02,2.24,-0.44
-1.093e-02,2.2,-0.52
-1.091e-02,2.16,-0.58
-1.090e-02,2,-0.66
-1.088e-02,1.88,-0.74
-1.086e-02,1.76,-0.82
-1.085e-02,1.52,-0.88
-1.083e-02,1.24,-0.96
-1.082e-02,0.96,-1.02
-1.080e-02,0.64,-1.06
-1.078e-02,0.28,-1.1
-1.077e-02,-0.12,-1.12
-1.075e-02,-0.48,-1.14
-1.074e-02,-0.76,-1.12
-1.072e-02,-1.04,-1.12
-1.070e-02,-1.2,-1.1
-1.069e-02,-1.28,-1.08
-1.067e-02,-1.24,-1.08
-1.066e-02,-1.04,-1.06
-1.064e-02,-0.8,-1.06
-1.062e-02,-0.48,-1.06
-1.061e-02,-0.04,-1.06
-1.059e-02,0.4,-1.08
-1.058e-02,0.84,-1.12
-1.056e-02,1.24,-1.14
-1.054e-02,1.64,-1.18
-1.053e-02,1.92,-1.22
-1.051e-02,2.12,-1.26
-1.050e-02,2.2,-1.3
-1.048e-02,2.12,-1.32
-1.046e-02,1.92,-1.32
-1.045e-02,1.6,-1.3
-1.043e-02,1.24,-1.26
-1.042e-02,0.72,-1.2
-1.040e-02,0.24,-1.12
-1.038e-02,-0.24,-1.02
-1.037e-02,-0.64,-0.9
-1.035e-02,-0.96,-0.78
-1.034e-02,-1.24,-0.62
-1.032e-02,-1.32,-0.48
-1.030e-02,-1.36,-0.32
-1.029e-02,-1.32,-0.18
-1.027e-02,-1.24,-0.04
-1.026e-02,-1.16,0.1
-1.024e-02,-1,0.22
-1.022e-02,-0.92,0.34
-1.021e-02,-0.88,0.44
-1.019e-02,-0.84,0.54
-1.018e-02,-0.88,0.64
-1.016e-02,-0.92,0.74
-1.014e-02,-1,0.82
-1.013e-02,-1.12,0.92
-1.011e-02,-1.2,1
-1.010e-02,-1.28,1.08
-1.008e-02,-1.32,1.14
-1.006e-02,-1.24,1.22
-1.005e-02,-1.16,1.26
-1.003e-02,-0.92,1.3
-1.002e-02,-0.56,1.32
-1.000e-02,-0.2,1.32
-9.984e-03,0.28,1.28
-9.968e-03,0.72,1.24
-9.952e-03,1.2,1.18
-9.936e-03,1.6,1.08
-9.920e-03,1.92,0.98
-9.904e-03,2.12,0.86
-9.888e-03,2.16,0.74
-9.872e-03,2.16,0.62
-9.856e-03,2,0.5
-9.840e-03,1.8,0.38
-9.824e-03,1.6,0.26
-9.808e-03,1.4,0.16
-9.792e-03,1.16,0.06
-9.776e-03,0.96,-0.04
-9.760e-03,0.8,-0.1
-9.744e-03,0.72,-0.2
-9.728e-03,0.6,-0.28
-9.712e-03,0.6,-0.36
-9.696e-03,0.64,-0.46
-9.680e-03,0.76,-0.52
-9.664e-03,0.84,-0.62
-9.648e-03,1,-0.7
-9.632e-03,1.16,-0.8
-9.616e-03,1.4,-0.9
-9.600e-03,1.6,-1
-9.584e-03,1.8,-1.08
-9.568e-03,2,-1.2
-9.552e-03,2.16,-1.28
-9.536e-03,2.2,-1.36
-9.520e-03,2.12,-1.44
-9.504e-03,2,-1.5
-9.488e-03,1.76,-1.56
-9.472e-03,1.36,-1.58
-9.456e-03,0.84,-1.6
-9.440e-03,0.32,-1.58
-9.424e-03,-0.2,-1.52
-9.408e-03,-0.6,-1.46
-9.392e-03,-0.88,-1.38
-9.376e-03,-1.04,-1.28
-9.360e-03,-1,-1.18
-9.344e-03,-0.8,-1.08
-9.328e-03,-0.44,-1
-9.312e-03,-0.08,-0.92
-9.296e-03,0.36,-0.86
-9.280e-03,0.84,-0.8
-9.264e-03,1.28,-0.76
-9.248e-03,1.64,-0.72
-9.232e-03,1.96,-0.68
-9.216e-03,2.16,-0.64
-9.200e-03,2.28,-0.6
-9.184e-03,2.36,-0.58
-9.168e-03,2.36,-0.56
-9.152e-03,2.32,-0.5
-9.136e-03,2.24,-0.46
-9.120e-03,2.12,-0.4
-9.104e-03,1.92,-0.34
-9.088e-03,1.8,-0.28
-9.072e-03,1.6,-0.22
-9.056e-03,1.4,-0.16
-9.040e-03,1.2,-0.06
-9.024e-03,1.16,0
-9.008e-03,1,0.06
-8.992e-03,0.88,0.14
-8.976e-03,0.84,0.2
-8.960e-03,0.84,0.26
-8.944e-03,0.88,0.32
-8.928e-03,0.88,0.34
-8.912e-03,0.96,0.38
-8.896e-03,1.08,0.38
-8.880e-03,1.16,0.4
-8.864e-03,1.28,0.38
-8.848e-03,1.44,0.36
-8.832e-03,1.56,0.34
-8.816e-03,1.72,0.3
-8.800e-03,1.84,0.22
-8.784e-03,1.96,0.18
-8.768e-03,2.08,0.1
-8.752e-03,2.08,0.02
-8.736e-03,2.2,-0.06
-8.720e-03,2.2,-0.16
-8.704e-03,2.24,-0.26
-8.688e-03,2.24,-0.36
-8.672e-03,2.24,-0.46
-8.656e-03,2.2,-0.58
-8.640e-03,2.12,-0.66
-8.624e-03,2.04,-0.76
-8.608e-03,1.88,-0.84
-8.592e-03,1.72,-0.92
-8.576e-03,1.44,-1.02
-8.560e-03,1.16,-1.08
-8.544e-03,0.8,-1.14
-8.528e-03,0.44,-1.18
-8.512e-03,0.04,-1.22
-8.496e-03,-0.36,-1.22
-8.480e-03,-0.68,-1.22
-8.464e-03,-1,-1.22
-8.448e-03,-1.2,-1.2
-8.432e-03,-1.24,-1.16
-8.416e-03,-1.2,-1.14
-8.400e-03,-0.96,-1.12
-8.384e-03,-0.68,-1.1
-8.368e-03,-0.28,-1.1
-8.352e-03,0.12,-1.12
-8.336e-03,0.56,-1.1
-8.320e-03,1.04,-1.14
-8.304e-03,1.44,-1.16
-8.288e-03,1.8,-1.18
-8.272e-03,2.04,-1.2
-8.256e-03,2.16,-1.24
-8.240e-03,2.2,-1.24
-8.224e-03,2.04,-1.24
-8.208e-03,1.8,-1.22
-8.192e-03,1.44,-1.18
-8.176e-03,1,-1.14
-8.160e-03,0.52,-1.06
-8.144e-03,0.04,-0.96
-8.128e-03,-0.4,-0.84
-8.112e-03,-0.8,-0.72
-8.096e-03,-1.04,-0.58
-8.080e-03,-1.28,-0.42
-8.064e-03,-1.4,-0.26
-8.048e-03,-1.44,-0.1
-8.032e-03,-1.44,0.02
-8.016e-03,-1.4,0.18
-8.000e-03,-1.36,0.32
-7.984e-03,-1.32,0.44
-7.968e-03,-1.28,0.56
-7.952e-03,-1.32,0.68
-7.936e-03,-1.32,0.78
-7.920e-03,-1.32,0.9
-7.904e-03,-1.36,0.96
-7.888e-03,-1.4,1.06
-7.872e-03,-1.32,1.12
-7.856e-03,-1.2,1.2
-7.840e-03,-1.04,1.26
-7.824e-03,-0.76,1.28
-7.808e-03,-0.4,1.32
-7.792e-03,0,1.32
-7.776e-03,0.48,1.28
-7.760e-03,0.92,1.24
-7.744e-03,1.36,1.16
-7.728e-03,1.72,1.06
-7.712e-03,2,0.96
-7.696e-03,2.16,0.86
-7.680e-03,2.16,0.76
-7.664e-03,2.08,0.64
-7.648e-03,1.96,0.52
-7.632e-03,1.64,0.42
-7.616e-03,1.44,0.32
-7.600e-03,1.16,0.24
-7.584e-03,0.88,0.14
-7.568e-03,0.68,0.06
-7.552e-03,0.52,-0.02
-7.536e-03,0.36,-0.08
-7.520e-03,0.24,-0.16
-7.504e-03,0.2,-0.22
-7.488e-03,0.24,-0.3
-7.472e-03,0.24,-0.36
-7.456e-03,0.28,-0.44
-7.440e-03,0.36,-0.52
-7.424e-03,0.52,-0.6
-7.408e-03,0.68,-0.68
-7.392e-03,0.88,-0.78
-7.376e-03,1.12,-0.86
-7.360e-03,1.4,-0.94
-7.344e-03,1.6,-1.04
-7.328e-03,1.84,-1.12
-7.312e-03,2,-1.22
-7.296e-03,2.16,-1.3
-7.280e-03,2.2,-1.4
-7.264e-03,2.12,-1.46
-7.248e-03,1.92,-1.52
-7.232e-03,1.64,-1.54
-7.216e-03,1.24,-1.56
-7.200e-03,0.76,-1.54
-7.184e-03,0.16,-1.5
-7.168e-03,-0.32,-1.44
-7.152e-03,-0.68,-1.36
-7.136e-03,-0.96,-1.26
-7.120e-03,-1.08,-1.14
-7.104e-03,-1,-1.04
-7.088e-03,-0.8,-0.94
-7.072e-03,-0.52,-0.84
-7.056e-03,-0.12,-0.76
-7.040e-03,0.28,-0.66
-7.024e-03,0.68,-0.6
-7.008e-03,1.12,-0.52
-6.992e-03,1.4,-0.48
-6.976e-03,1.72,-0.44
-6.960e-03,1.96,-0.4
-6.944e-03,2.16,-0.36
-6.928e-03,2.28,-0.34
-6.912e-03,2.36,-0.32
-6.896e-03,2.4,-0.28
-6.880e-03,2.44,-0.24
-6.864e-03,2.48,-0.2
-6.848e-03,2.4,-0.16
-6.832e-03,2.4,-0.12
-6.816e-03,2.36,-0.1
-6.800e-03,2.36,-0.08
-6.784e-03,2.28,-0.02
-6.768e-03,2.28,0
-6.752e-03,2.28,0.02
-6.736e-03,2.2,0.04
-6.720e-03,2.2,0.04
-6.704e-03,2.2,0.06
-6.688e-03,2.2,0.06
-6.672e-03,2.2,0.06
-6.656e-03,2.24,0.06
-6.640e-03,2.24,0.04
-6.624e-03,2.24,-0.02
-6.608e-03,2.2,-0.04
-6.592e-03,2.2,-0.06
-6.576e-03,2.28,-0.1
-6.560e-03,2.24,-0.16
-6.544e-03,2.2,-0.22
-6.528e-03,2.2,-0.3
-6.512e-03,2.2,-0.36
-6.496e-03,2.16,-0.42
-6.480e-03,2.08,-0.5
-6.464e-03,2,-0.58
-6.448e-03,1.92,-0.68
-6.432e-03,1.76,-0.74
-6.416e-03,1.6,-0.8
-6.400e-03,1.36,-0.88
-6.384e-03,1.12,-0.94
-6.368e-03,0.84,-1
-6.352e-03,0.48,-1.02
-6.336e-03,0.12,-1.06
-6.320e-03,-0.24,-1.08
-6.304e-03,-0.56,-1.1
-6.288e-03,-0.88,-1.1
-6.272e-03,-1.16,-1.1
-6.256e-03,-1.24,-1.08
-6.240e-03,-1.28,-1.06
-6.224e-03,-1.2,-1.04
-6.208e-03,-1.04,-1.04
-6.192e-03,-0.8,-1.04
-6.176e-03,-0.4,-1.04
-6.160e-03,0,-1.04
-6.144e-03,0.4,-1.08
-6.128e-03,0.84,-1.1
-6.112e-03,1.24,-1.12
-6.096e-03,1.64,-1.16
-6.080e-03,1.96,-1.22
-6.064e-03,2.08,-1.24
-6.048e-03,2.2,-1.28
-6.032e-03,2.2,-1.3
-6.016e-03,2,-1.3
-6.000e-03,1.68,-1.28
-5.984e-03,1.28,-1.26
-5.968e-03,0.8,-1.18
-5.952e-03,0.36,-1.1
-5.936e-03,-0.16,-1
-5.920e-03,-0.6,-0.88
-5.904e-03,-0.92,-0.76
-5.888e-03,-1.2,-0.62
-5.872e-03,-1.28,-0.46
-5.856e-03,-1.36,-0.3
-5.840e-03,-1.36,-0.16
-5.824e-03,-1.32,-0.02
-5.808e-03,-1.2,0.1
-5.792e-03,-1.16,0.24
-5.776e-03,-1.04,0.36
-5.760e-03,-1,0.48
-5.744e-03,-1,0.58
-5.728e-03,-1.04,0.7
-5.712e-03,-1.08,0.78
-5.696e-03,-1.16,0.88
-5.680e-03,-1.24,0.96
-5.664e-03,-1.28,1.04
-5.648e-03,-1.32,1.12
-5.632e-03,-1.32,1.18
-5.616e-03,-1.2,1.24
-5.600e-03,-1,1.28
-5.584e-03,-0.72,1.32
-5.568e-03,-0.32,1.34
-5.552e-03,0.12,1.3
-5.536e-03,0.56,1.26
-5.520e-03,1.08,1.2
-5.504e-03,1.52,1.12
-5.488e-03,1.84,1.02
-5.472e-03,2.04,0.92
-5.456e-03,2.16,0.8
-5.440e-03,2.2,0.7
-5.424e-03,2.04,0.56
-5.408e-03,1.84,0.44
-5.392e-03,1.64,0.36
-5.376e-03,1.4,0.24
-5.360e-03,1.12,0.14
-5.344e-03,0.96,0.04
-5.328e-03,0.76,-0.02
-5.312e-03,0.56,-0.1
-5.296e-03,0.48,-0.18
-5.280e-03,0.44,-0.26
-5.264e-03,0.44,-0.34
-5.248e-03,0.44,-0.42
-5.232e-03,0.52,-0.52
-5.216e-03,0.68,-0.6
-5.200e-03,0.84,-0.66
-5.184e-03,1,-0.76
-5.168e-03,1.2,-0.86
-5.152e-03,1.44,-0.94
-5.136e-03,1.72,-1.04
-5.120e-03,1.88,-1.12
-5.104e-03,2.04,-1.22
-5.088e-03,2.16,-1.32
-5.072e-03,2.2,-1.4
-5.056e-03,2.16,-1.48
-5.040e-03,1.92,-1.54
-5.024e-03,1.6,-1.56
-5.008e-03,1.16,-1.58
-4.992e-03,0.68,-1.56
-4.976e-03,0.12,-1.54
-4.960e-03,-0.36,-1.48
-4.944e-03,-0.76,-1.38
-4.928e-03,-1,-1.3
-4.912e-03,-1.04,-1.18
-4.896e-03,-0.96,-1.08
-4.880e-03,-0.76,-1
-4.864e-03,-0.4,-0.9
-4.848e-03,0.04,-0.82
-4.832e-03,0.48,-0.74
-4.816e-03,0.88,-0.68
-4.800e-03,1.32,-0.64
-4.784e-03,1.64,-0.62
-4.768e-03,1.96,-0.56
-4.752e-03,2.12,-0.54
-4.736e-03,2.28,-0.5
-4.720e-03,2.4,-0.48
-4.704e-03,2.44,-0.42
-4.688e-03,2.4,-0.42
-4.672e-03,2.36,-0.34
-4.656e-03,2.28,-0.3
-4.640e-03,2.2,-0.26
-4.624e-03,2.08,-0.2
-4.608e-03,2,-0.16
-4.592e-03,1.88,-0.1
-4.576e-03,1.76,-0.04
-4.560e-03,1.72,0
-4.544e-03,1.6,0.04
-4.528e-03,1.56,0.08
-4.512e-03,1.48,0.12
-4.496e-03,1.48,0.16
-4.480e-03,1.52,0.18
-4.464e-03,1.52,0.2
-4.448e-03,1.56,0.22
-4.432e-03,1.6,0.2
-4.416e-03,1.68,0.2
-4.400e-03,1.72,0.18
-4.384e-03,1.76,0.14
-4.368e-03,1.88,0.1
-4.352e-03,1.88,0.06
-4.336e-03,1.96,0
-4.320e-03,2,-0.06
-4.304e-03,2.04,-0.12
-4.288e-03,2.04,-0.18
-4.272e-03,2.04,-0.28
-4.256e-03,2,-0.38
-4.240e-03,2,-0.44
-4.224e-03,1.92,-0.52
-4.208e-03,1.84,-0.62
-4.192e-03,1.68,-0.72
-4.176e-03,1.56,-0.8
-4.160e-03,1.36,-0.86
-4.144e-03,1.08,-0.94
-4.128e-03,0.8,-1
-4.112e-03,0.48,-1.04
-4.096e-03,0.16,-1.06
-4.080e-03,-0.24,-1.1
-4.064e-03,-0.56,-1.1
-4.048e-03,-0.92,-1.1
-4.032e-03,-1.12,-1.12
-4.016e-03,-1.24,-1.08
-4.000e-03,-1.28,-1.06
-3.984e-03,-1.2,-1.06
-3.968e-03,-1.04,-1.04
-3.952e-03,-0.72,-1.04
-3.936e-03,-0.4,-1.02
-3.920e-03,-0.04,-1.04
-3.904e-03,0.4,-1.04
-3.888e-03,0.88,-1.06
-3.872e-03,1.28,-1.1
-3.856e-03,1.64,-1.14
-3.840e-03,1.92,-1.16
-3.824e-03,2.16,-1.18
-3.808e-03,2.24,-1.22
-3.792e-03,2.16,-1.22
-3.776e-03,2,-1.22
-3.760e-03,1.72,-1.2
-3.744e-03,1.36,-1.16
-3.728e-03,0.92,-1.1
-3.712e-03,0.4,-1.04
-3.696e-03,-0.04,-0.94
-3.680e-03,-0.44,-0.8
-3.664e-03,-0.84,-0.68
-3.648e-03,-1.12,-0.52
-3.632e-03,-1.28,-0.38
-3.616e-03,-1.4,-0.22
-3.600e-03,-1.48,-0.06
-3.584e-03,-1.52,0.06
-3.568e-03,-1.4,0.2
-3.552e-03,-1.32,0.34
-3.536e-03,-1.36,0.48
-3.520e-03,-1.32,0.6
-3.504e-03,-1.32,0.72
-3.488e-03,-1.32,0.8
-3.472e-03,-1.36,0.9
-3.456e-03,-1.36,1.02
-3.440e-03,-1.36,1.08
-3.424e-03,-1.32,1.14
-3.408e-03,-1.16,1.22
-3.392e-03,-0.92,1.26
-3.376e-03,-0.68,1.32
-3.360e-03,-0.28,1.32
-3.344e-03,0.2,1.3
-3.328e-03,0.64,1.26
-3.312e-03,1.08,1.2
-3.296e-03,1.56,1.12
-3.280e-03,1.88,1.04
-3.264e-03,2.04,0.94
-3.248e-03,2.16,0.84
-3.232e-03,2.16,0.72
-3.216e-03,2.04,0.6
-3.200e-03,1.8,0.5
-3.184e-03,1.56,0.42
-3.168e-03,1.32,0.3
-3.152e-03,1.04,0.22
-3.136e-03,0.8,0.12
-3.120e-03,0.6,0.06
-3.104e-03,0.4,-0.02
-3.088e-03,0.24,-0.08
-3.072e-03,0.16,-0.18
-3.056e-03,0.12,-0.22
-3.040e-03,0.12,-0.3
-3.024e-03,0.16,-0.36
-3.008e-03,0.24,-0.46
-2.992e-03,0.36,-0.52
-2.976e-03,0.48,-0.6
-2.960e-03,0.68,-0.7
-2.944e-03,0.88,-0.78
-2.928e-03,1.12,-0.86
-2.912e-03,1.36,-0.96
-2.896e-03,1.56,-1.04
-2.880e-03,1.8,-1.14
-2.864e-03,2,-1.22
-2.848e-03,2.16,-1.3
-2.832e-03,2.16,-1.38
-2.816e-03,2.12,-1.44
-2.800e-03,1.96,-1.5
-2.784e-03,1.72,-1.54
-2.768e-03,1.24,-1.54
-2.752e-03,0.76,-1.54
-2.736e-03,0.24,-1.5
-2.720e-03,-0.24,-1.44
-2.704e-03,-0.64,-1.36
-2.688e-03,-1,-1.24
-2.672e-03,-1.08,-1.14
-2.656e-03,-1,-1.02
-2.640e-03,-0.84,-0.92
-2.624e-03,-0.56,-0.82
-2.608e-03,-0.2,-0.72
-2.592e-03,0.2,-0.64
-2.576e-03,0.64,-0.58
-2.560e-03,1,-0.52
-2.544e-03,1.32,-0.44
-2.528e-03,1.64,-0.4
-2.512e-03,1.92,-0.36
-2.496e-03,2.08,-0.32
-2.480e-03,2.2,-0.28
-2.464e-03,2.32,-0.26
-2.448e-03,2.4,-0.22
-2.432e-03,2.4,-0.18
-2.416e-03,2.44,-0.16
-2.400e-03,2.48,-0.12
-2.384e-03,2.44,-0.1
-2.368e-03,2.4,-0.06
-2.352e-03,2.4,-0.04
-2.336e-03,2.4,0
-2.320e-03,2.4,0
-2.304e-03,2.36,0.02
-2.288e-03,2.32,0.04
-2.272e-03,2.36,0.04
-2.256e-03,2.32,0.04
-2.240e-03,2.32,0.04
-2.224e-03,2.36,0.04
-2.208e-03,2.36,0.02
-2.192e-03,2.32,-0.02
-2.176e-03,2.32,-0.02
-2.160e-03,2.36,-0.06
-2.144e-03,2.36,-0.1
-2.128e-03,2.32,-0.16
-2.112e-03,2.36,-0.2
-2.096e-03,2.32,-0.26
-2.080e-03,2.32,-0.34
-2.064e-03,2.28,-0.4
-2.048e-03,2.24,-0.48
-2.032e-03,2.24,-0.56
-2.016e-03,2.12,-0.64
-2.000e-03,2,-0.72
-1.984e-03,1.88,-0.8
-1.968e-03,1.72,-0.88
-1.952e-03,1.48,-0.94
-1.936e-03,1.2,-1.02
-1.920e-03,0.84,-1.04
-1.904e-03,0.52,-1.08
-1.888e-03,0.12,-1.12
-1.872e-03,-0.24,-1.14
-1.856e-03,-0.64,-1.14
-1.840e-03,-0.88,-1.14
-1.824e-03,-1.12,-1.14
-1.808e-03,-1.24,-1.12
-1.792e-03,-1.28,-1.1
-1.776e-03,-1.2,-1.08
-1.760e-03,-0.96,-1.08
-1.744e-03,-0.64,-1.06
-1.728e-03,-0.28,-1.06
-1.712e-03,0.16,-1.08
-1.696e-03,0.6,-1.1
-1.680e-03,1.04,-1.14
-1.664e-03,1.44,-1.18
-1.648e-03,1.76,-1.22
-1.632e-03,2.04,-1.26
-1.616e-03,2.2,-1.28
-1.600e-03,2.16,-1.32
-1.584e-03,2.04,-1.32
-1.568e-03,1.76,-1.32
-1.552e-03,1.36,-1.3
-1.536e-03,0.96,-1.24
-1.520e-03,0.48,-1.16
-1.504e-03,-0.04,-1.08
-1.488e-03,-0.52,-0.96
-1.472e-03,-0.84,-0.84
-1.456e-03,-1.12,-0.68
-1.440e-03,-1.32,-0.54
-1.424e-03,-1.36,-0.4
-1.408e-03,-1.32,-0.24
-1.392e-03,-1.24,-0.1
-1.376e-03,-1.16,0.02
-1.360e-03,-1.04,0.14
-1.344e-03,-0.92,0.28
-1.328e-03,-0.8,0.38
