run4/TEK00026.CSV

Model,TBS2102B
Firmware Version,v1.31.14

Point Format,Y,
Horizontal Units,S,
Horizontal Scale,0.002,
Sample Interval,1.6e-05,
Filter Frequency,2e+08,
Record Length,2000,
Gating,0.0% to 100.0%,0.0% to 100.0%
Probe Attenuation,1,1
Vertical Units,V,V
Vertical Offset,0,0
Vertical Scale,1,0.5
Label,,
TIME,CH1,CH2
-1.600e-02,1.24,-1.46
-1.598e-02,0.76,-1.44
-1.597e-02,0.24,-1.36
-1.595e-02,-0.2,-1.26
-1.594e-02,-0.68,-1.14
-1.592e-02,-0.96,-1.02
-1.590e-02,-1.16,-0.88
-1.589e-02,-1.2,-0.74
-1.587e-02,-1.12,-0.58
-1.586e-02,-0.88,-0.44
-1.584e-02,-0.72,-0.3
-1.582e-02,-0.4,-0.18
-1.581e-02,-0.12,-0.06
-1.579e-02,0.04,0.02
-1.578e-02,0.24,0.12
-1.576e-02,0.4,0.22
-1.574e-02,0.48,0.32
-1.573e-02,0.52,0.4
-1.571e-02,0.48,0.48
-1.570e-02,0.44,0.56
-1.568e-02,0.32,0.64
-1.566e-02,0.12,0.72
-1.565e-02,-0.04,0.78
-1.563e-02,-0.24,0.86
-1.562e-02,-0.48,0.94
-1.560e-02,-0.72,1
-1.558e-02,-0.92,1.08
-1.557e-02,-1.16,1.16
-1.555e-02,-1.24,1.22
-1.554e-02,-1.28,1.28
-1.552e-02,-1.24,1.32
-1.550e-02,-1.04,1.34
-1.549e-02,-0.72,1.34
-1.547e-02,-0.36,1.32
-1.546e-02,0.08,1.3
-1.544e-02,0.6,1.22
-1.542e-02,1.08,1.12
-1.541e-02,1.48,1.02
-1.539e-02,1.84,0.88
-1.538e-02,2.08,0.74
-1.536e-02,2.24,0.58
-1.534e-02,2.2,0.44
-1.533e-02,2.16,0.3
-1.531e-02,2.04,0.14
-1.530e-02,1.88,0
-1.528e-02,1.72,-0.14
-1.526e-02,1.6,-0.28
-1.525e-02,1.52,-0.38
-1.523e-02,1.48,-0.52
-1.522e-02,1.52,-0.64
-1.520e-02,1.56,-0.78
-1.518e-02,1.68,-0.88
-1.517e-02,1.76,-1
-1.515e-02,1.92,-1.1
-1.514e-02,2.08,-1.24
-1.512e-02,2.16,-1.34
-1.510e-02,2.16,-1.46
-1.509e-02,2.08,-1.56
-1.507e-02,1.88,-1.62
-1.506e-02,1.6,-1.72
-1.504e-02,1.16,-1.74
-1.502e-02,0.56,-1.76
-1.501e-02,0.04,-1.76
-1.499e-02,-0.36,-1.72
-1.498e-02,-0.72,-1.68
-1.496e-02,-0.92,-1.6
-1.494e-02,-0.88,-1.52
-1.493e-02,-0.64,-1.46
-1.491e-02,-0.24,-1.4
-1.490e-02,0.28,-1.34
-1.488e-02,0.76,-1.28
-1.486e-02,1.24,-1.26
-1.485e-02,1.64,-1.22
-1.483e-02,1.92,-1.2
-1.482e-02,2.04,-1.18
-1.480e-02,2,-1.14
-1.478e-02,1.84,-1.08
-1.477e-02,1.6,-1.02
-1.475e-02,1.24,-0.94
-1.474e-02,0.76,-0.84
-1.472e-02,0.32,-0.72
-1.470e-02,-0.12,-0.58
-1.469e-02,-0.48,-0.42
-1.467e-02,-0.84,-0.26
-1.466e-02,-1.12,-0.1
-1.464e-02,-1.28,0.06
-1.462e-02,-1.4,0.22
-1.461e-02,-1.48,0.38
-1.459e-02,-1.48,0.54
-1.458e-02,-1.48,0.7
-1.456e-02,-1.48,0.82
-1.454e-02,-1.44,0.94
-1.453e-02,-1.24,1.06
-1.451e-02,-1.08,1.14
-1.450e-02,-0.88,1.22
-1.448e-02,-0.52,1.28
-1.446e-02,-0.16,1.3
-1.445e-02,0.24,1.34
-1.443e-02,0.72,1.3
-1.442e-02,1.16,1.28
-1.440e-02,1.56,1.22
-1.438e-02,1.84,1.12
-1.437e-02,2.12,1.06
-1.435e-02,2.12,0.96
-1.434e-02,2.08,0.86
-1.432e-02,1.96,0.76
-1.430e-02,1.64,0.64
-1.429e-02,1.32,0.56
-1.427e-02,1,0.48
-1.426e-02,0.68,0.4
-1.424e-02,0.32,0.32
-1.422e-02,0.04,0.26
-1.421e-02,-0.16,0.18
-1.419e-02,-0.4,0.16
-1.418e-02,-0.6,0.06
-1.416e-02,-0.68,0
-1.414e-02,-0.8,-0.04
-1.413e-02,-0.84,-0.1
-1.411e-02,-0.88,-0.18
-1.410e-02,-0.84,-0.24
-1.408e-02,-0.84,-0.3
-1.406e-02,-0.8,-0.36
-1.405e-02,-0.76,-0.44
-1.403e-02,-0.64,-0.52
-1.402e-02,-0.44,-0.6
-1.400e-02,-0.36,-0.66
-1.398e-02,-0.12,-0.72
-1.397e-02,0.12,-0.8
-1.395e-02,0.4,-0.88
-1.394e-02,0.64,-0.96
-1.392e-02,0.96,-1.02
-1.390e-02,1.24,-1.1
-1.389e-02,1.56,-1.18
-1.387e-02,1.84,-1.24
-1.386e-02,2.04,-1.32
-1.384e-02,2.16,-1.38
-1.382e-02,2.2,-1.42
-1.381e-02,2.04,-1.44
-1.379e-02,1.8,-1.46
-1.378e-02,1.4,-1.44
-1.376e-02,0.92,-1.42
-1.374e-02,0.44,-1.36
-1.373e-02,-0.08,-1.26
-1.371e-02,-0.52,-1.14
-1.370e-02,-0.88,-1.02
-1.368e-02,-1.12,-0.88
-1.366e-02,-1.2,-0.72
-1.365e-02,-1.2,-0.6
-1.363e-02,-1.08,-0.44
-1.362e-02,-0.88,-0.3
-1.360e-02,-0.6,-0.16
-1.358e-02,-0.4,-0.04
-1.357e-02,-0.16,0.06
-1.355e-02,0,0.18
-1.354e-02,0.16,0.28
-1.352e-02,0.2,0.36
-1.350e-02,0.24,0.48
-1.349e-02,0.24,0.54
-1.347e-02,0.12,0.62
-1.346e-02,0,0.72
-1.344e-02,-0.12,0.8
-1.342e-02,-0.36,0.88
-1.341e-02,-0.56,0.96
-1.339e-02,-0.8,1.04
-1.338e-02,-1,1.12
-1.336e-02,-1.2,1.2
-1.334e-02,-1.28,1.26
-1.333e-02,-1.28,1.32
-1.331e-02,-1.16,1.36
-1.330e-02,-0.96,1.38
-1.328e-02,-0.56,1.4
-1.326e-02,-0.16,1.38
-1.325e-02,0.28,1.34
-1.323e-02,0.84,1.28
-1.322e-02,1.32,1.18
-1.320e-02,1.64,1.06
-1.318e-02,1.96,0.92
-1.317e-02,2.12,0.8
-1.315e-02,2.16,0.66
-1.314e-02,2.08,0.54
-1.312e-02,1.92,0.38
-1.310e-02,1.76,0.24
-1.309e-02,1.48,0.1
-1.307e-02,1.28,-0.02
-1.306e-02,1.12,-0.12
-1.304e-02,0.92,-0.22
-1.302e-02,0.84,-0.34
-1.301e-02,0.8,-0.44
-1.299e-02,0.84,-0.54
-1.298e-02,0.88,-0.68
-1.296e-02,1,-0.78
-1.294e-02,1.24,-0.88
-1.293e-02,1.4,-0.98
-1.291e-02,1.6,-1.08
-1.290e-02,1.8,-1.18
-1.288e-02,2.04,-1.3
-1.286e-02,2.12,-1.42
-1.285e-02,2.2,-1.52
-1.283e-02,2.08,-1.6
-1.282e-02,1.84,-1.68
-1.280e-02,1.48,-1.72
-1.278e-02,1.04,-1.74
-1.277e-02,0.48,-1.76
-1.275e-02,-0.04,-1.72
-1.274e-02,-0.48,-1.68
-1.272e-02,-0.8,-1.6
-1.270e-02,-0.88,-1.52
-1.269e-02,-0.84,-1.44
-1.267e-02,-0.6,-1.34
-1.266e-02,-0.2,-1.26
-1.264e-02,0.32,-1.18
-1.262e-02,0.84,-1.14
-1.261e-02,1.28,-1.1
-1.259e-02,1.68,-1.06
-1.258e-02,1.96,-1
-1.256e-02,2.16,-0.96
-1.254e-02,2.16,-0.94
-1.253e-02,2.08,-0.88
-1.251e-02,1.92,-0.82
-1.250e-02,1.6,-0.74
-1.248e-02,1.28,-0.64
-1.246e-02,0.88,-0.56
-1.245e-02,0.52,-0.42
-1.243e-02,0.2,-0.28
-1.242e-02,-0.12,-0.16
-1.240e-02,-0.4,-0.02
-1.238e-02,-0.6,0.12
-1.237e-02,-0.72,0.28
-1.235e-02,-0.84,0.42
-1.234e-02,-0.92,0.54
-1.232e-02,-0.88,0.66
-1.230e-02,-0.72,0.76
-1.229e-02,-0.64,0.86
-1.227e-02,-0.4,0.94
-1.226e-02,-0.12,1
-1.224e-02,0.12,1.04
-1.222e-02,0.52,1.08
-1.221e-02,0.92,1.06
-1.219e-02,1.24,1.06
-1.218e-02,1.64,0.98
-1.216e-02,1.88,0.94
-1.214e-02,2.08,0.86
-1.213e-02,2.24,0.78
-1.211e-02,2.24,0.68
-1.210e-02,2.24,0.58
-1.208e-02,2.08,0.48
-1.206e-02,1.92,0.38
-1.205e-02,1.76,0.28
-1.203e-02,1.56,0.18
-1.202e-02,1.28,0.1
-1.200e-02,1.16,0
-1.198e-02,1,-0.08
-1.197e-02,0.84,-0.16
-1.195e-02,0.76,-0.24
-1.194e-02,0.76,-0.34
-1.192e-02,0.76,-0.42
-1.190e-02,0.88,-0.52
-1.189e-02,0.92,-0.62
-1.187e-02,1.12,-0.74
-1.186e-02,1.28,-0.84
-1.184e-02,1.48,-0.94
-1.182e-02,1.64,-1.04
-1.181e-02,1.88,-1.16
-1.179e-02,2.04,-1.28
-1.178e-02,2.16,-1.4
-1.176e-02,2.2,-1.5
-1.174e-02,2.08,-1.6
-1.173e-02,1.88,-1.68
-1.171e-02,1.56,-1.72
-1.170e-02,1.04,-1.78
-1.168e-02,0.56,-1.78
-1.166e-02,-0.04,-1.76
-1.165e-02,-0.48,-1.72
-1.163e-02,-0.76,-1.66
-1.162e-02,-0.88,-1.6
-1.160e-02,-0.84,-1.5
-1.158e-02,-0.56,-1.44
-1.157e-02,-0.12,-1.38
-1.155e-02,0.36,-1.32
-1.154e-02,0.88,-1.26
-1.152e-02,1.32,-1.22
-1.150e-02,1.72,-1.18
-1.149e-02,2,-1.16
-1.147e-02,2.08,-1.12
-1.146e-02,2.04,-1.08
-1.144e-02,1.84,-1.04
-1.142e-02,1.52,-0.96
-1.141e-02,1.16,-0.88
-1.139e-02,0.72,-0.78
-1.138e-02,0.28,-0.66
-1.136e-02,-0.08,-0.52
-1.134e-02,-0.48,-0.36
-1.133e-02,-0.8,-0.2
-1.131e-02,-1.04,-0.04
-1.130e-02,-1.24,0.12
-1.128e-02,-1.32,0.28
-1.126e-02,-1.44,0.44
-1.125e-02,-1.48,0.58
-1.123e-02,-1.44,0.72
-1.122e-02,-1.4,0.86
-1.120e-02,-1.28,0.96
-1.118e-02,-1.12,1.06
-1.117e-02,-0.88,1.16
-1.115e-02,-0.6,1.22
-1.114e-02,-0.24,1.26
-1.112e-02,0.16,1.28
-1.110e-02,0.56,1.28
-1.109e-02,1.04,1.26
-1.107e-02,1.48,1.2
-1.106e-02,1.8,1.14
-1.104e-02,2,1.06
-1.102e-02,2.16,0.96
-1.101e-02,2.16,0.86
-1.099e-02,2.04,0.78
-1.098e-02,1.84,0.66
-1.096e-02,1.56,0.56
-1.094e-02,1.2,0.48
-1.093e-02,0.96,0.4
-1.091e-02,0.6,0.32
-1.090e-02,0.28,0.24
-1.088e-02,0.04,0.16
-1.086e-02,-0.12,0.1
-1.085e-02,-0.36,0.04
-1.083e-02,-0.48,-0.02
-1.082e-02,-0.52,-0.08
-1.080e-02,-0.56,-0.14
-1.078e-02,-0.6,-0.22
-1.077e-02,-0.64,-0.28
-1.075e-02,-0.56,-0.34
-1.074e-02,-0.48,-0.44
-1.072e-02,-0.4,-0.5
-1.070e-02,-0.28,-0.58
-1.069e-02,-0.12,-0.66
-1.067e-02,0.04,-0.74
-1.066e-02,0.28,-0.82
-1.064e-02,0.52,-0.9
-1.062e-02,0.84,-0.98
-1.061e-02,1.16,-1.08
-1.059e-02,1.44,-1.16
-1.058e-02,1.72,-1.24
-1.056e-02,1.96,-1.32
-1.054e-02,2.12,-1.4
-1.053e-02,2.2,-1.46
-1.051e-02,2.08,-1.52
-1.050e-02,1.92,-1.54
-1.048e-02,1.52,-1.56
-1.046e-02,1.08,-1.54
-1.045e-02,0.6,-1.5
-1.043e-02,0.08,-1.44
-1.042e-02,-0.44,-1.34
-1.040e-02,-0.8,-1.22
-1.038e-02,-1.04,-1.1
-1.037e-02,-1.08,-0.96
-1.035e-02,-1.04,-0.84
-1.034e-02,-0.8,-0.7
-1.032e-02,-0.52,-0.58
-1.030e-02,-0.16,-0.46
-1.029e-02,0.12,-0.36
-1.027e-02,0.52,-0.26
-1.026e-02,0.84,-0.18
-1.024e-02,1.08,-0.1
-1.022e-02,1.28,-0.02
-1.021e-02,1.44,0.02
-1.019e-02,1.6,0.1
-1.018e-02,1.68,0.14
-1.016e-02,1.68,0.2
-1.014e-02,1.68,0.26
-1.013e-02,1.68,0.32
-1.011e-02,1.64,0.36
-1.010e-02,1.52,0.42
-1.008e-02,1.44,0.48
-1.006e-02,1.32,0.5
-1.005e-02,1.16,0.54
-1.003e-02,1,0.58
-1.002e-02,0.8,0.62
-1.000e-02,0.56,0.68
-9.984e-03,0.32,0.7
-9.968e-03,0.08,0.74
-9.952e-03,-0.16,0.76
-9.936e-03,-0.44,0.78
-9.920e-03,-0.64,0.8
-9.904e-03,-0.88,0.84
-9.888e-03,-1.08,0.84
-9.872e-03,-1.28,0.86
-9.856e-03,-1.32,0.86
-9.840e-03,-1.36,0.86
-9.824e-03,-1.36,0.82
-9.808e-03,-1.24,0.8
-9.792e-03,-1.08,0.76
-9.776e-03,-0.88,0.7
-9.760e-03,-0.6,0.62
-9.744e-03,-0.28,0.54
-9.728e-03,0,0.44
-9.712e-03,0.28,0.32
-9.696e-03,0.6,0.18
-9.680e-03,0.84,0.04
-9.664e-03,1,-0.08
-9.648e-03,1.2,-0.24
-9.632e-03,1.28,-0.38
-9.616e-03,1.32,-0.52
-9.600e-03,1.28,-0.66
-9.584e-03,1.2,-0.78
-9.568e-03,1.04,-0.88
-9.552e-03,0.84,-0.98
-9.536e-03,0.52,-1.06
-9.520e-03,0.24,-1.12
-9.504e-03,-0.08,-1.16
-9.488e-03,-0.4,-1.2
-9.472e-03,-0.8,-1.2
-9.456e-03,-1,-1.2
-9.440e-03,-1.16,-1.16
-9.424e-03,-1.2,-1.14
-9.408e-03,-1.16,-1.1
-9.392e-03,-0.96,-1.06
-9.376e-03,-0.72,-1.02
-9.360e-03,-0.32,-0.96
-9.344e-03,0.08,-0.94
-9.328e-03,0.56,-0.94
-9.312e-03,0.96,-0.92
-9.296e-03,1.4,-0.9
-9.280e-03,1.68,-0.9
-9.264e-03,2,-0.88
-9.248e-03,2.16,-0.86
-9.232e-03,2.32,-0.86
-9.216e-03,2.32,-0.82
-9.200e-03,2.24,-0.78
-9.184e-03,2.12,-0.74
-9.168e-03,1.92,-0.68
-9.152e-03,1.68,-0.6
-9.136e-03,1.4,-0.52
-9.120e-03,1.04,-0.42
-9.104e-03,0.76,-0.32
-9.088e-03,0.48,-0.2
-9.072e-03,0.24,-0.08
-9.056e-03,0,0.06
-9.040e-03,-0.16,0.18
-9.024e-03,-0.24,0.3
-9.008e-03,-0.36,0.42
-8.992e-03,-0.36,0.54
-8.976e-03,-0.28,0.64
-8.960e-03,-0.16,0.74
-8.944e-03,-0.04,0.8
-8.928e-03,0.24,0.86
-8.912e-03,0.44,0.9
-8.896e-03,0.72,0.92
-8.880e-03,1.08,0.92
-8.864e-03,1.36,0.92
-8.848e-03,1.64,0.88
-8.832e-03,1.96,0.84
-8.816e-03,2.12,0.76
-8.800e-03,2.24,0.7
-8.784e-03,2.32,0.6
-8.768e-03,2.32,0.52
-8.752e-03,2.24,0.42
-8.736e-03,2.12,0.32
-8.720e-03,1.96,0.24
-8.704e-03,1.84,0.14
-8.688e-03,1.68,0.04
-8.672e-03,1.56,-0.08
-8.656e-03,1.44,-0.16
-8.640e-03,1.44,-0.24
-8.624e-03,1.4,-0.34
-8.608e-03,1.36,-0.44
-8.592e-03,1.4,-0.58
-8.576e-03,1.48,-0.66
-8.560e-03,1.64,-0.78
-8.544e-03,1.76,-0.9
-8.528e-03,1.92,-1
-8.512e-03,2.04,-1.12
-8.496e-03,2.16,-1.22
-8.480e-03,2.2,-1.34
-8.464e-03,2.2,-1.46
-8.448e-03,2.04,-1.56
-8.432e-03,1.84,-1.64
-8.416e-03,1.44,-1.72
-8.400e-03,0.96,-1.74
-8.384e-03,0.4,-1.78
-8.368e-03,-0.08,-1.76
-8.352e-03,-0.48,-1.74
-8.336e-03,-0.8,-1.7
-8.320e-03,-0.92,-1.64
-8.304e-03,-0.8,-1.58
-8.288e-03,-0.48,-1.52
-8.272e-03,-0.04,-1.48
-8.256e-03,0.48,-1.44
-8.240e-03,0.96,-1.42
-8.224e-03,1.44,-1.4
-8.208e-03,1.76,-1.38
-8.192e-03,1.96,-1.36
-8.176e-03,1.96,-1.34
-8.160e-03,1.76,-1.3
-8.144e-03,1.48,-1.24
-8.128e-03,1.08,-1.18
-8.112e-03,0.6,-1.08
-8.096e-03,0.12,-0.96
-8.080e-03,-0.36,-0.82
-8.064e-03,-0.72,-0.68
-8.048e-03,-1.04,-0.5
-8.032e-03,-1.28,-0.34
-8.016e-03,-1.4,-0.16
-8.000e-03,-1.4,0
-7.984e-03,-1.44,0.16
-7.968e-03,-1.44,0.32
-7.952e-03,-1.4,0.46
-7.936e-03,-1.36,0.6
-7.920e-03,-1.36,0.74
-7.904e-03,-1.36,0.86
-7.888e-03,-1.36,0.98
-7.872e-03,-1.36,1.08
-7.856e-03,-1.4,1.18
-7.840e-03,-1.28,1.28
-7.824e-03,-1.08,1.34
-7.808e-03,-0.92,1.4
-7.792e-03,-0.48,1.44
-7.776e-03,-0.08,1.46
-7.760e-03,0.4,1.44
-7.744e-03,0.88,1.4
-7.728e-03,1.36,1.34
-7.712e-03,1.68,1.26
-7.696e-03,2,1.16
-7.680e-03,2.08,1.06
-7.664e-03,2,0.96
-7.648e-03,1.84,0.84
-7.632e-03,1.6,0.76
-7.616e-03,1.2,0.64
-7.600e-03,0.84,0.56
-7.584e-03,0.52,0.48
-7.568e-03,0.12,0.4
-7.552e-03,-0.24,0.32
-7.536e-03,-0.48,0.26
-7.520e-03,-0.68,0.22
-7.504e-03,-0.88,0.14
-7.488e-03,-1,0.08
-7.472e-03,-1.16,0.02
-7.456e-03,-1.16,-0.02
-7.440e-03,-1.24,-0.08
-7.424e-03,-1.24,-0.14
-7.408e-03,-1.24,-0.2
-7.392e-03,-1.24,-0.26
-7.376e-03,-1.2,-0.34
-7.360e-03,-1.16,-0.4
-7.344e-03,-1.04,-0.46
-7.328e-03,-0.96,-0.52
-7.312e-03,-0.88,-0.56
-7.296e-03,-0.72,-0.62
-7.280e-03,-0.56,-0.68
-7.264e-03,-0.32,-0.74
-7.248e-03,-0.08,-0.8
-7.232e-03,0.12,-0.84
-7.216e-03,0.44,-0.88
-7.200e-03,0.76,-0.94
-7.184e-03,1.08,-0.98
-7.168e-03,1.4,-1.04
-7.152e-03,1.68,-1.1
-7.136e-03,1.96,-1.12
-7.120e-03,2.16,-1.16
-7.104e-03,2.24,-1.18
-7.088e-03,2.24,-1.2
-7.072e-03,2.12,-1.22
-7.056e-03,1.92,-1.18
-7.040e-03,1.52,-1.14
-7.024e-03,1.12,-1.08
-7.008e-03,0.68,-1
-6.992e-03,0.2,-0.9
-6.976e-03,-0.2,-0.78
-6.960e-03,-0.6,-0.64
-6.944e-03,-0.92,-0.48
-6.928e-03,-1.16,-0.32
-6.912e-03,-1.36,-0.14
-6.896e-03,-1.48,0
-6.880e-03,-1.52,0.16
-6.864e-03,-1.52,0.32
-6.848e-03,-1.52,0.46
-6.832e-03,-1.52,0.62
-6.816e-03,-1.52,0.76
-6.800e-03,-1.48,0.88
-6.784e-03,-1.48,1
-6.768e-03,-1.4,1.12
-6.752e-03,-1.28,1.22
-6.736e-03,-1.12,1.3
-6.720e-03,-0.88,1.36
-6.704e-03,-0.48,1.4
-6.688e-03,-0.08,1.44
-6.672e-03,0.36,1.42
-6.656e-03,0.88,1.4
-6.640e-03,1.32,1.36
-6.624e-03,1.68,1.28
-6.608e-03,1.96,1.2
-6.592e-03,2.08,1.12
-6.576e-03,2,1.02
-6.560e-03,1.88,0.92
-6.544e-03,1.6,0.82
-6.528e-03,1.2,0.74
-6.512e-03,0.84,0.66
-6.496e-03,0.44,0.6
-6.480e-03,0,0.52
-6.464e-03,-0.28,0.48
-6.448e-03,-0.6,0.42
-6.432e-03,-0.84,0.36
-6.416e-03,-1.08,0.34
-6.400e-03,-1.2,0.26
-6.384e-03,-1.32,0.22
-6.368e-03,-1.44,0.16
-6.352e-03,-1.44,0.12
-6.336e-03,-1.48,0.06
-6.320e-03,-1.48,-0.02
-6.304e-03,-1.52,-0.06
-6.288e-03,-1.52,-0.14
-6.272e-03,-1.48,-0.18
-6.256e-03,-1.48,-0.24
-6.240e-03,-1.48,-0.3
-6.224e-03,-1.48,-0.36
-6.208e-03,-1.4,-0.4
-6.192e-03,-1.36,-0.46
-6.176e-03,-1.36,-0.5
-6.160e-03,-1.32,-0.54
-6.144e-03,-1.2,-0.56
-6.128e-03,-1.08,-0.62
-6.112e-03,-0.96,-0.62
-6.096e-03,-0.8,-0.64
-6.080e-03,-0.56,-0.66
-6.064e-03,-0.32,-0.68
-6.048e-03,-0.08,-0.68
-6.032e-03,0.12,-0.7
-6.016e-03,0.48,-0.7
-6.000e-03,0.76,-0.7
-5.984e-03,1.04,-0.72
-5.968e-03,1.32,-0.72
-5.952e-03,1.6,-0.72
-5.936e-03,1.84,-0.74
-5.920e-03,2.04,-0.72
-5.904e-03,2.2,-0.72
-5.888e-03,2.28,-0.7
-5.872e-03,2.36,-0.68
-5.856e-03,2.32,-0.66
-5.840e-03,2.28,-0.6
-5.824e-03,2.16,-0.56
-5.808e-03,2.04,-0.5
-5.792e-03,1.84,-0.42
-5.776e-03,1.64,-0.36
-5.760e-03,1.44,-0.26
-5.744e-03,1.24,-0.18
-5.728e-03,1.04,-0.08
-5.712e-03,0.84,0
-5.696e-03,0.72,0.12
-5.680e-03,0.6,0.2
-5.664e-03,0.56,0.32
-5.648e-03,0.56,0.42
-5.632e-03,0.56,0.48
-5.616e-03,0.64,0.54
-5.600e-03,0.76,0.6
-5.584e-03,0.92,0.64
-5.568e-03,1.08,0.68
-5.552e-03,1.24,0.68
-5.536e-03,1.48,0.68
-5.520e-03,1.72,0.68
-5.504e-03,1.88,0.64
-5.488e-03,2.04,0.58
-5.472e-03,2.2,0.52
-5.456e-03,2.28,0.46
-5.440e-03,2.32,0.38
-5.424e-03,2.36,0.3
-5.408e-03,2.4,0.2
-5.392e-03,2.32,0.12
-5.376e-03,2.24,0
-5.360e-03,2.24,-0.08
-5.344e-03,2.2,-0.18
-5.328e-03,2.12,-0.3
-5.312e-03,2.12,-0.4
-5.296e-03,2.12,-0.52
-5.280e-03,2.16,-0.62
-5.264e-03,2.2,-0.74
-5.248e-03,2.2,-0.86
-5.232e-03,2.28,-0.98
-5.216e-03,2.32,-1.08
-5.200e-03,2.28,-1.22
-5.184e-03,2.16,-1.32
-5.168e-03,1.96,-1.42
-5.152e-03,1.68,-1.5
-5.136e-03,1.32,-1.58
-5.120e-03,0.84,-1.64
-5.104e-03,0.32,-1.66
-5.088e-03,-0.12,-1.68
-5.072e-03,-0.6,-1.68
-5.056e-03,-0.84,-1.64
-5.040e-03,-0.96,-1.62
-5.024e-03,-0.92,-1.58
-5.008e-03,-0.68,-1.56
-4.992e-03,-0.2,-1.52
-4.976e-03,0.32,-1.5
-4.960e-03,0.8,-1.5
-4.944e-03,1.28,-1.5
-4.928e-03,1.68,-1.5
-4.912e-03,1.92,-1.52
-4.896e-03,1.92,-1.52
-4.880e-03,1.76,-1.52
-4.864e-03,1.48,-1.48
-4.848e-03,1.04,-1.44
-4.832e-03,0.52,-1.36
-4.816e-03,0,-1.26
-4.800e-03,-0.48,-1.12
-4.784e-03,-0.8,-0.98
-4.768e-03,-1.08,-0.84
-4.752e-03,-1.16,-0.68
-4.736e-03,-1.2,-0.52
-4.720e-03,-1.08,-0.36
-4.704e-03,-0.88,-0.2
-4.688e-03,-0.68,-0.08
-4.672e-03,-0.48,0.06
-4.656e-03,-0.24,0.18
-4.640e-03,-0.12,0.28
-4.624e-03,-0.08,0.4
-4.608e-03,0,0.48
-4.592e-03,0,0.58
-4.576e-03,-0.08,0.66
-4.560e-03,-0.24,0.76
-4.544e-03,-0.36,0.84
-4.528e-03,-0.56,0.92
-4.512e-03,-0.76,1
-4.496e-03,-0.96,1.08
-4.480e-03,-1.12,1.18
-4.464e-03,-1.24,1.26
-4.448e-03,-1.28,1.3
-4.432e-03,-1.2,1.36
-4.416e-03,-1,1.38
-4.400e-03,-0.68,1.4
-4.384e-03,-0.24,1.4
-4.368e-03,0.24,1.36
-4.352e-03,0.68,1.3
-4.336e-03,1.2,1.2
-4.320e-03,1.6,1.12
-4.304e-03,1.92,0.98
-4.288e-03,2.08,0.84
-4.272e-03,2.16,0.72
-4.256e-03,2.08,0.58
-4.240e-03,1.92,0.46
-4.224e-03,1.76,0.3
-4.208e-03,1.48,0.18
-4.192e-03,1.2,0.04
-4.176e-03,1.04,-0.04
-4.160e-03,0.88,-0.16
-4.144e-03,0.72,-0.26
-4.128e-03,0.64,-0.36
-4.112e-03,0.68,-0.46
-4.096e-03,0.72,-0.58
-4.080e-03,0.8,-0.68
-4.064e-03,0.92,-0.78
-4.048e-03,1.12,-0.9
-4.032e-03,1.36,-0.98
-4.016e-03,1.56,-1.1
-4.000e-03,1.8,-1.2
-3.984e-03,2,-1.32
-3.968e-03,2.12,-1.42
-3.952e-03,2.2,-1.52
-3.936e-03,2.08,-1.6
-3.920e-03,1.84,-1.66
-3.904e-03,1.52,-1.72
-3.888e-03,1.04,-1.74
-3.872e-03,0.52,-1.74
-3.856e-03,0,-1.72
-3.840e-03,-0.48,-1.66
-3.824e-03,-0.8,-1.58
-3.808e-03,-0.92,-1.5
-3.792e-03,-0.84,-1.4
-3.776e-03,-0.56,-1.32
-3.760e-03,-0.2,-1.24
-3.744e-03,0.28,-1.18
-3.728e-03,0.76,-1.1
-3.712e-03,1.24,-1.04
-3.696e-03,1.64,-1
-3.680e-03,1.92,-0.96
-3.664e-03,2.12,-0.92
-3.648e-03,2.2,-0.88
-3.632e-03,2.12,-0.82
-3.616e-03,1.96,-0.78
-3.600e-03,1.76,-0.7
-3.584e-03,1.48,-0.62
-3.568e-03,1.16,-0.5
-3.552e-03,0.76,-0.4
-3.536e-03,0.52,-0.28
-3.520e-03,0.16,-0.16
-3.504e-03,-0.08,-0.02
-3.488e-03,-0.28,0.12
-3.472e-03,-0.44,0.24
-3.456e-03,-0.52,0.38
-3.440e-03,-0.56,0.5
-3.424e-03,-0.52,0.62
-3.408e-03,-0.44,0.72
-3.392e-03,-0.36,0.8
-3.376e-03,-0.16,0.88
-3.360e-03,0.12,0.92
-3.344e-03,0.36,0.96
-3.328e-03,0.76,0.98
-3.312e-03,1.08,0.96
-3.296e-03,1.4,0.94
-3.280e-03,1.68,0.9
-3.264e-03,1.96,0.84
-3.248e-03,2.16,0.76
-3.232e-03,2.24,0.68
-3.216e-03,2.32,0.58
-3.200e-03,2.28,0.48
-3.184e-03,2.16,0.38
-3.168e-03,2.04,0.28
-3.152e-03,1.92,0.2
-3.136e-03,1.76,0.08
-3.120e-03,1.56,-0.02
-3.104e-03,1.44,-0.1
-3.088e-03,1.4,-0.2
-3.072e-03,1.32,-0.3
-3.056e-03,1.28,-0.4
-3.040e-03,1.32,-0.5
-3.024e-03,1.4,-0.6
-3.008e-03,1.48,-0.72
-2.992e-03,1.6,-0.82
-2.976e-03,1.76,-0.94
-2.960e-03,1.92,-1.06
-2.944e-03,2.08,-1.16
-2.928e-03,2.16,-1.3
-2.912e-03,2.2,-1.4
-2.896e-03,2.16,-1.5
-2.880e-03,2,-1.6
-2.864e-03,1.72,-1.68
-2.848e-03,1.24,-1.74
-2.832e-03,0.72,-1.78
-2.816e-03,0.24,-1.78
-2.800e-03,-0.28,-1.76
-2.784e-03,-0.64,-1.72
-2.768e-03,-0.88,-1.66
-2.752e-03,-0.92,-1.6
-2.736e-03,-0.72,-1.54
-2.720e-03,-0.32,-1.48
-2.704e-03,0.12,-1.44
-2.688e-03,0.68,-1.4
-2.672e-03,1.2,-1.38
-2.656e-03,1.56,-1.38
-2.640e-03,1.88,-1.36
-2.624e-03,2,-1.32
-2.608e-03,1.92,-1.3
-2.592e-03,1.72,-1.24
-2.576e-03,1.4,-1.2
-2.560e-03,0.96,-1.1
-2.544e-03,0.48,-1
-2.528e-03,-0.04,-0.88
-2.512e-03,-0.44,-0.74
-2.496e-03,-0.8,-0.58
-2.480e-03,-1.12,-0.4
-2.464e-03,-1.28,-0.24
-2.448e-03,-1.4,-0.08
-2.432e-03,-1.48,0.08
-2.416e-03,-1.52,0.26
-2.400e-03,-1.48,0.4
-2.384e-03,-1.44,0.56
-2.368e-03,-1.44,0.72
-2.352e-03,-1.44,0.82
-2.336e-03,-1.4,0.94
-2.320e-03,-1.4,1.06
-2.304e-03,-1.4,1.16
-2.288e-03,-1.28,1.26
-2.272e-03,-1.12,1.32
-2.256e-03,-0.88,1.38
-2.240e-03,-0.48,1.44
-2.224e-03,-0.04,1.44
-2.208e-03,0.36,1.44
-2.192e-03,0.88,1.4
-2.176e-03,1.36,1.34
-2.160e-03,1.72,1.26
-2.144e-03,1.92,1.18
-2.128e-03,2.08,1.06
-2.112e-03,2,0.96
-2.096e-03,1.8,0.84
-2.080e-03,1.6,0.76
-2.064e-03,1.24,0.64
-2.048e-03,0.84,0.56
-2.032e-03,0.48,0.48
-2.016e-03,0.16,0.42
-2.000e-03,-0.2,0.34
-1.984e-03,-0.48,0.28
-1.968e-03,-0.72,0.22
-1.952e-03,-0.88,0.16
-1.936e-03,-1.04,0.1
-1.920e-03,-1.16,0.04
-1.904e-03,-1.16,-0.02
-1.888e-03,-1.24,-0.06
-1.872e-03,-1.28,-0.12
-1.856e-03,-1.24,-0.18
-1.840e-03,-1.24,-0.26
-1.824e-03,-1.24,-0.3
-1.808e-03,-1.2,-0.38
-1.792e-03,-1.12,-0.44
-1.776e-03,-1,-0.5
-1.760e-03,-0.96,-0.56
-1.744e-03,-0.84,-0.62
-1.728e-03,-0.64,-0.68
-1.712e-03,-0.44,-0.72
-1.696e-03,-0.24,-0.76
-1.680e-03,0,-0.82
-1.664e-03,0.28,-0.86
-1.648e-03,0.64,-0.9
-1.632e-03,0.96,-0.96
-1.616e-03,1.24,-1
-1.600e-03,1.56,-1.04
-1.584e-03,1.84,-1.08
-1.568e-03,2.04,-1.12
-1.552e-03,2.2,-1.16
-1.536e-03,2.2,-1.16
-1.520e-03,2.16,-1.18
-1.504e-03,2,-1.16
-1.488e-03,1.72,-1.14
-1.472e-03,1.36,-1.08
-1.456e-03,0.92,-1.02
-1.440e-03,0.48,-0.92
-1.424e-03,0.04,-0.82
-1.408e-03,-0.4,-0.7
-1.392e-03,-0.76,-0.54
-1.376e-03,-1.04,-0.38
