run4/TEK00013.CSV

Model,TBS2102B
Firmware Version,v1.31.14

Point Format,Y,
Horizontal Units,S,
Horizontal Scale,0.002,
Sample Interval,1.6e-05,
Filter Frequency,2e+08,
Record Length,2000,
Gating,0.0% to 100.0%,0.0% to 100.0%
Probe Attenuation,1,1
Vertical Units,V,V
Vertical Offset,0,0
Vertical Scale,1,0.5
Label,,
TIME,CH1,CH2
-1.600e-02,2.36,-0.12
-1.598e-02,2.36,-0.22
-1.597e-02,2.36,-0.32
-1.595e-02,2.32,-0.44
-1.594e-02,2.32,-0.54
-1.592e-02,2.32,-0.66
-1.590e-02,2.32,-0.74
-1.589e-02,2.32,-0.84
-1.587e-02,2.36,-0.96
-1.586e-02,2.28,-1.02
-1.584e-02,2.2,-1.12
-1.582e-02,1.96,-1.18
-1.581e-02,1.72,-1.26
-1.579e-02,1.44,-1.3
-1.578e-02,1,-1.34
-1.576e-02,0.56,-1.36
-1.574e-02,0.08,-1.34
-1.573e-02,-0.36,-1.32
-1.571e-02,-0.72,-1.28
-1.570e-02,-1.04,-1.24
-1.568e-02,-1.2,-1.2
-1.566e-02,-1.2,-1.12
-1.565e-02,-1.04,-1.06
-1.563e-02,-0.72,-1.02
-1.562e-02,-0.36,-0.98
-1.560e-02,0,-0.94
-1.558e-02,0.44,-0.92
-1.557e-02,0.88,-0.92
-1.555e-02,1.32,-0.92
-1.554e-02,1.64,-0.9
-1.552e-02,1.92,-0.92
-1.550e-02,2.16,-0.92
-1.549e-02,2.28,-0.92
-1.547e-02,2.28,-0.92
-1.546e-02,2.24,-0.92
-1.544e-02,2.08,-0.9
-1.542e-02,1.92,-0.88
-1.541e-02,1.56,-0.82
-1.539e-02,1.2,-0.76
-1.538e-02,0.84,-0.68
-1.536e-02,0.48,-0.58
-1.534e-02,0.08,-0.5
-1.533e-02,-0.24,-0.38
-1.531e-02,-0.56,-0.26
-1.530e-02,-0.76,-0.14
-1.528e-02,-0.96,-0.02
-1.526e-02,-1.12,0.12
-1.525e-02,-1.2,0.24
-1.523e-02,-1.28,0.34
-1.522e-02,-1.28,0.44
-1.520e-02,-1.28,0.54
-1.518e-02,-1.2,0.62
-1.517e-02,-1.12,0.72
-1.515e-02,-1,0.78
-1.514e-02,-0.8,0.82
-1.512e-02,-0.56,0.86
-1.510e-02,-0.32,0.88
-1.509e-02,0,0.88
-1.507e-02,0.36,0.88
-1.506e-02,0.64,0.84
-1.504e-02,1.04,0.8
-1.502e-02,1.4,0.76
-1.501e-02,1.72,0.66
-1.499e-02,1.92,0.56
-1.498e-02,2.12,0.46
-1.496e-02,2.28,0.38
-1.494e-02,2.36,0.26
-1.493e-02,2.4,0.16
-1.491e-02,2.4,0.04
-1.490e-02,2.4,-0.08
-1.488e-02,2.4,-0.18
-1.486e-02,2.36,-0.28
-1.485e-02,2.32,-0.38
-1.483e-02,2.32,-0.52
-1.482e-02,2.36,-0.6
-1.480e-02,2.32,-0.7
-1.478e-02,2.36,-0.8
-1.477e-02,2.36,-0.92
-1.475e-02,2.28,-1
-1.474e-02,2.2,-1.08
-1.472e-02,2.04,-1.16
-1.470e-02,1.84,-1.22
-1.469e-02,1.56,-1.28
-1.467e-02,1.16,-1.32
-1.466e-02,0.72,-1.36
-1.464e-02,0.28,-1.36
-1.462e-02,-0.2,-1.34
-1.461e-02,-0.6,-1.32
-1.459e-02,-0.92,-1.26
-1.458e-02,-1.12,-1.22
-1.456e-02,-1.16,-1.14
-1.454e-02,-1.12,-1.1
-1.453e-02,-0.88,-1.04
-1.451e-02,-0.56,-0.98
-1.450e-02,-0.16,-0.96
-1.448e-02,0.28,-0.92
-1.446e-02,0.68,-0.92
-1.445e-02,1.16,-0.9
-1.443e-02,1.52,-0.9
-1.442e-02,1.84,-0.92
-1.440e-02,2.08,-0.92
-1.438e-02,2.24,-0.92
-1.437e-02,2.32,-0.92
-1.435e-02,2.28,-0.92
-1.434e-02,2.16,-0.9
-1.432e-02,1.96,-0.88
-1.430e-02,1.68,-0.84
-1.429e-02,1.36,-0.78
-1.427e-02,1.04,-0.72
-1.426e-02,0.64,-0.64
-1.424e-02,0.24,-0.54
-1.422e-02,-0.08,-0.44
-1.421e-02,-0.36,-0.3
-1.419e-02,-0.68,-0.18
-1.418e-02,-0.92,-0.06
-1.416e-02,-1.04,0.04
-1.414e-02,-1.2,0.16
-1.413e-02,-1.28,0.3
-1.411e-02,-1.24,0.4
-1.410e-02,-1.28,0.52
-1.408e-02,-1.28,0.6
-1.406e-02,-1.16,0.68
-1.405e-02,-1.04,0.76
-1.403e-02,-0.88,0.8
-1.402e-02,-0.72,0.86
-1.400e-02,-0.4,0.88
-1.398e-02,-0.16,0.9
-1.397e-02,0.16,0.88
-1.395e-02,0.52,0.86
-1.394e-02,0.88,0.82
-1.392e-02,1.24,0.76
-1.390e-02,1.52,0.7
-1.389e-02,1.84,0.62
-1.387e-02,2.04,0.52
-1.386e-02,2.2,0.42
-1.384e-02,2.36,0.32
-1.382e-02,2.4,0.2
-1.381e-02,2.44,0.08
-1.379e-02,2.4,-0.02
-1.378e-02,2.4,-0.12
-1.376e-02,2.36,-0.24
-1.374e-02,2.32,-0.34
-1.373e-02,2.32,-0.44
-1.371e-02,2.32,-0.56
-1.370e-02,2.36,-0.66
-1.368e-02,2.32,-0.76
-1.366e-02,2.36,-0.86
-1.365e-02,2.32,-0.96
-1.363e-02,2.28,-1.04
-1.362e-02,2.12,-1.12
-1.360e-02,1.96,-1.2
-1.358e-02,1.72,-1.26
-1.357e-02,1.36,-1.3
-1.355e-02,0.92,-1.34
-1.354e-02,0.48,-1.34
-1.352e-02,0,-1.36
-1.350e-02,-0.4,-1.32
-1.349e-02,-0.8,-1.28
-1.347e-02,-1.08,-1.24
-1.346e-02,-1.16,-1.18
-1.344e-02,-1.16,-1.12
-1.342e-02,-0.96,-1.06
-1.341e-02,-0.72,-1.02
-1.339e-02,-0.36,-0.96
-1.338e-02,0.04,-0.94
-1.336e-02,0.48,-0.92
-1.334e-02,0.96,-0.9
-1.333e-02,1.32,-0.9
-1.331e-02,1.68,-0.92
-1.330e-02,1.96,-0.92
-1.328e-02,2.16,-0.92
-1.326e-02,2.28,-0.92
-1.325e-02,2.28,-0.92
-1.323e-02,2.24,-0.92
-1.322e-02,2.08,-0.9
-1.320e-02,1.8,-0.84
-1.318e-02,1.48,-0.82
-1.317e-02,1.2,-0.74
-1.315e-02,0.8,-0.66
-1.314e-02,0.44,-0.58
-1.312e-02,0.04,-0.48
-1.310e-02,-0.28,-0.36
-1.309e-02,-0.56,-0.24
-1.307e-02,-0.76,-0.12
-1.306e-02,-0.96,0
-1.304e-02,-1.16,0.12
-1.302e-02,-1.2,0.24
-1.301e-02,-1.28,0.34
-1.299e-02,-1.32,0.46
-1.298e-02,-1.24,0.56
-1.296e-02,-1.2,0.64
-1.294e-02,-1.12,0.72
-1.293e-02,-0.96,0.78
-1.291e-02,-0.76,0.84
-1.290e-02,-0.56,0.86
-1.288e-02,-0.32,0.88
-1.286e-02,0.04,0.9
-1.285e-02,0.36,0.88
-1.283e-02,0.72,0.84
-1.282e-02,1.08,0.8
-1.280e-02,1.44,0.72
-1.278e-02,1.72,0.66
-1.277e-02,1.96,0.56
-1.275e-02,2.16,0.46
-1.274e-02,2.28,0.36
-1.272e-02,2.4,0.24
-1.270e-02,2.4,0.14
-1.269e-02,2.44,0.02
-1.267e-02,2.36,-0.08
-1.266e-02,2.36,-0.18
-1.264e-02,2.36,-0.3
-1.262e-02,2.36,-0.4
-1.261e-02,2.32,-0.52
-1.259e-02,2.32,-0.62
-1.258e-02,2.36,-0.72
-1.256e-02,2.32,-0.82
-1.254e-02,2.32,-0.92
-1.253e-02,2.28,-1
-1.251e-02,2.2,-1.1
-1.250e-02,2.08,-1.16
-1.248e-02,1.8,-1.24
-1.246e-02,1.48,-1.28
-1.245e-02,1.12,-1.32
-1.243e-02,0.68,-1.34
-1.242e-02,0.2,-1.36
-1.240e-02,-0.24,-1.34
-1.238e-02,-0.64,-1.3
-1.237e-02,-0.92,-1.26
-1.235e-02,-1.12,-1.22
-1.234e-02,-1.2,-1.14
-1.232e-02,-1.12,-1.08
-1.230e-02,-0.84,-1.02
-1.229e-02,-0.52,-0.98
-1.227e-02,-0.12,-0.94
-1.226e-02,0.32,-0.94
-1.224e-02,0.76,-0.9
-1.222e-02,1.16,-0.92
-1.221e-02,1.56,-0.9
-1.219e-02,1.88,-0.92
-1.218e-02,2.08,-0.92
-1.216e-02,2.24,-0.92
-1.214e-02,2.32,-0.92
-1.213e-02,2.28,-0.92
-1.211e-02,2.12,-0.9
-1.210e-02,1.96,-0.88
-1.208e-02,1.68,-0.84
-1.206e-02,1.36,-0.78
-1.205e-02,0.96,-0.7
-1.203e-02,0.56,-0.64
-1.202e-02,0.2,-0.52
-1.200e-02,-0.12,-0.42
-1.198e-02,-0.44,-0.3
-1.197e-02,-0.68,-0.18
-1.195e-02,-0.88,-0.06
-1.194e-02,-1.04,0.06
-1.192e-02,-1.2,0.18
-1.190e-02,-1.24,0.3
-1.189e-02,-1.28,0.42
-1.187e-02,-1.28,0.52
-1.186e-02,-1.24,0.62
-1.184e-02,-1.16,0.68
-1.182e-02,-1.04,0.76
-1.181e-02,-0.92,0.82
-1.179e-02,-0.64,0.84
-1.178e-02,-0.4,0.88
-1.176e-02,-0.16,0.9
-1.174e-02,0.2,0.88
-1.173e-02,0.56,0.86
-1.171e-02,0.92,0.82
-1.170e-02,1.24,0.76
-1.168e-02,1.56,0.68
-1.166e-02,1.84,0.62
-1.165e-02,2.08,0.52
-1.163e-02,2.24,0.4
-1.162e-02,2.36,0.3
-1.160e-02,2.4,0.2
-1.158e-02,2.4,0.08
-1.157e-02,2.4,-0.02
-1.155e-02,2.4,-0.14
-1.154e-02,2.4,-0.24
-1.152e-02,2.32,-0.34
-1.150e-02,2.32,-0.46
-1.149e-02,2.32,-0.56
-1.147e-02,2.32,-0.68
-1.146e-02,2.32,-0.78
-1.144e-02,2.36,-0.88
-1.142e-02,2.32,-0.96
-1.141e-02,2.28,-1.04
-1.139e-02,2.12,-1.14
-1.138e-02,1.92,-1.2
-1.136e-02,1.68,-1.26
-1.134e-02,1.28,-1.32
-1.133e-02,0.84,-1.34
-1.131e-02,0.44,-1.34
-1.130e-02,-0.04,-1.36
-1.128e-02,-0.48,-1.34
-1.126e-02,-0.84,-1.28
-1.125e-02,-1.08,-1.24
-1.123e-02,-1.2,-1.16
-1.122e-02,-1.12,-1.1
-1.120e-02,-0.96,-1.06
-1.118e-02,-0.68,-1
-1.117e-02,-0.36,-0.96
-1.115e-02,0.08,-0.94
-1.114e-02,0.56,-0.92
-1.112e-02,0.96,-0.9
-1.110e-02,1.4,-0.92
-1.109e-02,1.72,-0.92
-1.107e-02,2,-0.92
-1.106e-02,2.2,-0.92
-1.104e-02,2.28,-0.92
-1.102e-02,2.28,-0.94
-1.101e-02,2.24,-0.92
-1.099e-02,2.08,-0.9
-1.098e-02,1.8,-0.86
-1.096e-02,1.48,-0.82
-1.094e-02,1.16,-0.74
-1.093e-02,0.76,-0.66
-1.091e-02,0.36,-0.58
-1.090e-02,0,-0.46
-1.088e-02,-0.28,-0.36
-1.086e-02,-0.56,-0.24
-1.085e-02,-0.8,-0.1
-1.083e-02,-1,0
-1.082e-02,-1.16,0.14
-1.080e-02,-1.24,0.26
-1.078e-02,-1.28,0.36
-1.077e-02,-1.28,0.46
-1.075e-02,-1.24,0.58
-1.074e-02,-1.2,0.66
-1.072e-02,-1.12,0.74
-1.070e-02,-0.96,0.78
-1.069e-02,-0.76,0.84
-1.067e-02,-0.56,0.86
-1.066e-02,-0.24,0.88
-1.064e-02,0.04,0.88
-1.062e-02,0.36,0.88
-1.061e-02,0.76,0.84
-1.059e-02,1.08,0.8
-1.058e-02,1.44,0.72
-1.056e-02,1.72,0.64
-1.054e-02,2,0.56
-1.053e-02,2.2,0.46
-1.051e-02,2.32,0.34
-1.050e-02,2.36,0.24
-1.048e-02,2.44,0.12
-1.046e-02,2.4,0.02
-1.045e-02,2.4,-0.1
-1.043e-02,2.36,-0.2
-1.042e-02,2.36,-0.3
-1.040e-02,2.32,-0.42
-1.038e-02,2.32,-0.52
-1.037e-02,2.32,-0.62
-1.035e-02,2.36,-0.72
-1.034e-02,2.32,-0.84
-1.032e-02,2.36,-0.92
-1.030e-02,2.32,-1.02
-1.029e-02,2.24,-1.1
-1.027e-02,2,-1.16
-1.026e-02,1.8,-1.24
-1.024e-02,1.44,-1.3
-1.022e-02,1.12,-1.34
-1.021e-02,0.64,-1.36
-1.019e-02,0.16,-1.36
-1.018e-02,-0.28,-1.34
-1.016e-02,-0.68,-1.3
-1.014e-02,-1,-1.26
-1.013e-02,-1.16,-1.2
-1.011e-02,-1.2,-1.14
-1.010e-02,-1.04,-1.08
-1.008e-02,-0.8,-1.02
-1.006e-02,-0.48,-0.98
-1.005e-02,-0.08,-0.94
-1.003e-02,0.36,-0.92
-1.002e-02,0.8,-0.92
-1.000e-02,1.24,-0.9
-9.984e-03,1.56,-0.9
-9.968e-03,1.88,-0.92
-9.952e-03,2.12,-0.92
-9.936e-03,2.28,-0.92
-9.920e-03,2.32,-0.92
-9.904e-03,2.28,-0.92
-9.888e-03,2.12,-0.9
-9.872e-03,1.92,-0.88
-9.856e-03,1.64,-0.82
-9.840e-03,1.28,-0.78
-9.824e-03,0.92,-0.7
-9.808e-03,0.56,-0.64
-9.792e-03,0.2,-0.52
-9.776e-03,-0.16,-0.4
-9.760e-03,-0.48,-0.28
-9.744e-03,-0.68,-0.16
-9.728e-03,-0.92,-0.04
-9.712e-03,-1.12,0.08
-9.696e-03,-1.2,0.2
-9.680e-03,-1.24,0.32
-9.664e-03,-1.28,0.42
-9.648e-03,-1.28,0.52
-9.632e-03,-1.24,0.62
-9.616e-03,-1.12,0.7
-9.600e-03,-1.04,0.76
-9.584e-03,-0.88,0.84
-9.568e-03,-0.64,0.86
-9.552e-03,-0.4,0.88
-9.536e-03,-0.12,0.9
-9.520e-03,0.28,0.88
-9.504e-03,0.56,0.86
-9.488e-03,0.96,0.82
-9.472e-03,1.28,0.76
-9.456e-03,1.6,0.68
-9.440e-03,1.84,0.6
-9.424e-03,2.12,0.5
-9.408e-03,2.28,0.4
-9.392e-03,2.32,0.3
-9.376e-03,2.36,0.18
-9.360e-03,2.44,0.06
-9.344e-03,2.4,-0.06
-9.328e-03,2.4,-0.16
-9.312e-03,2.36,-0.26
-9.296e-03,2.32,-0.36
-9.280e-03,2.32,-0.48
-9.264e-03,2.32,-0.58
-9.248e-03,2.32,-0.68
-9.232e-03,2.36,-0.78
-9.216e-03,2.36,-0.88
-9.200e-03,2.32,-0.98
-9.184e-03,2.2,-1.08
-9.168e-03,2.08,-1.14
-9.152e-03,1.88,-1.2
-9.136e-03,1.64,-1.28
-9.120e-03,1.28,-1.32
-9.104e-03,0.84,-1.36
-9.088e-03,0.36,-1.36
-9.072e-03,-0.08,-1.34
-9.056e-03,-0.48,-1.32
-9.040e-03,-0.84,-1.28
-9.024e-03,-1.08,-1.22
-9.008e-03,-1.16,-1.16
-8.992e-03,-1.12,-1.1
-8.976e-03,-0.96,-1.06
-8.960e-03,-0.68,-1
-8.944e-03,-0.28,-0.96
-8.928e-03,0.16,-0.96
-8.912e-03,0.6,-0.92
-8.896e-03,1.04,-0.92
-8.880e-03,1.44,-0.92
-8.864e-03,1.76,-0.92
-8.848e-03,2.04,-0.94
-8.832e-03,2.2,-0.92
-8.816e-03,2.28,-0.94
-8.800e-03,2.32,-0.92
-8.784e-03,2.2,-0.92
-8.768e-03,2,-0.9
-8.752e-03,1.76,-0.86
-8.736e-03,1.48,-0.8
-8.720e-03,1.12,-0.74
-8.704e-03,0.72,-0.66
-8.688e-03,0.36,-0.56
-8.672e-03,0,-0.46
-8.656e-03,-0.32,-0.34
-8.640e-03,-0.6,-0.24
-8.624e-03,-0.84,-0.1
-8.608e-03,-1,0.02
-8.592e-03,-1.16,0.14
-8.576e-03,-1.24,0.26
-8.560e-03,-1.28,0.4
-8.544e-03,-1.28,0.48
-8.528e-03,-1.24,0.56
-8.512e-03,-1.2,0.66
-8.496e-03,-1.08,0.72
-8.480e-03,-0.92,0.8
-8.464e-03,-0.76,0.84
-8.448e-03,-0.48,0.88
-8.432e-03,-0.24,0.9
-8.416e-03,0.04,0.9
-8.400e-03,0.44,0.86
-8.384e-03,0.8,0.84
-8.368e-03,1.12,0.78
-8.352e-03,1.48,0.72
-8.336e-03,1.76,0.64
-8.320e-03,2,0.54
-8.304e-03,2.16,0.44
-8.288e-03,2.32,0.36
-8.272e-03,2.36,0.22
-8.256e-03,2.4,0.1
-8.240e-03,2.4,0
-8.224e-03,2.44,-0.1
-8.208e-03,2.36,-0.2
-8.192e-03,2.32,-0.32
-8.176e-03,2.32,-0.42
-8.160e-03,2.32,-0.54
-8.144e-03,2.36,-0.64
-8.128e-03,2.32,-0.74
-8.112e-03,2.32,-0.84
-8.096e-03,2.32,-0.94
-8.080e-03,2.28,-1.02
-8.064e-03,2.16,-1.1
-8.048e-03,2,-1.18
-8.032e-03,1.76,-1.24
-8.016e-03,1.44,-1.3
-8.000e-03,1.04,-1.34
-7.984e-03,0.56,-1.36
-7.968e-03,0.12,-1.36
-7.952e-03,-0.32,-1.34
-7.936e-03,-0.72,-1.3
-7.920e-03,-1,-1.24
-7.904e-03,-1.2,-1.18
-7.888e-03,-1.16,-1.12
-7.872e-03,-1.04,-1.08
-7.856e-03,-0.76,-1.02
-7.840e-03,-0.44,-0.98
-7.824e-03,-0.04,-0.94
-7.808e-03,0.4,-0.92
-7.792e-03,0.84,-0.9
-7.776e-03,1.24,-0.92
-7.760e-03,1.64,-0.9
-7.744e-03,1.92,-0.92
-7.728e-03,2.12,-0.92
-7.712e-03,2.24,-0.92
-7.696e-03,2.28,-0.92
-7.680e-03,2.24,-0.92
-7.664e-03,2.16,-0.9
-7.648e-03,1.88,-0.86
-7.632e-03,1.56,-0.84
-7.616e-03,1.24,-0.76
-7.600e-03,0.88,-0.7
-7.584e-03,0.52,-0.6
-7.568e-03,0.12,-0.5
-7.552e-03,-0.2,-0.4
-7.536e-03,-0.48,-0.28
-7.520e-03,-0.72,-0.14
-7.504e-03,-0.92,-0.04
-7.488e-03,-1.12,0.1
-7.472e-03,-1.2,0.2
-7.456e-03,-1.28,0.34
-7.440e-03,-1.28,0.44
-7.424e-03,-1.28,0.54
-7.408e-03,-1.2,0.62
-7.392e-03,-1.16,0.7
-7.376e-03,-1,0.76
-7.360e-03,-0.8,0.82
-7.344e-03,-0.64,0.86
-7.328e-03,-0.36,0.88
-7.312e-03,-0.04,0.88
-7.296e-03,0.32,0.88
-7.280e-03,0.64,0.86
-7.264e-03,1,0.8
-7.248e-03,1.32,0.76
-7.232e-03,1.6,0.68
-7.216e-03,1.88,0.58
-7.200e-03,2.12,0.48
-7.184e-03,2.28,0.38
-7.168e-03,2.36,0.28
-7.152e-03,2.4,0.16
-7.136e-03,2.4,0.04
-7.120e-03,2.44,-0.06
-7.104e-03,2.4,-0.18
-7.088e-03,2.36,-0.28
-7.072e-03,2.36,-0.38
-7.056e-03,2.32,-0.5
-7.040e-03,2.32,-0.6
-7.024e-03,2.32,-0.7
-7.008e-03,2.36,-0.8
-6.992e-03,2.36,-0.9
-6.976e-03,2.28,-0.98
-6.960e-03,2.24,-1.08
-6.944e-03,2.12,-1.14
-6.928e-03,1.84,-1.22
-6.912e-03,1.6,-1.28
-6.896e-03,1.2,-1.34
-6.880e-03,0.8,-1.34
-6.864e-03,0.32,-1.36
-6.848e-03,-0.12,-1.34
-6.832e-03,-0.56,-1.32
-6.816e-03,-0.88,-1.26
-6.800e-03,-1.08,-1.22
-6.784e-03,-1.2,-1.16
-6.768e-03,-1.12,-1.1
-6.752e-03,-0.96,-1.04
-6.736e-03,-0.6,-1
-6.720e-03,-0.2,-0.96
-6.704e-03,0.2,-0.94
-6.688e-03,0.64,-0.92
-6.672e-03,1.08,-0.9
-6.656e-03,1.48,-0.9
-6.640e-03,1.8,-0.92
-6.624e-03,2.04,-0.92
-6.608e-03,2.24,-0.92
-6.592e-03,2.32,-0.94
-6.576e-03,2.28,-0.92
-6.560e-03,2.16,-0.9
-6.544e-03,1.96,-0.88
-6.528e-03,1.72,-0.86
-6.512e-03,1.4,-0.8
-6.496e-03,1,-0.72
-6.480e-03,0.68,-0.64
-6.464e-03,0.36,-0.54
-6.448e-03,-0.08,-0.44
-6.432e-03,-0.36,-0.32
-6.416e-03,-0.64,-0.2
-6.400e-03,-0.84,-0.08
-6.384e-03,-1.04,0.02
-6.368e-03,-1.2,0.16
-6.352e-03,-1.24,0.28
-6.336e-03,-1.28,0.38
-6.320e-03,-1.28,0.48
-6.304e-03,-1.28,0.6
-6.288e-03,-1.2,0.66
-6.272e-03,-1.04,0.74
-6.256e-03,-0.96,0.8
-6.240e-03,-0.72,0.84
-6.224e-03,-0.48,0.88
-6.208e-03,-0.2,0.9
-6.192e-03,0.16,0.88
-6.176e-03,0.48,0.86
-6.160e-03,0.84,0.82
-6.144e-03,1.16,0.78
-6.128e-03,1.56,0.72
-6.112e-03,1.8,0.62
-6.096e-03,2,0.54
-6.080e-03,2.2,0.44
-6.064e-03,2.32,0.32
-6.048e-03,2.36,0.22
-6.032e-03,2.4,0.1
-6.016e-03,2.4,0
-6.000e-03,2.4,-0.12
-5.984e-03,2.36,-0.24
-5.968e-03,2.32,-0.32
-5.952e-03,2.32,-0.42
-5.936e-03,2.32,-0.54
-5.920e-03,2.32,-0.66
-5.904e-03,2.32,-0.74
-5.888e-03,2.36,-0.84
-5.872e-03,2.36,-0.94
-5.856e-03,2.24,-1.02
-5.840e-03,2.16,-1.12
-5.824e-03,1.96,-1.2
-5.808e-03,1.72,-1.26
-5.792e-03,1.4,-1.3
-5.776e-03,1,-1.34
-5.760e-03,0.52,-1.36
-5.744e-03,0.04,-1.36
-5.728e-03,-0.4,-1.32
-5.712e-03,-0.76,-1.28
-5.696e-03,-1.04,-1.24
-5.680e-03,-1.16,-1.18
-5.664e-03,-1.16,-1.12
-5.648e-03,-1,-1.06
-5.632e-03,-0.76,-1.02
-5.616e-03,-0.44,-0.98
-5.600e-03,0,-0.94
-5.584e-03,0.44,-0.94
-5.568e-03,0.88,-0.92
-5.552e-03,1.32,-0.9
-5.536e-03,1.64,-0.92
-5.520e-03,1.96,-0.92
-5.504e-03,2.12,-0.92
-5.488e-03,2.28,-0.92
-5.472e-03,2.32,-0.92
-5.456e-03,2.24,-0.92
-5.440e-03,2.08,-0.9
-5.424e-03,1.84,-0.88
-5.408e-03,1.56,-0.82
-5.392e-03,1.2,-0.76
-5.376e-03,0.84,-0.68
-5.360e-03,0.48,-0.6
-5.344e-03,0.08,-0.5
-5.328e-03,-0.2,-0.38
-5.312e-03,-0.52,-0.26
-5.296e-03,-0.76,-0.14
-5.280e-03,-0.96,-0.02
-5.264e-03,-1.12,0.1
-5.248e-03,-1.2,0.22
-5.232e-03,-1.28,0.34
-5.216e-03,-1.28,0.44
-5.200e-03,-1.24,0.54
-5.184e-03,-1.2,0.64
-5.168e-03,-1.16,0.7
-5.152e-03,-1,0.78
-5.136e-03,-0.8,0.84
-5.120e-03,-0.6,0.86
-5.104e-03,-0.28,0.88
-5.088e-03,0,0.88
-5.072e-03,0.32,0.88
-5.056e-03,0.68,0.84
-5.040e-03,1.08,0.8
-5.024e-03,1.36,0.74
-5.008e-03,1.64,0.66
-4.992e-03,1.92,0.56
-4.976e-03,2.12,0.48
-4.960e-03,2.28,0.38
-4.944e-03,2.36,0.26
-4.928e-03,2.44,0.16
-4.912e-03,2.4,0.02
-4.896e-03,2.44,-0.06
-4.880e-03,2.4,-0.18
-4.864e-03,2.36,-0.28
-4.848e-03,2.32,-0.38
-4.832e-03,2.32,-0.5
-4.816e-03,2.36,-0.6
-4.800e-03,2.32,-0.7
-4.784e-03,2.36,-0.8
-4.768e-03,2.32,-0.9
-4.752e-03,2.28,-1
-4.736e-03,2.24,-1.08
-4.720e-03,2.04,-1.16
-4.704e-03,1.84,-1.22
-4.688e-03,1.52,-1.28
-4.672e-03,1.2,-1.34
-4.656e-03,0.72,-1.34
-4.640e-03,0.24,-1.34
-4.624e-03,-0.2,-1.34
-4.608e-03,-0.6,-1.32
-4.592e-03,-0.88,-1.26
-4.576e-03,-1.12,-1.2
-4.560e-03,-1.2,-1.14
-4.544e-03,-1.08,-1.08
-4.528e-03,-0.88,-1.04
-4.512e-03,-0.52,-1
-4.496e-03,-0.2,-0.96
-4.480e-03,0.28,-0.92
-4.464e-03,0.72,-0.92
-4.448e-03,1.12,-0.92
-4.432e-03,1.52,-0.92
-4.416e-03,1.84,-0.92
-4.400e-03,2.08,-0.94
-4.384e-03,2.24,-0.94
-4.368e-03,2.32,-0.92
-4.352e-03,2.28,-0.92
-4.336e-03,2.16,-0.92
-4.320e-03,1.96,-0.9
-4.304e-03,1.72,-0.84
-4.288e-03,1.36,-0.78
-4.272e-03,1,-0.72
-4.256e-03,0.64,-0.64
-4.240e-03,0.28,-0.54
-4.224e-03,-0.08,-0.42
-4.208e-03,-0.4,-0.32
-4.192e-03,-0.68,-0.18
-4.176e-03,-0.92,-0.06
-4.160e-03,-1.04,0.06
-4.144e-03,-1.2,0.16
-4.128e-03,-1.28,0.28
-4.112e-03,-1.28,0.4
-4.096e-03,-1.32,0.5
-4.080e-03,-1.24,0.6
-4.064e-03,-1.16,0.68
-4.048e-03,-1.08,0.76
-4.032e-03,-0.88,0.82
-4.016e-03,-0.68,0.86
-4.000e-03,-0.48,0.88
-3.984e-03,-0.16,0.9
-3.968e-03,0.2,0.9
-3.952e-03,0.52,0.86
-3.936e-03,0.88,0.82
-3.920e-03,1.24,0.76
-3.904e-03,1.56,0.7
-3.888e-03,1.84,0.62
-3.872e-03,2.04,0.52
-3.856e-03,2.24,0.42
-3.840e-03,2.36,0.32
-3.824e-03,2.36,0.2
-3.808e-03,2.4,0.08
-3.792e-03,2.44,-0.04
-3.776e-03,2.4,-0.14
-3.760e-03,2.36,-0.24
-3.744e-03,2.36,-0.34
-3.728e-03,2.32,-0.44
-3.712e-03,2.32,-0.56
-3.696e-03,2.36,-0.66
-3.680e-03,2.32,-0.76
-3.664e-03,2.36,-0.86
-3.648e-03,2.32,-0.94
-3.632e-03,2.24,-1.04
-3.616e-03,2.12,-1.12
-3.600e-03,1.96,-1.2
-3.584e-03,1.68,-1.26
-3.568e-03,1.32,-1.32
-3.552e-03,0.96,-1.34
-3.536e-03,0.48,-1.36
-3.520e-03,0,-1.36
-3.504e-03,-0.4,-1.34
-3.488e-03,-0.8,-1.28
-3.472e-03,-1.04,-1.24
-3.456e-03,-1.16,-1.16
-3.440e-03,-1.16,-1.12
-3.424e-03,-1.04,-1.06
-3.408e-03,-0.72,-1.02
-3.392e-03,-0.36,-0.98
-3.376e-03,0.04,-0.94
-3.360e-03,0.52,-0.92
-3.344e-03,0.92,-0.92
-3.328e-03,1.36,-0.9
-3.312e-03,1.72,-0.9
-3.296e-03,1.96,-0.92
-3.280e-03,2.16,-0.92
-3.264e-03,2.28,-0.92
-3.248e-03,2.32,-0.92
-3.232e-03,2.24,-0.92
-3.216e-03,2.04,-0.9
-3.200e-03,1.8,-0.86
-3.184e-03,1.52,-0.82
-3.168e-03,1.2,-0.74
-3.152e-03,0.76,-0.68
-3.136e-03,0.4,-0.58
-3.120e-03,0.08,-0.48
-3.104e-03,-0.24,-0.36
-3.088e-03,-0.56,-0.24
-3.072e-03,-0.84,-0.12
-3.056e-03,-1,-0.02
-3.040e-03,-1.12,0.12
-3.024e-03,-1.24,0.24
-3.008e-03,-1.28,0.36
-2.992e-03,-1.28,0.46
-2.976e-03,-1.28,0.56
-2.960e-03,-1.24,0.64
-2.944e-03,-1.12,0.72
-2.928e-03,-0.96,0.78
-2.912e-03,-0.8,0.82
-2.896e-03,-0.56,0.86
-2.880e-03,-0.28,0.88
-2.864e-03,0,0.9
-2.848e-03,0.36,0.88
-2.832e-03,0.72,0.84
-2.816e-03,1.08,0.8
-2.800e-03,1.4,0.72
-2.784e-03,1.68,0.64
-2.768e-03,1.96,0.56
-2.752e-03,2.12,0.46
-2.736e-03,2.28,0.36
-2.720e-03,2.36,0.24
-2.704e-03,2.4,0.16
-2.688e-03,2.4,0.04
-2.672e-03,2.44,-0.06
-2.656e-03,2.44,-0.18
-2.640e-03,2.36,-0.3
-2.624e-03,2.32,-0.4
-2.608e-03,2.32,-0.52
-2.592e-03,2.32,-0.62
-2.576e-03,2.32,-0.72
-2.560e-03,2.32,-0.82
-2.544e-03,2.36,-0.92
-2.528e-03,2.32,-1
-2.512e-03,2.2,-1.1
-2.496e-03,2,-1.16
-2.480e-03,1.8,-1.24
-2.464e-03,1.52,-1.3
-2.448e-03,1.16,-1.32
-2.432e-03,0.64,-1.36
-2.416e-03,0.2,-1.36
-2.400e-03,-0.2,-1.34
-2.384e-03,-0.6,-1.32
-2.368e-03,-0.96,-1.26
-2.352e-03,-1.16,-1.2
-2.336e-03,-1.2,-1.14
-2.320e-03,-1.08,-1.1
-2.304e-03,-0.84,-1.04
-2.288e-03,-0.52,-0.98
-2.272e-03,-0.12,-0.96
-2.256e-03,0.28,-0.94
-2.240e-03,0.76,-0.92
-2.224e-03,1.2,-0.9
-2.208e-03,1.52,-0.92
-2.192e-03,1.88,-0.92
-2.176e-03,2.12,-0.92
-2.160e-03,2.24,-0.92
-2.144e-03,2.32,-0.94
-2.128e-03,2.28,-0.92
-2.112e-03,2.16,-0.9
-2.096e-03,1.96,-0.9
-2.080e-03,1.64,-0.84
-2.064e-03,1.32,-0.78
-2.048e-03,0.96,-0.7
-2.032e-03,0.6,-0.62
-2.016e-03,0.2,-0.52
-2.000e-03,-0.12,-0.42
-1.984e-03,-0.44,-0.3
-1.968e-03,-0.72,-0.18
-1.952e-03,-0.92,-0.04
-1.936e-03,-1.08,0.06
-1.920e-03,-1.2,0.18
-1.904e-03,-1.28,0.3
-1.888e-03,-1.32,0.44
-1.872e-03,-1.32,0.52
-1.856e-03,-1.24,0.6
-1.840e-03,-1.16,0.68
-1.824e-03,-1.08,0.76
-1.808e-03,-0.88,0.82
-1.792e-03,-0.64,0.86
-1.776e-03,-0.44,0.88
-1.760e-03,-0.12,0.9
-1.744e-03,0.2,0.9
-1.728e-03,0.52,0.86
-1.712e-03,0.92,0.84
-1.696e-03,1.28,0.76
-1.680e-03,1.56,0.68
-1.664e-03,1.84,0.6
-1.648e-03,2.04,0.5
-1.632e-03,2.28,0.4
-1.616e-03,2.36,0.3
-1.600e-03,2.36,0.18
-1.584e-03,2.44,0.06
-1.568e-03,2.4,-0.02
-1.552e-03,2.4,-0.16
-1.536e-03,2.36,-0.24
-1.520e-03,2.36,-0.36
-1.504e-03,2.32,-0.46
-1.488e-03,2.32,-0.56
-1.472e-03,2.36,-0.66
-1.456e-03,2.32,-0.78
-1.440e-03,2.32,-0.88
-1.424e-03,2.32,-0.98
-1.408e-03,2.28,-1.04
