run3/TEK00006.CSV

Model,TBS2102B
Firmware Version,v1.31.14

Point Format,Y,
Horizontal Units,S,
Horizontal Scale,0.002,
Sample Interval,1.6e-05,
Filter Frequency,2e+08,
Record Length,2000,
Gating,0.0% to 100.0%,0.0% to 100.0%
Probe Attenuation,1,1
Vertical Units,V,V
Vertical Offset,0,0
Vertical Scale,1,0.2
Label,,
TIME,CH1,CH2
-1.600e-02,-0.36,-0.144
-1.598e-02,-0.24,-0.12
-1.597e-02,-0.16,-0.08
-1.595e-02,-0.08,-0.048
-1.594e-02,0,-0.024
-1.592e-02,0.08,0.008
-1.590e-02,0.08,0.04
-1.589e-02,0.12,0.08
-1.587e-02,0.16,0.112
-1.586e-02,0.2,0.152
-1.584e-02,0.12,0.192
-1.582e-02,0.12,0.232
-1.581e-02,0.08,0.272
-1.579e-02,0.04,0.32
-1.578e-02,-0.08,0.36
-1.576e-02,-0.16,0.408
-1.574e-02,-0.28,0.448
-1.573e-02,-0.4,0.504
-1.571e-02,-0.52,0.552
-1.570e-02,-0.68,0.608
-1.568e-02,-0.84,0.648
-1.566e-02,-1,0.696
-1.565e-02,-1.12,0.752
-1.563e-02,-1.24,0.792
-1.562e-02,-1.32,0.832
-1.560e-02,-1.36,0.88
-1.558e-02,-1.36,0.912
-1.557e-02,-1.36,0.936
-1.555e-02,-1.2,0.952
-1.554e-02,-0.96,0.952
-1.552e-02,-0.72,0.944
-1.550e-02,-0.4,0.92
-1.549e-02,0,0.872
-1.547e-02,0.32,0.816
-1.546e-02,0.76,0.744
-1.544e-02,1.12,0.656
-1.542e-02,1.48,0.56
-1.541e-02,1.76,0.44
-1.539e-02,2.04,0.32
-1.538e-02,2.2,0.2
-1.536e-02,2.32,0.072
-1.534e-02,2.4,-0.048
-1.533e-02,2.48,-0.168
-1.531e-02,2.52,-0.296
-1.530e-02,2.48,-0.408
-1.528e-02,2.48,-0.52
-1.526e-02,2.44,-0.624
-1.525e-02,2.44,-0.736
-1.523e-02,2.32,-0.832
-1.522e-02,2.28,-0.912
-1.520e-02,2.08,-0.984
-1.518e-02,1.96,-1.016
-1.517e-02,1.68,-1.016
-1.515e-02,1.36,-1.016
-1.514e-02,1,-1.016
-1.512e-02,0.6,-1.016
-1.510e-02,0.16,-1.016
-1.509e-02,-0.28,-1.016
-1.507e-02,-0.64,-1.016
-1.506e-02,-0.96,-1.016
-1.504e-02,-1.16,-0.984
-1.502e-02,-1.28,-0.912
-1.501e-02,-1.28,-0.84
-1.499e-02,-1.2,-0.784
-1.498e-02,-0.92,-0.712
-1.496e-02,-0.72,-0.656
-1.494e-02,-0.44,-0.608
-1.493e-02,-0.08,-0.568
-1.491e-02,0.28,-0.536
-1.490e-02,0.6,-0.512
-1.488e-02,0.84,-0.496
-1.486e-02,1.12,-0.48
-1.485e-02,1.4,-0.472
-1.483e-02,1.64,-0.472
-1.482e-02,1.8,-0.464
-1.480e-02,1.96,-0.464
-1.478e-02,2.16,-0.464
-1.477e-02,2.24,-0.464
-1.475e-02,2.32,-0.456
-1.474e-02,2.36,-0.456
-1.472e-02,2.44,-0.448
-1.470e-02,2.44,-0.44
-1.469e-02,2.36,-0.432
-1.467e-02,2.36,-0.416
-1.466e-02,2.32,-0.408
-1.464e-02,2.24,-0.384
-1.462e-02,2.12,-0.368
-1.461e-02,2,-0.352
-1.459e-02,1.92,-0.32
-1.458e-02,1.8,-0.296
-1.456e-02,1.64,-0.272
-1.454e-02,1.56,-0.256
-1.453e-02,1.4,-0.216
-1.451e-02,1.24,-0.192
-1.450e-02,1.08,-0.176
-1.448e-02,1,-0.144
-1.446e-02,0.92,-0.12
-1.445e-02,0.8,-0.104
-1.443e-02,0.72,-0.088
-1.442e-02,0.64,-0.08
-1.440e-02,0.6,-0.08
-1.438e-02,0.56,-0.064
-1.437e-02,0.44,-0.072
-1.435e-02,0.44,-0.08
-1.434e-02,0.4,-0.088
-1.432e-02,0.36,-0.096
-1.430e-02,0.32,-0.12
-1.429e-02,0.32,-0.144
-1.427e-02,0.28,-0.168
-1.426e-02,0.2,-0.192
-1.424e-02,0.16,-0.216
-1.422e-02,0.08,-0.248
-1.421e-02,0.04,-0.28
-1.419e-02,-0.08,-0.304
-1.418e-02,-0.16,-0.328
-1.416e-02,-0.28,-0.36
-1.414e-02,-0.36,-0.376
-1.413e-02,-0.52,-0.392
-1.411e-02,-0.64,-0.416
-1.410e-02,-0.76,-0.424
-1.408e-02,-0.88,-0.432
-1.406e-02,-1,-0.44
-1.405e-02,-1.12,-0.432
-1.403e-02,-1.2,-0.424
-1.402e-02,-1.28,-0.416
-1.400e-02,-1.4,-0.408
-1.398e-02,-1.44,-0.384
-1.397e-02,-1.44,-0.368
-1.395e-02,-1.44,-0.344
-1.394e-02,-1.44,-0.312
-1.392e-02,-1.44,-0.288
-1.390e-02,-1.4,-0.256
-1.389e-02,-1.32,-0.232
-1.387e-02,-1.28,-0.2
-1.386e-02,-1.2,-0.168
-1.384e-02,-1.12,-0.128
-1.382e-02,-1.08,-0.096
-1.381e-02,-1.04,-0.056
-1.379e-02,-0.96,-0.024
-1.378e-02,-0.92,0.008
-1.376e-02,-0.88,0.048
-1.374e-02,-0.88,0.096
-1.373e-02,-0.84,0.144
-1.371e-02,-0.84,0.192
-1.370e-02,-0.88,0.24
-1.368e-02,-0.88,0.288
-1.366e-02,-0.88,0.344
-1.365e-02,-0.96,0.4
-1.363e-02,-1.04,0.456
-1.362e-02,-1.08,0.52
-1.360e-02,-1.16,0.584
-1.358e-02,-1.28,0.648
-1.357e-02,-1.32,0.712
-1.355e-02,-1.36,0.768
-1.354e-02,-1.4,0.832
-1.352e-02,-1.4,0.888
-1.350e-02,-1.32,0.944
-1.349e-02,-1.2,0.992
-1.347e-02,-1.04,1.008
-1.346e-02,-0.76,1.008
-1.344e-02,-0.44,1.008
-1.342e-02,-0.08,1.008
-1.341e-02,0.36,1.008
-1.339e-02,0.76,1
-1.338e-02,1.16,0.944
-1.336e-02,1.52,0.872
-1.334e-02,1.88,0.792
-1.333e-02,2.08,0.704
-1.331e-02,2.28,0.608
-1.330e-02,2.32,0.512
-1.328e-02,2.36,0.416
-1.326e-02,2.28,0.32
-1.325e-02,2.16,0.224
-1.323e-02,2.04,0.144
-1.322e-02,1.92,0.056
-1.320e-02,1.8,-0.016
-1.318e-02,1.68,-0.088
-1.317e-02,1.64,-0.168
-1.315e-02,1.6,-0.24
-1.314e-02,1.56,-0.312
-1.312e-02,1.56,-0.384
-1.310e-02,1.64,-0.448
-1.309e-02,1.68,-0.52
-1.307e-02,1.8,-0.6
-1.306e-02,1.88,-0.68
-1.304e-02,2,-0.76
-1.302e-02,2.12,-0.84
-1.301e-02,2.24,-0.92
-1.299e-02,2.28,-1
-1.298e-02,2.28,-1.016
-1.296e-02,2.24,-1.016
-1.294e-02,2.08,-1.016
-1.293e-02,1.88,-1.016
-1.291e-02,1.6,-1.016
-1.290e-02,1.24,-1.016
-1.288e-02,0.76,-1.016
-1.286e-02,0.32,-1.016
-1.285e-02,-0.16,-1.016
-1.283e-02,-0.56,-1.016
-1.282e-02,-0.88,-1.016
-1.280e-02,-1.16,-1.016
-1.278e-02,-1.24,-0.992
-1.277e-02,-1.2,-0.912
-1.275e-02,-1.04,-0.84
-1.274e-02,-0.8,-0.768
-1.272e-02,-0.44,-0.712
-1.270e-02,-0.08,-0.664
-1.269e-02,0.28,-0.624
-1.267e-02,0.64,-0.592
-1.266e-02,0.96,-0.576
-1.264e-02,1.32,-0.56
-1.262e-02,1.64,-0.552
-1.261e-02,1.84,-0.552
-1.259e-02,2.04,-0.552
-1.258e-02,2.16,-0.544
-1.256e-02,2.32,-0.544
-1.254e-02,2.36,-0.544
-1.253e-02,2.4,-0.544
-1.251e-02,2.44,-0.536
-1.250e-02,2.4,-0.52
-1.248e-02,2.32,-0.504
-1.246e-02,2.2,-0.488
-1.245e-02,2.12,-0.464
-1.243e-02,2,-0.432
-1.242e-02,1.84,-0.4
-1.240e-02,1.64,-0.368
-1.238e-02,1.48,-0.328
-1.237e-02,1.32,-0.288
-1.235e-02,1.08,-0.24
-1.234e-02,0.96,-0.192
-1.232e-02,0.8,-0.152
-1.230e-02,0.68,-0.104
-1.229e-02,0.52,-0.056
-1.227e-02,0.44,-0.016
-1.226e-02,0.36,0.008
-1.224e-02,0.36,0.04
-1.222e-02,0.24,0.072
-1.221e-02,0.24,0.088
-1.219e-02,0.24,0.104
-1.218e-02,0.24,0.112
-1.216e-02,0.28,0.112
-1.214e-02,0.32,0.104
-1.213e-02,0.4,0.088
-1.211e-02,0.36,0.072
-1.210e-02,0.4,0.04
-1.208e-02,0.52,0.008
-1.206e-02,0.56,-0.024
-1.205e-02,0.56,-0.064
-1.203e-02,0.56,-0.112
-1.202e-02,0.6,-0.16
-1.200e-02,0.6,-0.208
-1.198e-02,0.52,-0.264
-1.197e-02,0.48,-0.312
-1.195e-02,0.44,-0.36
-1.194e-02,0.32,-0.4
-1.192e-02,0.2,-0.44
-1.190e-02,0.04,-0.48
-1.189e-02,-0.04,-0.504
-1.187e-02,-0.24,-0.528
-1.186e-02,-0.44,-0.552
-1.184e-02,-0.6,-0.56
-1.182e-02,-0.76,-0.56
-1.181e-02,-0.92,-0.56
-1.179e-02,-1.12,-0.544
-1.178e-02,-1.24,-0.528
-1.176e-02,-1.32,-0.504
-1.174e-02,-1.4,-0.48
-1.173e-02,-1.44,-0.448
-1.171e-02,-1.44,-0.416
-1.170e-02,-1.44,-0.376
-1.168e-02,-1.4,-0.344
-1.166e-02,-1.36,-0.312
-1.165e-02,-1.24,-0.272
-1.163e-02,-1.16,-0.232
-1.162e-02,-1.08,-0.2
-1.160e-02,-1,-0.16
-1.158e-02,-0.84,-0.12
-1.157e-02,-0.76,-0.088
-1.155e-02,-0.68,-0.048
-1.154e-02,-0.64,-0.016
-1.152e-02,-0.56,0.024
-1.150e-02,-0.52,0.064
-1.149e-02,-0.48,0.104
-1.147e-02,-0.48,0.152
-1.146e-02,-0.44,0.192
-1.144e-02,-0.48,0.24
-1.142e-02,-0.52,0.288
-1.141e-02,-0.56,0.344
-1.139e-02,-0.64,0.392
-1.138e-02,-0.76,0.448
-1.136e-02,-0.8,0.512
-1.134e-02,-0.92,0.568
-1.133e-02,-1.04,0.632
-1.131e-02,-1.16,0.696
-1.130e-02,-1.24,0.752
-1.128e-02,-1.32,0.808
-1.126e-02,-1.36,0.864
-1.125e-02,-1.4,0.92
-1.123e-02,-1.32,0.968
-1.122e-02,-1.24,1.008
-1.120e-02,-1.08,1.008
-1.118e-02,-0.8,1.008
-1.117e-02,-0.48,1.008
-1.115e-02,-0.12,1.008
-1.114e-02,0.32,1.008
-1.112e-02,0.72,0.968
-1.110e-02,1.12,0.896
-1.109e-02,1.52,0.816
-1.107e-02,1.84,0.728
-1.106e-02,2.08,0.632
-1.104e-02,2.24,0.52
-1.102e-02,2.36,0.408
-1.101e-02,2.36,0.304
-1.099e-02,2.32,0.192
-1.098e-02,2.28,0.088
-1.096e-02,2.24,-0.008
-1.094e-02,2.12,-0.104
-1.093e-02,2.04,-0.2
-1.091e-02,2,-0.296
-1.090e-02,2.04,-0.376
-1.088e-02,2,-0.464
-1.086e-02,2,-0.552
-1.085e-02,2.04,-0.632
-1.083e-02,2.16,-0.72
-1.082e-02,2.24,-0.808
-1.080e-02,2.28,-0.88
-1.078e-02,2.28,-0.968
-1.077e-02,2.32,-1.016
-1.075e-02,2.24,-1.016
-1.074e-02,2.04,-1.016
-1.072e-02,1.88,-1.016
-1.070e-02,1.56,-1.016
-1.069e-02,1.16,-1.016
-1.067e-02,0.76,-1.016
-1.066e-02,0.28,-1.016
-1.064e-02,-0.16,-1.016
-1.062e-02,-0.56,-1.016
-1.061e-02,-0.96,-1.016
-1.059e-02,-1.16,-1.016
-1.058e-02,-1.24,-0.992
-1.056e-02,-1.2,-0.92
-1.054e-02,-1,-0.848
-1.053e-02,-0.76,-0.784
-1.051e-02,-0.48,-0.728
-1.050e-02,-0.12,-0.68
-1.048e-02,0.28,-0.648
-1.046e-02,0.6,-0.624
-1.045e-02,0.96,-0.608
-1.043e-02,1.32,-0.6
-1.042e-02,1.64,-0.592
-1.040e-02,1.84,-0.592
-1.038e-02,2,-0.592
-1.037e-02,2.2,-0.592
-1.035e-02,2.28,-0.592
-1.034e-02,2.4,-0.592
-1.032e-02,2.4,-0.584
-1.030e-02,2.44,-0.584
-1.029e-02,2.36,-0.568
-1.027e-02,2.28,-0.552
-1.026e-02,2.12,-0.528
-1.024e-02,1.96,-0.496
-1.022e-02,1.8,-0.464
-1.021e-02,1.64,-0.424
-1.019e-02,1.44,-0.384
-1.018e-02,1.2,-0.328
-1.016e-02,1.04,-0.28
-1.014e-02,0.8,-0.224
-1.013e-02,0.64,-0.168
-1.011e-02,0.48,-0.112
-1.010e-02,0.36,-0.056
-1.008e-02,0.24,0
-1.006e-02,0.12,0.04
-1.005e-02,0.08,0.088
-1.003e-02,0.04,0.128
-1.002e-02,0,0.16
-1.000e-02,0.04,0.192
-9.984e-03,0.08,0.208
-9.968e-03,0.12,0.216
-9.952e-03,0.16,0.216
-9.936e-03,0.28,0.208
-9.920e-03,0.36,0.192
-9.904e-03,0.44,0.176
-9.888e-03,0.52,0.144
-9.872e-03,0.64,0.104
-9.856e-03,0.72,0.056
-9.840e-03,0.76,0
-9.824e-03,0.84,-0.048
-9.808e-03,0.92,-0.104
-9.792e-03,0.96,-0.168
-9.776e-03,0.92,-0.232
-9.760e-03,0.92,-0.288
-9.744e-03,0.92,-0.352
-9.728e-03,0.8,-0.408
-9.712e-03,0.68,-0.464
-9.696e-03,0.6,-0.512
-9.680e-03,0.4,-0.56
-9.664e-03,0.24,-0.6
-9.648e-03,0.04,-0.624
-9.632e-03,-0.16,-0.64
-9.616e-03,-0.4,-0.648
-9.600e-03,-0.6,-0.656
-9.584e-03,-0.8,-0.648
-9.568e-03,-1,-0.632
-9.552e-03,-1.2,-0.616
-9.536e-03,-1.28,-0.584
-9.520e-03,-1.4,-0.552
-9.504e-03,-1.4,-0.512
-9.488e-03,-1.44,-0.48
-9.472e-03,-1.4,-0.44
-9.456e-03,-1.36,-0.4
-9.440e-03,-1.24,-0.36
-9.424e-03,-1.12,-0.328
-9.408e-03,-1,-0.288
-9.392e-03,-0.88,-0.256
-9.376e-03,-0.76,-0.216
-9.360e-03,-0.56,-0.184
-9.344e-03,-0.48,-0.152
-9.328e-03,-0.4,-0.12
-9.312e-03,-0.24,-0.088
-9.296e-03,-0.16,-0.056
-9.280e-03,-0.08,-0.024
-9.264e-03,-0.04,0.008
-9.248e-03,0.04,0.04
-9.232e-03,0.04,0.072
-9.216e-03,0.04,0.112
-9.200e-03,0.04,0.152
-9.184e-03,0.08,0.192
-9.168e-03,0.08,0.232
-9.152e-03,-0.04,0.272
-9.136e-03,-0.04,0.32
-9.120e-03,-0.12,0.36
-9.104e-03,-0.24,0.408
-9.088e-03,-0.36,0.456
-9.072e-03,-0.44,0.512
-9.056e-03,-0.6,0.568
-9.040e-03,-0.72,0.608
-9.024e-03,-0.88,0.664
-9.008e-03,-1,0.72
-8.992e-03,-1.16,0.768
-8.976e-03,-1.28,0.816
-8.960e-03,-1.32,0.864
-8.944e-03,-1.36,0.904
-8.928e-03,-1.4,0.936
-8.912e-03,-1.28,0.96
-8.896e-03,-1.12,0.976
-8.880e-03,-0.92,0.984
-8.864e-03,-0.64,0.968
-8.848e-03,-0.24,0.936
-8.832e-03,0.08,0.896
-8.816e-03,0.52,0.832
-8.800e-03,0.92,0.76
-8.784e-03,1.28,0.664
-8.768e-03,1.6,0.56
-8.752e-03,1.92,0.448
-8.736e-03,2.12,0.336
-8.720e-03,2.28,0.208
-8.704e-03,2.36,0.08
-8.688e-03,2.48,-0.04
-8.672e-03,2.48,-0.16
-8.656e-03,2.48,-0.28
-8.640e-03,2.48,-0.392
-8.624e-03,2.48,-0.504
-8.608e-03,2.48,-0.608
-8.592e-03,2.4,-0.712
-8.576e-03,2.4,-0.808
-8.560e-03,2.32,-0.896
-8.544e-03,2.24,-0.976
-8.528e-03,2.08,-1.016
-8.512e-03,1.84,-1.016
-8.496e-03,1.56,-1.016
-8.480e-03,1.24,-1.016
-8.464e-03,0.84,-1.016
-8.448e-03,0.44,-1.016
-8.432e-03,-0.04,-1.016
-8.416e-03,-0.44,-1.016
-8.400e-03,-0.8,-1.016
-8.384e-03,-1.08,-1.016
-8.368e-03,-1.24,-0.968
-8.352e-03,-1.28,-0.904
-8.336e-03,-1.2,-0.84
-8.320e-03,-1.04,-0.768
-8.304e-03,-0.8,-0.704
-8.288e-03,-0.52,-0.656
-8.272e-03,-0.16,-0.616
-8.256e-03,0.16,-0.576
-8.240e-03,0.48,-0.552
-8.224e-03,0.8,-0.536
-8.208e-03,1.16,-0.52
-8.192e-03,1.4,-0.52
-8.176e-03,1.6,-0.512
-8.160e-03,1.84,-0.512
-8.144e-03,2.04,-0.512
-8.128e-03,2.16,-0.512
-8.112e-03,2.24,-0.512
-8.096e-03,2.36,-0.512
-8.080e-03,2.4,-0.504
-8.064e-03,2.4,-0.504
-8.048e-03,2.4,-0.488
-8.032e-03,2.36,-0.472
-8.016e-03,2.32,-0.456
-8.000e-03,2.24,-0.448
-7.984e-03,2.08,-0.416
-7.968e-03,1.96,-0.392
-7.952e-03,1.84,-0.36
-7.936e-03,1.68,-0.328
-7.920e-03,1.52,-0.296
-7.904e-03,1.36,-0.264
-7.888e-03,1.2,-0.216
-7.872e-03,1.04,-0.184
-7.856e-03,0.88,-0.136
-7.840e-03,0.8,-0.104
-7.824e-03,0.68,-0.072
-7.808e-03,0.56,-0.04
-7.792e-03,0.48,-0.016
-7.776e-03,0.44,0
-7.760e-03,0.44,0.024
-7.744e-03,0.32,0.032
-7.728e-03,0.36,0.04
-7.712e-03,0.4,0.04
-7.696e-03,0.36,0.032
-7.680e-03,0.36,0.024
-7.664e-03,0.4,0
-7.648e-03,0.4,-0.016
-7.632e-03,0.4,-0.04
-7.616e-03,0.4,-0.072
-7.600e-03,0.44,-0.112
-7.584e-03,0.4,-0.144
-7.568e-03,0.4,-0.184
-7.552e-03,0.32,-0.232
-7.536e-03,0.32,-0.272
-7.520e-03,0.28,-0.312
-7.504e-03,0.16,-0.352
-7.488e-03,0.04,-0.392
-7.472e-03,-0.08,-0.424
-7.456e-03,-0.16,-0.448
-7.440e-03,-0.36,-0.472
-7.424e-03,-0.48,-0.496
-7.408e-03,-0.6,-0.496
-7.392e-03,-0.76,-0.504
-7.376e-03,-0.92,-0.504
-7.360e-03,-1.08,-0.496
-7.344e-03,-1.2,-0.488
-7.328e-03,-1.32,-0.472
-7.312e-03,-1.4,-0.448
-7.296e-03,-1.44,-0.424
-7.280e-03,-1.44,-0.392
-7.264e-03,-1.44,-0.36
-7.248e-03,-1.44,-0.336
-7.232e-03,-1.36,-0.296
-7.216e-03,-1.32,-0.264
-7.200e-03,-1.24,-0.24
-7.184e-03,-1.2,-0.192
-7.168e-03,-1.12,-0.16
-7.152e-03,-1,-0.12
-7.136e-03,-0.92,-0.08
-7.120e-03,-0.92,-0.056
-7.104e-03,-0.8,-0.008
-7.088e-03,-0.72,0.024
-7.072e-03,-0.72,0.072
-7.056e-03,-0.68,0.112
-7.040e-03,-0.64,0.16
-7.024e-03,-0.68,0.208
-7.008e-03,-0.72,0.256
-6.992e-03,-0.72,0.312
-6.976e-03,-0.8,0.36
-6.960e-03,-0.84,0.416
-6.944e-03,-0.92,0.48
-6.928e-03,-1,0.536
-6.912e-03,-1.08,0.6
-6.896e-03,-1.2,0.664
-6.880e-03,-1.28,0.728
-6.864e-03,-1.32,0.792
-6.848e-03,-1.4,0.848
-6.832e-03,-1.4,0.904
-6.816e-03,-1.36,0.952
-6.800e-03,-1.2,1
-6.784e-03,-1.08,1.008
-6.768e-03,-0.8,1.008
-6.752e-03,-0.48,1.008
-6.736e-03,-0.12,1.008
-6.720e-03,0.28,1.008
-6.704e-03,0.72,0.992
-6.688e-03,1.12,0.936
-6.672e-03,1.52,0.864
-6.656e-03,1.88,0.776
-6.640e-03,2.08,0.68
-6.624e-03,2.24,0.584
-6.608e-03,2.32,0.48
-6.592e-03,2.36,0.376
-6.576e-03,2.32,0.272
-6.560e-03,2.24,0.176
-6.544e-03,2.12,0.08
-6.528e-03,2,-0.008
-6.512e-03,1.88,-0.088
-6.496e-03,1.8,-0.168
-6.480e-03,1.8,-0.248
-6.464e-03,1.8,-0.328
-6.448e-03,1.76,-0.408
-6.432e-03,1.76,-0.48
-6.416e-03,1.84,-0.568
-6.400e-03,1.92,-0.64
-6.384e-03,2,-0.72
-6.368e-03,2.16,-0.808
-6.352e-03,2.2,-0.888
-6.336e-03,2.28,-0.968
-6.320e-03,2.28,-1.016
-6.304e-03,2.24,-1.016
-6.288e-03,2.16,-1.016
-6.272e-03,1.96,-1.016
-6.256e-03,1.64,-1.016
-6.240e-03,1.28,-1.016
-6.224e-03,0.84,-1.016
-6.208e-03,0.4,-1.016
-6.192e-03,-0.04,-1.016
-6.176e-03,-0.48,-1.016
-6.160e-03,-0.84,-1.016
-6.144e-03,-1.08,-1.016
-6.128e-03,-1.2,-1.016
-6.112e-03,-1.2,-0.936
-6.096e-03,-1.08,-0.864
-6.080e-03,-0.8,-0.792
-6.064e-03,-0.52,-0.744
-6.048e-03,-0.16,-0.688
-6.032e-03,0.2,-0.64
-6.016e-03,0.6,-0.616
-6.000e-03,0.92,-0.6
-5.984e-03,1.28,-0.584
-5.968e-03,1.56,-0.576
-5.952e-03,1.76,-0.576
-5.936e-03,2.04,-0.576
-5.920e-03,2.12,-0.576
-5.904e-03,2.28,-0.576
-5.888e-03,2.36,-0.576
-5.872e-03,2.48,-0.568
-5.856e-03,2.4,-0.56
-5.840e-03,2.36,-0.552
-5.824e-03,2.32,-0.536
-5.808e-03,2.2,-0.512
-5.792e-03,2.08,-0.488
-5.776e-03,1.92,-0.464
-5.760e-03,1.76,-0.416
-5.744e-03,1.6,-0.384
-5.728e-03,1.36,-0.336
-5.712e-03,1.16,-0.288
-5.696e-03,1,-0.24
-5.680e-03,0.8,-0.184
-5.664e-03,0.64,-0.136
-5.648e-03,0.48,-0.08
-5.632e-03,0.4,-0.032
-5.616e-03,0.28,0.016
-5.600e-03,0.2,0.048
-5.584e-03,0.12,0.088
-5.568e-03,0.12,0.128
-5.552e-03,0.12,0.144
-5.536e-03,0.12,0.16
-5.520e-03,0.16,0.176
-5.504e-03,0.24,0.176
-5.488e-03,0.28,0.168
-5.472e-03,0.32,0.152
-5.456e-03,0.4,0.128
-5.440e-03,0.48,0.112
-5.424e-03,0.56,0.064
-5.408e-03,0.64,0.024
-5.392e-03,0.72,-0.016
-5.376e-03,0.76,-0.064
-5.360e-03,0.76,-0.128
-5.344e-03,0.8,-0.184
-5.328e-03,0.76,-0.232
-5.312e-03,0.76,-0.288
-5.296e-03,0.68,-0.352
-5.280e-03,0.6,-0.4
-5.264e-03,0.52,-0.448
-5.248e-03,0.4,-0.488
-5.232e-03,0.2,-0.528
-5.216e-03,0.04,-0.56
-5.200e-03,-0.12,-0.592
-5.184e-03,-0.32,-0.608
-5.168e-03,-0.52,-0.608
-5.152e-03,-0.72,-0.616
-5.136e-03,-0.92,-0.608
-5.120e-03,-1.04,-0.592
-5.104e-03,-1.24,-0.568
-5.088e-03,-1.32,-0.544
-5.072e-03,-1.4,-0.512
-5.056e-03,-1.4,-0.472
-5.040e-03,-1.44,-0.44
-5.024e-03,-1.4,-0.4
-5.008e-03,-1.32,-0.368
-4.992e-03,-1.24,-0.328
-4.976e-03,-1.2,-0.288
-4.960e-03,-1.04,-0.256
-4.944e-03,-0.92,-0.216
-4.928e-03,-0.8,-0.184
-4.912e-03,-0.72,-0.144
-4.896e-03,-0.6,-0.112
-4.880e-03,-0.48,-0.08
-4.864e-03,-0.4,-0.048
-4.848e-03,-0.36,-0.008
-4.832e-03,-0.28,0.024
-4.816e-03,-0.2,0.056
-4.800e-03,-0.16,0.104
-4.784e-03,-0.24,0.144
-4.768e-03,-0.2,0.184
-4.752e-03,-0.2,0.224
-4.736e-03,-0.28,0.272
-4.720e-03,-0.32,0.32
-4.704e-03,-0.4,0.376
-4.688e-03,-0.48,0.424
-4.672e-03,-0.56,0.48
-4.656e-03,-0.68,0.528
-4.640e-03,-0.76,0.592
-4.624e-03,-0.96,0.648
-4.608e-03,-1.04,0.704
-4.592e-03,-1.16,0.76
-4.576e-03,-1.28,0.816
-4.560e-03,-1.36,0.864
-4.544e-03,-1.36,0.92
-4.528e-03,-1.36,0.96
-4.512e-03,-1.28,1
-4.496e-03,-1.12,1.008
-4.480e-03,-0.88,1.008
-4.464e-03,-0.6,1.008
-4.448e-03,-0.2,1.008
-4.432e-03,0.2,0.976
-4.416e-03,0.6,0.92
-4.400e-03,1,0.848
-4.384e-03,1.4,0.76
-4.368e-03,1.72,0.672
-4.352e-03,2,0.56
-4.336e-03,2.2,0.448
-4.320e-03,2.36,0.328
-4.304e-03,2.4,0.208
-4.288e-03,2.44,0.088
-4.272e-03,2.4,-0.016
-4.256e-03,2.4,-0.128
-4.240e-03,2.32,-0.24
-4.224e-03,2.28,-0.344
-4.208e-03,2.32,-0.448
-4.192e-03,2.28,-0.544
-4.176e-03,2.32,-0.64
-4.160e-03,2.32,-0.728
-4.144e-03,2.32,-0.816
-4.128e-03,2.32,-0.904
-4.112e-03,2.32,-0.984
-4.096e-03,2.24,-1.016
-4.080e-03,2.08,-1.016
-4.064e-03,1.92,-1.016
-4.048e-03,1.56,-1.016
-4.032e-03,1.24,-1.016
-4.016e-03,0.8,-1.016
-4.000e-03,0.36,-1.016
-3.984e-03,-0.08,-1.016
-3.968e-03,-0.52,-1.016
-3.952e-03,-0.88,-1.016
-3.936e-03,-1.12,-1.016
-3.920e-03,-1.24,-0.992
-3.904e-03,-1.24,-0.92
-3.888e-03,-1.12,-0.856
-3.872e-03,-0.88,-0.792
-3.856e-03,-0.56,-0.736
-3.840e-03,-0.24,-0.688
-3.824e-03,0.08,-0.648
-3.808e-03,0.44,-0.624
-3.792e-03,0.8,-0.6
-3.776e-03,1.12,-0.592
-3.760e-03,1.44,-0.584
-3.744e-03,1.68,-0.584
-3.728e-03,1.92,-0.584
-3.712e-03,2.08,-0.584
-3.696e-03,2.2,-0.592
-3.680e-03,2.32,-0.592
-3.664e-03,2.4,-0.584
-3.648e-03,2.44,-0.584
-3.632e-03,2.36,-0.576
-3.616e-03,2.32,-0.56
-3.600e-03,2.24,-0.536
-3.584e-03,2.12,-0.512
-3.568e-03,1.92,-0.48
-3.552e-03,1.8,-0.448
-3.536e-03,1.6,-0.408
-3.520e-03,1.4,-0.368
-3.504e-03,1.16,-0.312
-3.488e-03,0.96,-0.264
-3.472e-03,0.8,-0.216
-3.456e-03,0.64,-0.152
-3.440e-03,0.48,-0.104
-3.424e-03,0.32,-0.04
-3.408e-03,0.24,0.008
-3.392e-03,0.16,0.048
-3.376e-03,0.04,0.096
-3.360e-03,0.04,0.136
-3.344e-03,0.08,0.168
-3.328e-03,0.04,0.184
-3.312e-03,0.08,0.2
-3.296e-03,0.16,0.216
-3.280e-03,0.2,0.208
-3.264e-03,0.32,0.2
-3.248e-03,0.4,0.176
-3.232e-03,0.48,0.16
-3.216e-03,0.56,0.12
-3.200e-03,0.64,0.088
-3.184e-03,0.76,0.032
-3.168e-03,0.84,-0.016
-3.152e-03,0.84,-0.064
-3.136e-03,0.88,-0.128
-3.120e-03,0.92,-0.184
-3.104e-03,0.92,-0.248
-3.088e-03,0.84,-0.312
-3.072e-03,0.84,-0.368
-3.056e-03,0.76,-0.424
-3.040e-03,0.64,-0.48
-3.024e-03,0.48,-0.528
-3.008e-03,0.32,-0.568
-2.992e-03,0.16,-0.6
-2.976e-03,-0.04,-0.624
-2.960e-03,-0.28,-0.64
-2.944e-03,-0.48,-0.648
-2.928e-03,-0.68,-0.648
-2.912e-03,-0.92,-0.64
-2.896e-03,-1.08,-0.624
-2.880e-03,-1.24,-0.6
-2.864e-03,-1.32,-0.568
-2.848e-03,-1.4,-0.536
-2.832e-03,-1.44,-0.496
-2.816e-03,-1.44,-0.456
-2.800e-03,-1.36,-0.424
-2.784e-03,-1.28,-0.384
-2.768e-03,-1.2,-0.344
-2.752e-03,-1.12,-0.312
-2.736e-03,-0.96,-0.272
-2.720e-03,-0.84,-0.24
-2.704e-03,-0.72,-0.2
-2.688e-03,-0.56,-0.168
-2.672e-03,-0.44,-0.136
-2.656e-03,-0.32,-0.104
-2.640e-03,-0.28,-0.072
-2.624e-03,-0.16,-0.04
-2.608e-03,-0.08,-0.008
-2.592e-03,-0.04,0.016
-2.576e-03,0,0.056
-2.560e-03,0.04,0.088
-2.544e-03,0.04,0.128
-2.528e-03,0.04,0.176
-2.512e-03,0,0.216
-2.496e-03,0,0.256
-2.480e-03,-0.08,0.296
-2.464e-03,-0.16,0.344
-2.448e-03,-0.24,0.392
-2.432e-03,-0.28,0.44
-2.416e-03,-0.44,0.488
-2.400e-03,-0.56,0.544
-2.384e-03,-0.68,0.592
-2.368e-03,-0.84,0.648
-2.352e-03,-1,0.704
-2.336e-03,-1.12,0.752
-2.320e-03,-1.24,0.808
-2.304e-03,-1.32,0.856
-2.288e-03,-1.36,0.896
-2.272e-03,-1.36,0.936
-2.256e-03,-1.32,0.96
-2.240e-03,-1.2,0.984
-2.224e-03,-0.96,0.984
-2.208e-03,-0.68,0.984
-2.192e-03,-0.36,0.96
-2.176e-03,0,0.92
-2.160e-03,0.44,0.864
-2.144e-03,0.84,0.792
-2.128e-03,1.2,0.704
-2.112e-03,1.56,0.608
-2.096e-03,1.84,0.496
-2.080e-03,2.08,0.376
-2.064e-03,2.28,0.256
-2.048e-03,2.36,0.128
