run1/TEK00021.CSV

Model,TBS2102B
Firmware Version,v1.31.14

Point Format,Y,
Horizontal Units,S,
Horizontal Scale,0.002,
Sample Interval,1.6e-05,
Filter Frequency,2e+08,
Record Length,2000,
Gating,0.0% to 100.0%,0.0% to 100.0%
Probe Attenuation,1,1
Vertical Units,V,V
Vertical Offset,0,0
Vertical Scale,1,0.2
Label,,
TIME,CH1,CH2
-1.600e-02,-0.36,0.168
-1.598e-02,-0.4,0.2
-1.597e-02,-0.44,0.224
-1.595e-02,-0.48,0.256
-1.594e-02,-0.56,0.288
-1.592e-02,-0.64,0.32
-1.590e-02,-0.72,0.36
-1.589e-02,-0.8,0.392
-1.587e-02,-0.88,0.424
-1.586e-02,-1,0.464
-1.584e-02,-1.08,0.504
-1.582e-02,-1.16,0.544
-1.581e-02,-1.28,0.584
-1.579e-02,-1.32,0.616
-1.578e-02,-1.36,0.648
-1.576e-02,-1.44,0.68
-1.574e-02,-1.44,0.712
-1.573e-02,-1.36,0.736
-1.571e-02,-1.28,0.752
-1.570e-02,-1.2,0.76
-1.568e-02,-1,0.768
-1.566e-02,-0.76,0.76
-1.565e-02,-0.52,0.736
-1.563e-02,-0.2,0.712
-1.562e-02,0.12,0.664
-1.560e-02,0.4,0.616
-1.558e-02,0.72,0.552
-1.557e-02,1.04,0.472
-1.555e-02,1.32,0.4
-1.554e-02,1.56,0.304
-1.552e-02,1.8,0.216
-1.550e-02,1.96,0.12
-1.549e-02,2.08,0.024
-1.547e-02,2.2,-0.072
-1.546e-02,2.24,-0.16
-1.544e-02,2.28,-0.264
-1.542e-02,2.28,-0.344
-1.541e-02,2.28,-0.424
-1.539e-02,2.24,-0.504
-1.538e-02,2.16,-0.576
-1.536e-02,2.08,-0.64
-1.534e-02,1.92,-0.696
-1.533e-02,1.76,-0.744
-1.531e-02,1.6,-0.784
-1.530e-02,1.36,-0.816
-1.528e-02,1.08,-0.824
-1.526e-02,0.76,-0.832
-1.525e-02,0.4,-0.824
-1.523e-02,0.08,-0.8
-1.522e-02,-0.24,-0.768
-1.520e-02,-0.56,-0.728
-1.518e-02,-0.8,-0.672
-1.517e-02,-1.04,-0.616
-1.515e-02,-1.28,-0.552
-1.514e-02,-1.36,-0.48
-1.512e-02,-1.44,-0.416
-1.510e-02,-1.44,-0.344
-1.509e-02,-1.48,-0.28
-1.507e-02,-1.4,-0.216
-1.506e-02,-1.32,-0.152
-1.504e-02,-1.24,-0.096
-1.502e-02,-1.2,-0.048
-1.501e-02,-1.12,0
-1.499e-02,-1.04,0.048
-1.498e-02,-1,0.088
-1.496e-02,-0.96,0.136
-1.494e-02,-0.96,0.176
-1.493e-02,-0.96,0.216
-1.491e-02,-0.96,0.256
-1.490e-02,-1,0.296
-1.488e-02,-1.08,0.336
-1.486e-02,-1.12,0.376
-1.485e-02,-1.16,0.424
-1.483e-02,-1.2,0.464
-1.482e-02,-1.28,0.512
-1.480e-02,-1.36,0.56
-1.478e-02,-1.4,0.592
-1.477e-02,-1.4,0.64
-1.475e-02,-1.4,0.672
-1.474e-02,-1.4,0.712
-1.472e-02,-1.32,0.744
-1.470e-02,-1.2,0.768
-1.469e-02,-1.12,0.792
-1.467e-02,-0.92,0.792
-1.466e-02,-0.64,0.792
-1.464e-02,-0.36,0.784
-1.462e-02,-0.04,0.76
-1.461e-02,0.28,0.728
-1.459e-02,0.6,0.68
-1.458e-02,0.96,0.624
-1.456e-02,1.32,0.56
-1.454e-02,1.56,0.48
-1.453e-02,1.8,0.4
-1.451e-02,2,0.312
-1.450e-02,2.16,0.224
-1.448e-02,2.28,0.128
-1.446e-02,2.36,0.04
-1.445e-02,2.4,-0.048
-1.443e-02,2.48,-0.136
-1.442e-02,2.44,-0.224
-1.440e-02,2.44,-0.304
-1.438e-02,2.44,-0.384
-1.437e-02,2.44,-0.456
-1.435e-02,2.44,-0.536
-1.434e-02,2.32,-0.6
-1.432e-02,2.32,-0.664
-1.430e-02,2.2,-0.72
-1.429e-02,2.04,-0.776
-1.427e-02,1.88,-0.824
-1.426e-02,1.68,-0.856
-1.424e-02,1.44,-0.88
-1.422e-02,1.16,-0.896
-1.421e-02,0.8,-0.896
-1.419e-02,0.44,-0.888
-1.418e-02,0.08,-0.864
-1.416e-02,-0.24,-0.832
-1.414e-02,-0.56,-0.792
-1.413e-02,-0.88,-0.736
-1.411e-02,-1.08,-0.672
-1.410e-02,-1.28,-0.616
-1.408e-02,-1.4,-0.544
-1.406e-02,-1.44,-0.48
-1.405e-02,-1.44,-0.416
-1.403e-02,-1.36,-0.36
-1.402e-02,-1.28,-0.304
-1.400e-02,-1.2,-0.248
-1.398e-02,-1.08,-0.208
-1.397e-02,-0.92,-0.16
-1.395e-02,-0.84,-0.128
-1.394e-02,-0.72,-0.088
-1.392e-02,-0.6,-0.072
-1.390e-02,-0.52,-0.04
-1.389e-02,-0.48,-0.016
-1.387e-02,-0.4,0.016
-1.386e-02,-0.32,0.04
-1.384e-02,-0.32,0.072
-1.382e-02,-0.36,0.096
-1.381e-02,-0.32,0.12
-1.379e-02,-0.36,0.144
-1.378e-02,-0.4,0.176
-1.376e-02,-0.44,0.2
-1.374e-02,-0.44,0.232
-1.373e-02,-0.48,0.264
-1.371e-02,-0.6,0.296
-1.370e-02,-0.64,0.328
-1.368e-02,-0.72,0.36
-1.366e-02,-0.8,0.4
-1.365e-02,-0.92,0.432
-1.363e-02,-1,0.472
-1.362e-02,-1.12,0.512
-1.360e-02,-1.2,0.552
-1.358e-02,-1.28,0.584
-1.357e-02,-1.32,0.616
-1.355e-02,-1.36,0.656
-1.354e-02,-1.4,0.688
-1.352e-02,-1.4,0.712
-1.350e-02,-1.36,0.736
-1.349e-02,-1.28,0.752
-1.347e-02,-1.16,0.76
-1.346e-02,-0.92,0.76
-1.344e-02,-0.76,0.76
-1.342e-02,-0.48,0.736
-1.341e-02,-0.16,0.704
-1.339e-02,0.08,0.664
-1.338e-02,0.44,0.608
-1.336e-02,0.8,0.544
-1.334e-02,1.08,0.464
-1.333e-02,1.36,0.384
-1.331e-02,1.6,0.296
-1.330e-02,1.8,0.208
-1.328e-02,1.96,0.104
-1.326e-02,2.08,0.008
-1.325e-02,2.2,-0.08
-1.323e-02,2.28,-0.176
-1.322e-02,2.28,-0.264
-1.320e-02,2.28,-0.352
-1.318e-02,2.28,-0.44
-1.317e-02,2.24,-0.512
-1.315e-02,2.16,-0.584
-1.314e-02,2.04,-0.648
-1.312e-02,1.92,-0.704
-1.310e-02,1.8,-0.752
-1.309e-02,1.56,-0.792
-1.307e-02,1.28,-0.816
-1.306e-02,1,-0.832
-1.304e-02,0.72,-0.832
-1.302e-02,0.36,-0.824
-1.301e-02,0.04,-0.8
-1.299e-02,-0.28,-0.76
-1.298e-02,-0.56,-0.72
-1.296e-02,-0.84,-0.672
-1.294e-02,-1.08,-0.608
-1.293e-02,-1.24,-0.544
-1.291e-02,-1.36,-0.472
-1.290e-02,-1.44,-0.4
-1.288e-02,-1.48,-0.336
-1.286e-02,-1.44,-0.272
-1.285e-02,-1.36,-0.208
-1.283e-02,-1.32,-0.144
-1.282e-02,-1.28,-0.088
-1.280e-02,-1.16,-0.04
-1.278e-02,-1.12,0.008
-1.277e-02,-1.04,0.048
-1.275e-02,-1,0.096
-1.274e-02,-0.96,0.136
-1.272e-02,-0.96,0.184
-1.270e-02,-0.96,0.224
-1.269e-02,-0.96,0.256
-1.267e-02,-1,0.296
-1.266e-02,-1.04,0.336
-1.264e-02,-1.08,0.384
-1.262e-02,-1.16,0.424
-1.261e-02,-1.24,0.472
-1.259e-02,-1.32,0.512
-1.258e-02,-1.36,0.56
-1.256e-02,-1.4,0.6
-1.254e-02,-1.4,0.648
-1.253e-02,-1.44,0.68
-1.251e-02,-1.4,0.712
-1.250e-02,-1.28,0.744
-1.248e-02,-1.24,0.768
-1.246e-02,-1.08,0.792
-1.245e-02,-0.84,0.8
-1.243e-02,-0.6,0.8
-1.242e-02,-0.4,0.784
-1.240e-02,-0.04,0.76
-1.238e-02,0.32,0.728
-1.237e-02,0.64,0.68
-1.235e-02,0.96,0.624
-1.234e-02,1.32,0.552
-1.232e-02,1.56,0.48
-1.230e-02,1.8,0.392
-1.229e-02,2,0.304
-1.227e-02,2.16,0.216
-1.226e-02,2.24,0.128
-1.224e-02,2.36,0.032
-1.222e-02,2.44,-0.064
-1.221e-02,2.44,-0.144
-1.219e-02,2.44,-0.232
-1.218e-02,2.44,-0.312
-1.216e-02,2.44,-0.392
-1.214e-02,2.4,-0.464
-1.213e-02,2.36,-0.544
-1.211e-02,2.32,-0.608
-1.210e-02,2.28,-0.672
-1.208e-02,2.16,-0.736
-1.206e-02,2.04,-0.776
-1.205e-02,1.88,-0.824
-1.203e-02,1.68,-0.856
-1.202e-02,1.4,-0.88
-1.200e-02,1.08,-0.896
-1.198e-02,0.76,-0.896
-1.197e-02,0.44,-0.888
-1.195e-02,0.04,-0.864
-1.194e-02,-0.32,-0.824
-1.192e-02,-0.64,-0.784
-1.190e-02,-0.88,-0.736
-1.189e-02,-1.12,-0.672
-1.187e-02,-1.28,-0.608
-1.186e-02,-1.4,-0.544
-1.184e-02,-1.44,-0.472
-1.182e-02,-1.4,-0.416
-1.181e-02,-1.36,-0.352
-1.179e-02,-1.28,-0.304
-1.178e-02,-1.16,-0.248
-1.176e-02,-1.04,-0.2
-1.174e-02,-0.92,-0.16
-1.173e-02,-0.8,-0.12
-1.171e-02,-0.68,-0.088
-1.170e-02,-0.56,-0.056
-1.168e-02,-0.52,-0.032
-1.166e-02,-0.48,-0.008
-1.165e-02,-0.4,0.016
-1.163e-02,-0.4,0.04
-1.162e-02,-0.36,0.064
-1.160e-02,-0.36,0.096
-1.158e-02,-0.32,0.12
-1.157e-02,-0.4,0.152
-1.155e-02,-0.36,0.176
-1.154e-02,-0.4,0.2
-1.152e-02,-0.48,0.232
-1.150e-02,-0.56,0.264
-1.149e-02,-0.56,0.296
-1.147e-02,-0.68,0.328
-1.146e-02,-0.72,0.368
-1.144e-02,-0.84,0.4
-1.142e-02,-0.88,0.44
-1.141e-02,-1,0.472
-1.139e-02,-1.12,0.512
-1.138e-02,-1.2,0.552
-1.136e-02,-1.24,0.592
-1.134e-02,-1.36,0.624
-1.133e-02,-1.4,0.664
-1.131e-02,-1.4,0.688
-1.130e-02,-1.4,0.712
-1.128e-02,-1.36,0.736
-1.126e-02,-1.28,0.752
-1.125e-02,-1.12,0.76
-1.123e-02,-0.92,0.76
-1.122e-02,-0.76,0.76
-1.120e-02,-0.44,0.728
-1.118e-02,-0.12,0.696
-1.117e-02,0.16,0.656
-1.115e-02,0.48,0.6
-1.114e-02,0.84,0.528
-1.112e-02,1.08,0.456
-1.110e-02,1.36,0.376
-1.109e-02,1.68,0.288
-1.107e-02,1.84,0.192
-1.106e-02,1.96,0.096
-1.104e-02,2.12,0
-1.102e-02,2.2,-0.096
-1.101e-02,2.24,-0.184
-1.099e-02,2.28,-0.272
-1.098e-02,2.28,-0.36
-1.096e-02,2.28,-0.44
-1.094e-02,2.2,-0.52
-1.093e-02,2.12,-0.592
-1.091e-02,2.04,-0.648
-1.090e-02,1.92,-0.712
-1.088e-02,1.72,-0.752
-1.086e-02,1.52,-0.792
-1.085e-02,1.24,-0.816
-1.083e-02,1,-0.824
-1.082e-02,0.68,-0.832
-1.080e-02,0.32,-0.824
-1.078e-02,0,-0.8
-1.077e-02,-0.32,-0.76
-1.075e-02,-0.6,-0.72
-1.074e-02,-0.88,-0.656
-1.072e-02,-1.12,-0.6
-1.070e-02,-1.24,-0.536
-1.069e-02,-1.4,-0.464
-1.067e-02,-1.44,-0.392
-1.066e-02,-1.48,-0.328
-1.064e-02,-1.44,-0.264
-1.062e-02,-1.36,-0.2
-1.061e-02,-1.32,-0.144
-1.059e-02,-1.24,-0.096
-1.058e-02,-1.16,-0.032
-1.056e-02,-1.12,0.008
-1.054e-02,-1.08,0.056
-1.053e-02,-1,0.096
-1.051e-02,-0.96,0.144
-1.050e-02,-0.96,0.184
-1.048e-02,-0.96,0.224
-1.046e-02,-1,0.264
-1.045e-02,-1,0.304
-1.043e-02,-1.08,0.344
-1.042e-02,-1.12,0.392
-1.040e-02,-1.2,0.432
-1.038e-02,-1.24,0.472
-1.037e-02,-1.32,0.52
-1.035e-02,-1.32,0.56
-1.034e-02,-1.4,0.608
-1.032e-02,-1.4,0.64
-1.030e-02,-1.44,0.68
-1.029e-02,-1.36,0.72
-1.027e-02,-1.32,0.752
-1.026e-02,-1.2,0.768
-1.024e-02,-1.08,0.792
-1.022e-02,-0.84,0.792
-1.021e-02,-0.6,0.792
-1.019e-02,-0.32,0.784
-1.018e-02,0.04,0.76
-1.016e-02,0.36,0.72
-1.014e-02,0.68,0.672
-1.013e-02,1.04,0.616
-1.011e-02,1.32,0.544
-1.010e-02,1.64,0.464
-1.008e-02,1.84,0.384
-1.006e-02,2.04,0.296
-1.005e-02,2.2,0.2
-1.003e-02,2.32,0.104
-1.002e-02,2.4,0.016
-1.000e-02,2.44,-0.064
-9.984e-03,2.44,-0.152
-9.968e-03,2.44,-0.248
-9.952e-03,2.44,-0.328
-9.936e-03,2.48,-0.4
-9.920e-03,2.4,-0.472
-9.904e-03,2.36,-0.544
-9.888e-03,2.32,-0.616
-9.872e-03,2.24,-0.68
-9.856e-03,2.12,-0.736
-9.840e-03,2,-0.784
-9.824e-03,1.84,-0.832
-9.808e-03,1.68,-0.864
-9.792e-03,1.4,-0.88
-9.776e-03,1.04,-0.896
-9.760e-03,0.76,-0.896
-9.744e-03,0.4,-0.888
-9.728e-03,0,-0.864
-9.712e-03,-0.32,-0.824
-9.696e-03,-0.64,-0.784
-9.680e-03,-0.92,-0.728
-9.664e-03,-1.16,-0.664
-9.648e-03,-1.32,-0.6
-9.632e-03,-1.4,-0.536
-9.616e-03,-1.44,-0.464
-9.600e-03,-1.44,-0.4
-9.584e-03,-1.36,-0.344
-9.568e-03,-1.28,-0.288
-9.552e-03,-1.16,-0.24
-9.536e-03,-1.04,-0.192
-9.520e-03,-0.92,-0.152
-9.504e-03,-0.8,-0.128
-9.488e-03,-0.64,-0.088
-9.472e-03,-0.6,-0.056
-9.456e-03,-0.52,-0.032
-9.440e-03,-0.4,0
-9.424e-03,-0.4,0.016
-9.408e-03,-0.36,0.048
-9.392e-03,-0.32,0.072
-9.376e-03,-0.32,0.104
-9.360e-03,-0.32,0.12
-9.344e-03,-0.4,0.152
-9.328e-03,-0.36,0.176
-9.312e-03,-0.4,0.208
-9.296e-03,-0.44,0.232
-9.280e-03,-0.56,0.264
-9.264e-03,-0.56,0.312
-9.248e-03,-0.64,0.336
-9.232e-03,-0.72,0.376
-9.216e-03,-0.84,0.408
-9.200e-03,-0.88,0.44
-9.184e-03,-1,0.48
-9.168e-03,-1.12,0.512
-9.152e-03,-1.2,0.552
-9.136e-03,-1.28,0.584
-9.120e-03,-1.36,0.624
-9.104e-03,-1.4,0.664
-9.088e-03,-1.4,0.688
-9.072e-03,-1.44,0.72
-9.056e-03,-1.36,0.744
-9.040e-03,-1.24,0.752
-9.024e-03,-1.08,0.76
-9.008e-03,-0.92,0.76
-8.992e-03,-0.72,0.752
-8.976e-03,-0.4,0.728
-8.960e-03,-0.16,0.696
-8.944e-03,0.2,0.648
-8.928e-03,0.56,0.592
-8.912e-03,0.84,0.528
-8.896e-03,1.16,0.448
-8.880e-03,1.44,0.368
-8.864e-03,1.68,0.28
-8.848e-03,1.84,0.184
-8.832e-03,2,0.088
-8.816e-03,2.12,-0.008
-8.800e-03,2.2,-0.096
-8.784e-03,2.24,-0.192
-8.768e-03,2.32,-0.288
-8.752e-03,2.32,-0.368
-8.736e-03,2.28,-0.448
-8.720e-03,2.24,-0.536
-8.704e-03,2.12,-0.6
-8.688e-03,2.04,-0.656
-8.672e-03,1.92,-0.712
-8.656e-03,1.68,-0.76
-8.640e-03,1.48,-0.8
-8.624e-03,1.28,-0.816
-8.608e-03,1,-0.832
-8.592e-03,0.64,-0.832
-8.576e-03,0.32,-0.816
-8.560e-03,0,-0.792
-8.544e-03,-0.32,-0.76
-8.528e-03,-0.64,-0.712
-8.512e-03,-0.92,-0.656
-8.496e-03,-1.12,-0.592
-8.480e-03,-1.28,-0.536
-8.464e-03,-1.4,-0.456
-8.448e-03,-1.44,-0.392
-8.432e-03,-1.44,-0.328
-8.416e-03,-1.44,-0.256
-8.400e-03,-1.4,-0.192
-8.384e-03,-1.32,-0.144
-8.368e-03,-1.24,-0.08
-8.352e-03,-1.16,-0.032
-8.336e-03,-1.08,0.016
-8.320e-03,-1.04,0.056
-8.304e-03,-1,0.112
-8.288e-03,-0.96,0.144
-8.272e-03,-0.96,0.184
-8.256e-03,-0.92,0.232
-8.240e-03,-0.96,0.272
-8.224e-03,-1.04,0.312
-8.208e-03,-1.08,0.352
-8.192e-03,-1.12,0.392
-8.176e-03,-1.2,0.432
-8.160e-03,-1.24,0.48
-8.144e-03,-1.32,0.52
-8.128e-03,-1.32,0.568
-8.112e-03,-1.4,0.616
-8.096e-03,-1.44,0.648
-8.080e-03,-1.4,0.688
-8.064e-03,-1.36,0.72
-8.048e-03,-1.32,0.752
-8.032e-03,-1.16,0.776
-8.016e-03,-1.04,0.792
-8.000e-03,-0.84,0.8
-7.984e-03,-0.56,0.792
-7.968e-03,-0.24,0.776
-7.952e-03,0.04,0.752
-7.936e-03,0.4,0.72
-7.920e-03,0.72,0.664
-7.904e-03,1.08,0.608
-7.888e-03,1.32,0.536
-7.872e-03,1.64,0.456
-7.856e-03,1.88,0.376
-7.840e-03,2.04,0.288
-7.824e-03,2.2,0.2
-7.808e-03,2.32,0.104
-7.792e-03,2.44,0.008
-7.776e-03,2.4,-0.08
-7.760e-03,2.44,-0.168
-7.744e-03,2.48,-0.248
-7.728e-03,2.44,-0.336
-7.712e-03,2.44,-0.408
-7.696e-03,2.4,-0.488
-7.680e-03,2.4,-0.56
-7.664e-03,2.32,-0.624
-7.648e-03,2.24,-0.688
-7.632e-03,2.16,-0.744
-7.616e-03,2.04,-0.792
-7.600e-03,1.84,-0.832
-7.584e-03,1.64,-0.864
-7.568e-03,1.32,-0.888
-7.552e-03,1.04,-0.896
-7.536e-03,0.72,-0.896
-7.520e-03,0.32,-0.88
-7.504e-03,0,-0.856
-7.488e-03,-0.36,-0.824
-7.472e-03,-0.68,-0.776
-7.456e-03,-0.92,-0.72
-7.440e-03,-1.2,-0.656
-7.424e-03,-1.32,-0.592
-7.408e-03,-1.4,-0.536
-7.392e-03,-1.44,-0.464
-7.376e-03,-1.4,-0.4
-7.360e-03,-1.32,-0.336
-7.344e-03,-1.24,-0.288
-7.328e-03,-1.12,-0.24
-7.312e-03,-1.04,-0.192
-7.296e-03,-0.84,-0.152
-7.280e-03,-0.76,-0.112
-7.264e-03,-0.64,-0.08
-7.248e-03,-0.6,-0.048
-7.232e-03,-0.52,-0.024
-7.216e-03,-0.4,0
-7.200e-03,-0.4,0.024
-7.184e-03,-0.4,0.048
-7.168e-03,-0.28,0.072
-7.152e-03,-0.32,0.096
-7.136e-03,-0.36,0.128
-7.120e-03,-0.32,0.152
-7.104e-03,-0.36,0.184
-7.088e-03,-0.4,0.216
-7.072e-03,-0.48,0.24
-7.056e-03,-0.52,0.272
-7.040e-03,-0.6,0.304
-7.024e-03,-0.68,0.336
-7.008e-03,-0.76,0.376
-6.992e-03,-0.8,0.408
-6.976e-03,-0.92,0.44
-6.960e-03,-1.04,0.48
-6.944e-03,-1.12,0.52
-6.928e-03,-1.2,0.56
-6.912e-03,-1.32,0.592
-6.896e-03,-1.36,0.632
-6.880e-03,-1.4,0.664
-6.864e-03,-1.4,0.696
-6.848e-03,-1.4,0.72
-6.832e-03,-1.32,0.744
-6.816e-03,-1.24,0.752
-6.800e-03,-1.12,0.76
-6.784e-03,-0.92,0.76
-6.768e-03,-0.64,0.752
-6.752e-03,-0.44,0.728
-6.736e-03,-0.12,0.696
-6.720e-03,0.24,0.648
-6.704e-03,0.56,0.592
-6.688e-03,0.84,0.52
-6.672e-03,1.16,0.44
-6.656e-03,1.44,0.368
-6.640e-03,1.68,0.264
-6.624e-03,1.84,0.184
-6.608e-03,2,0.088
-6.592e-03,2.16,-0.016
-6.576e-03,2.2,-0.112
-6.560e-03,2.24,-0.2
-6.544e-03,2.28,-0.296
-6.528e-03,2.32,-0.376
-6.512e-03,2.24,-0.456
-6.496e-03,2.2,-0.536
-6.480e-03,2.12,-0.6
-6.464e-03,2.04,-0.664
-6.448e-03,1.84,-0.72
-6.432e-03,1.68,-0.76
-6.416e-03,1.52,-0.8
-6.400e-03,1.24,-0.816
-6.384e-03,0.92,-0.832
-6.368e-03,0.64,-0.832
-6.352e-03,0.28,-0.816
-6.336e-03,-0.04,-0.792
-6.320e-03,-0.36,-0.752
-6.304e-03,-0.68,-0.704
-6.288e-03,-0.92,-0.648
-6.272e-03,-1.16,-0.584
-6.256e-03,-1.28,-0.52
-6.240e-03,-1.4,-0.448
-6.224e-03,-1.48,-0.384
-6.208e-03,-1.44,-0.312
-6.192e-03,-1.44,-0.248
-6.176e-03,-1.4,-0.192
-6.160e-03,-1.28,-0.128
-6.144e-03,-1.24,-0.072
-6.128e-03,-1.2,-0.032
-6.112e-03,-1.12,0.016
-6.096e-03,-1.04,0.064
-6.080e-03,-0.96,0.112
-6.064e-03,-0.96,0.152
-6.048e-03,-0.92,0.2
-6.032e-03,-0.96,0.232
-6.016e-03,-1,0.272
-6.000e-03,-1.04,0.32
-5.984e-03,-1.08,0.36
-5.968e-03,-1.12,0.4
-5.952e-03,-1.2,0.44
-5.936e-03,-1.24,0.488
-5.920e-03,-1.32,0.528
-5.904e-03,-1.36,0.576
-5.888e-03,-1.4,0.608
-5.872e-03,-1.4,0.648
-5.856e-03,-1.4,0.696
-5.840e-03,-1.4,0.728
-5.824e-03,-1.32,0.752
-5.808e-03,-1.16,0.776
-5.792e-03,-1,0.792
-5.776e-03,-0.8,0.8
-5.760e-03,-0.52,0.792
-5.744e-03,-0.24,0.776
-5.728e-03,0.04,0.752
-5.712e-03,0.4,0.712
-5.696e-03,0.76,0.664
-5.680e-03,1.04,0.6
-5.664e-03,1.4,0.528
-5.648e-03,1.68,0.448
-5.632e-03,1.88,0.36
-5.616e-03,2.08,0.272
-5.600e-03,2.24,0.184
-5.584e-03,2.32,0.088
-5.568e-03,2.4,0
-5.552e-03,2.4,-0.088
-5.536e-03,2.48,-0.176
-5.520e-03,2.48,-0.264
-5.504e-03,2.44,-0.352
-5.488e-03,2.44,-0.416
-5.472e-03,2.4,-0.496
-5.456e-03,2.4,-0.568
-5.440e-03,2.32,-0.632
-5.424e-03,2.24,-0.696
-5.408e-03,2.2,-0.744
-5.392e-03,2,-0.8
-5.376e-03,1.8,-0.84
-5.360e-03,1.6,-0.872
-5.344e-03,1.28,-0.888
-5.328e-03,1,-0.896
-5.312e-03,0.64,-0.896
-5.296e-03,0.28,-0.88
-5.280e-03,-0.04,-0.848
-5.264e-03,-0.4,-0.816
-5.248e-03,-0.72,-0.776
-5.232e-03,-1,-0.712
-5.216e-03,-1.2,-0.648
-5.200e-03,-1.32,-0.584
-5.184e-03,-1.44,-0.52
-5.168e-03,-1.48,-0.448
-5.152e-03,-1.4,-0.392
-5.136e-03,-1.32,-0.328
-5.120e-03,-1.24,-0.28
-5.104e-03,-1.12,-0.24
-5.088e-03,-1,-0.184
-5.072e-03,-0.88,-0.144
-5.056e-03,-0.76,-0.112
-5.040e-03,-0.68,-0.08
-5.024e-03,-0.52,-0.056
-5.008e-03,-0.48,-0.024
-4.992e-03,-0.44,0
-4.976e-03,-0.4,0.024
-4.960e-03,-0.32,0.048
-4.944e-03,-0.32,0.08
-4.928e-03,-0.32,0.104
-4.912e-03,-0.32,0.128
-4.896e-03,-0.36,0.152
-4.880e-03,-0.4,0.184
-4.864e-03,-0.44,0.216
-4.848e-03,-0.48,0.24
-4.832e-03,-0.52,0.272
-4.816e-03,-0.56,0.304
-4.800e-03,-0.68,0.344
-4.784e-03,-0.72,0.384
-4.768e-03,-0.84,0.408
-4.752e-03,-0.96,0.456
-4.736e-03,-1.04,0.488
-4.720e-03,-1.12,0.528
-4.704e-03,-1.24,0.56
-4.688e-03,-1.32,0.6
-4.672e-03,-1.36,0.632
-4.656e-03,-1.4,0.664
-4.640e-03,-1.44,0.696
-4.624e-03,-1.4,0.72
-4.608e-03,-1.32,0.744
-4.592e-03,-1.24,0.76
-4.576e-03,-1.08,0.76
-4.560e-03,-0.88,0.76
-4.544e-03,-0.64,0.744
-4.528e-03,-0.4,0.72
-4.512e-03,-0.08,0.688
-4.496e-03,0.24,0.648
-4.480e-03,0.56,0.584
-4.464e-03,0.88,0.512
-4.448e-03,1.2,0.432
-4.432e-03,1.48,0.352
-4.416e-03,1.68,0.256
-4.400e-03,1.88,0.168
-4.384e-03,2.04,0.072
-4.368e-03,2.12,-0.032
-4.352e-03,2.2,-0.12
-4.336e-03,2.28,-0.208
-4.320e-03,2.28,-0.304
-4.304e-03,2.24,-0.384
-4.288e-03,2.24,-0.464
-4.272e-03,2.2,-0.536
-4.256e-03,2.12,-0.608
-4.240e-03,1.96,-0.672
-4.224e-03,1.88,-0.72
-4.208e-03,1.68,-0.768
-4.192e-03,1.48,-0.8
-4.176e-03,1.2,-0.816
-4.160e-03,0.88,-0.832
-4.144e-03,0.6,-0.824
-4.128e-03,0.28,-0.816
-4.112e-03,-0.08,-0.792
-4.096e-03,-0.44,-0.744
-4.080e-03,-0.68,-0.704
-4.064e-03,-0.92,-0.64
-4.048e-03,-1.16,-0.584
-4.032e-03,-1.32,-0.512
-4.016e-03,-1.4,-0.44
-4.000e-03,-1.44,-0.376
-3.984e-03,-1.44,-0.312
-3.968e-03,-1.4,-0.24
-3.952e-03,-1.36,-0.184
-3.936e-03,-1.32,-0.12
-3.920e-03,-1.24,-0.072
-3.904e-03,-1.16,-0.024
-3.888e-03,-1.08,0.024
-3.872e-03,-1,0.072
-3.856e-03,-1,0.112
-3.840e-03,-1,0.16
-3.824e-03,-0.96,0.2
-3.808e-03,-1,0.24
-3.792e-03,-1,0.288
-3.776e-03,-1.04,0.32
-3.760e-03,-1.08,0.36
-3.744e-03,-1.16,0.408
-3.728e-03,-1.2,0.448
-3.712e-03,-1.24,0.488
-3.696e-03,-1.32,0.536
-3.680e-03,-1.4,0.576
-3.664e-03,-1.4,0.616
-3.648e-03,-1.44,0.664
-3.632e-03,-1.44,0.696
-3.616e-03,-1.36,0.728
-3.600e-03,-1.28,0.76
-3.584e-03,-1.16,0.784
-3.568e-03,-1,0.792
-3.552e-03,-0.76,0.8
-3.536e-03,-0.48,0.792
-3.520e-03,-0.24,0.776
-3.504e-03,0.12,0.744
-3.488e-03,0.52,0.704
-3.472e-03,0.8,0.648
-3.456e-03,1.12,0.584
-3.440e-03,1.48,0.52
-3.424e-03,1.68,0.432
-3.408e-03,1.92,0.352
-3.392e-03,2.12,0.264
-3.376e-03,2.24,0.168
-3.360e-03,2.32,0.072
-3.344e-03,2.4,-0.016
-3.328e-03,2.44,-0.104
-3.312e-03,2.44,-0.184
-3.296e-03,2.48,-0.28
-3.280e-03,2.44,-0.352
-3.264e-03,2.48,-0.424
-3.248e-03,2.4,-0.504
-3.232e-03,2.32,-0.576
-3.216e-03,2.28,-0.64
-3.200e-03,2.24,-0.696
-3.184e-03,2.12,-0.752
-3.168e-03,1.96,-0.8
-3.152e-03,1.76,-0.84
-3.136e-03,1.6,-0.872
-3.120e-03,1.28,-0.888
-3.104e-03,0.96,-0.904
-3.088e-03,0.6,-0.896
-3.072e-03,0.24,-0.88
-3.056e-03,-0.12,-0.848
-3.040e-03,-0.44,-0.808
-3.024e-03,-0.76,-0.76
-3.008e-03,-1,-0.704
-2.992e-03,-1.24,-0.64
-2.976e-03,-1.32,-0.576
-2.960e-03,-1.44,-0.512
-2.944e-03,-1.44,-0.448
-2.928e-03,-1.4,-0.384
-2.912e-03,-1.32,-0.328
-2.896e-03,-1.24,-0.272
-2.880e-03,-1.08,-0.224
-2.864e-03,-0.96,-0.192
-2.848e-03,-0.84,-0.136
-2.832e-03,-0.76,-0.104
-2.816e-03,-0.6,-0.072
-2.800e-03,-0.52,-0.04
-2.784e-03,-0.48,-0.024
-2.768e-03,-0.44,0
-2.752e-03,-0.36,0.024
-2.736e-03,-0.36,0.056
-2.720e-03,-0.36,0.08
-2.704e-03,-0.32,0.104
-2.688e-03,-0.32,0.128
-2.672e-03,-0.32,0.16
-2.656e-03,-0.44,0.184
-2.640e-03,-0.4,0.216
-2.624e-03,-0.44,0.248
-2.608e-03,-0.56,0.28
-2.592e-03,-0.6,0.312
-2.576e-03,-0.64,0.344
-2.560e-03,-0.76,0.376
-2.544e-03,-0.88,0.416
-2.528e-03,-0.96,0.448
-2.512e-03,-1.04,0.488
-2.496e-03,-1.16,0.528
-2.480e-03,-1.24,0.568
-2.464e-03,-1.32,0.608
-2.448e-03,-1.36,0.64
-2.432e-03,-1.4,0.672
-2.416e-03,-1.44,0.704
-2.400e-03,-1.36,0.728
-2.384e-03,-1.32,0.744
-2.368e-03,-1.24,0.76
-2.352e-03,-1.04,0.76
-2.336e-03,-0.84,0.76
-2.320e-03,-0.6,0.752
-2.304e-03,-0.32,0.72
-2.288e-03,-0.04,0.68
-2.272e-03,0.32,0.632
-2.256e-03,0.64,0.576
-2.240e-03,0.96,0.512
-2.224e-03,1.24,0.424
-2.208e-03,1.48,0.336
-2.192e-03,1.72,0.248
-2.176e-03,1.92,0.152
-2.160e-03,2,0.056
-2.144e-03,2.2,-0.04
-2.128e-03,2.24,-0.128
-2.112e-03,2.28,-0.224
-2.096e-03,2.28,-0.312
-2.080e-03,2.28,-0.392
-2.064e-03,2.28,-0.472
-2.048e-03,2.2,-0.552
-2.032e-03,2.08,-0.616
-2.016e-03,2,-0.68
-2.000e-03,1.84,-0.728
