run1/TEK00008.CSV

Model,TBS2102B
Firmware Version,v1.31.14

Point Format,Y,
Horizontal Units,S,
Horizontal Scale,0.002,
Sample Interval,1.6e-05,
Filter Frequency,2e+08,
Record Length,2000,
Gating,0.0% to 100.0%,0.0% to 100.0%
Probe Attenuation,1,1
Vertical Units,V,V
Vertical Offset,0,0
Vertical Scale,0.5,0.2
Label,,
TIME,CH1,CH2
-1.600e-02,-1.5,0.056
-1.598e-02,-1.48,0.088
-1.597e-02,-1.48,0.12
-1.595e-02,-1.48,0.144
-1.594e-02,-1.48,0.168
-1.592e-02,-1.48,0.192
-1.590e-02,-1.44,0.216
-1.589e-02,-1.44,0.24
-1.587e-02,-1.42,0.264
-1.586e-02,-1.36,0.288
-1.584e-02,-1.34,0.312
-1.582e-02,-1.32,0.336
-1.581e-02,-1.24,0.36
-1.579e-02,-1.16,0.376
-1.578e-02,-1.08,0.392
-1.576e-02,-1,0.408
-1.574e-02,-0.86,0.424
-1.573e-02,-0.72,0.432
-1.571e-02,-0.62,0.432
-1.570e-02,-0.44,0.432
-1.568e-02,-0.26,0.44
-1.566e-02,-0.1,0.424
-1.565e-02,0.1,0.416
-1.563e-02,0.32,0.4
-1.562e-02,0.5,0.376
-1.560e-02,0.68,0.352
-1.558e-02,0.86,0.32
-1.557e-02,1.06,0.288
-1.555e-02,1.2,0.248
-1.554e-02,1.34,0.208
-1.552e-02,1.5,0.168
-1.550e-02,1.62,0.128
-1.549e-02,1.68,0.088
-1.547e-02,1.78,0.04
-1.546e-02,1.86,-0.008
-1.544e-02,1.88,-0.048
-1.542e-02,1.9,-0.088
-1.541e-02,1.94,-0.136
-1.539e-02,1.94,-0.176
-1.538e-02,1.9,-0.216
-1.536e-02,1.86,-0.256
-1.534e-02,1.82,-0.288
-1.533e-02,1.78,-0.32
-1.531e-02,1.68,-0.352
-1.530e-02,1.58,-0.384
-1.528e-02,1.48,-0.4
-1.526e-02,1.36,-0.424
-1.525e-02,1.2,-0.44
-1.523e-02,1.02,-0.448
-1.522e-02,0.88,-0.456
-1.520e-02,0.7,-0.456
-1.518e-02,0.48,-0.464
-1.517e-02,0.28,-0.448
-1.515e-02,0.1,-0.44
-1.514e-02,-0.1,-0.416
-1.512e-02,-0.3,-0.4
-1.510e-02,-0.52,-0.376
-1.509e-02,-0.68,-0.344
-1.507e-02,-0.82,-0.312
-1.506e-02,-0.96,-0.28
-1.504e-02,-1.1,-0.248
-1.502e-02,-1.18,-0.208
-1.501e-02,-1.26,-0.176
-1.499e-02,-1.34,-0.136
-1.498e-02,-1.4,-0.104
-1.496e-02,-1.42,-0.072
-1.494e-02,-1.44,-0.04
-1.493e-02,-1.48,-0.008
-1.491e-02,-1.48,0.016
-1.490e-02,-1.48,0.048
-1.488e-02,-1.48,0.072
-1.486e-02,-1.5,0.104
-1.485e-02,-1.48,0.128
-1.483e-02,-1.46,0.16
-1.482e-02,-1.48,0.184
-1.480e-02,-1.48,0.208
-1.478e-02,-1.44,0.232
-1.477e-02,-1.4,0.256
-1.475e-02,-1.4,0.288
-1.474e-02,-1.38,0.312
-1.472e-02,-1.3,0.328
-1.470e-02,-1.26,0.352
-1.469e-02,-1.22,0.368
-1.467e-02,-1.12,0.384
-1.466e-02,-1.02,0.4
-1.464e-02,-0.94,0.416
-1.462e-02,-0.82,0.424
-1.461e-02,-0.66,0.432
-1.459e-02,-0.5,0.44
-1.458e-02,-0.36,0.432
-1.456e-02,-0.18,0.424
-1.454e-02,0.04,0.416
-1.453e-02,0.18,0.408
-1.451e-02,0.4,0.384
-1.450e-02,0.6,0.36
-1.448e-02,0.78,0.336
-1.446e-02,0.94,0.304
-1.445e-02,1.14,0.264
-1.443e-02,1.3,0.224
-1.442e-02,1.42,0.184
-1.440e-02,1.56,0.144
-1.438e-02,1.66,0.104
-1.437e-02,1.76,0.056
-1.435e-02,1.82,0.008
-1.434e-02,1.86,-0.032
-1.432e-02,1.92,-0.072
-1.430e-02,1.92,-0.112
-1.429e-02,1.9,-0.168
-1.427e-02,1.94,-0.2
-1.426e-02,1.92,-0.24
-1.424e-02,1.84,-0.272
-1.422e-02,1.78,-0.312
-1.421e-02,1.74,-0.344
-1.419e-02,1.66,-0.376
-1.418e-02,1.54,-0.392
-1.416e-02,1.4,-0.424
-1.414e-02,1.28,-0.432
-1.413e-02,1.14,-0.448
-1.411e-02,0.94,-0.456
-1.410e-02,0.74,-0.456
-1.408e-02,0.58,-0.456
-1.406e-02,0.38,-0.448
-1.405e-02,0.18,-0.44
-1.403e-02,-0.04,-0.424
-1.402e-02,-0.22,-0.408
-1.400e-02,-0.4,-0.384
-1.398e-02,-0.58,-0.352
-1.397e-02,-0.78,-0.328
-1.395e-02,-0.92,-0.296
-1.394e-02,-1.02,-0.264
-1.392e-02,-1.14,-0.224
-1.390e-02,-1.24,-0.192
-1.389e-02,-1.3,-0.16
-1.387e-02,-1.36,-0.12
-1.386e-02,-1.4,-0.088
-1.384e-02,-1.44,-0.048
-1.382e-02,-1.46,-0.024
-1.381e-02,-1.46,0.008
-1.379e-02,-1.48,0.032
-1.378e-02,-1.5,0.064
-1.376e-02,-1.48,0.088
-1.374e-02,-1.48,0.12
-1.373e-02,-1.48,0.152
-1.371e-02,-1.46,0.168
-1.370e-02,-1.46,0.2
-1.368e-02,-1.44,0.224
-1.366e-02,-1.44,0.256
-1.365e-02,-1.4,0.272
-1.363e-02,-1.38,0.296
-1.362e-02,-1.34,0.32
-1.360e-02,-1.3,0.344
-1.358e-02,-1.22,0.36
-1.357e-02,-1.16,0.384
-1.355e-02,-1.1,0.4
-1.354e-02,-0.96,0.408
-1.352e-02,-0.84,0.424
-1.350e-02,-0.74,0.432
-1.349e-02,-0.58,0.44
-1.347e-02,-0.4,0.44
-1.346e-02,-0.24,0.432
-1.344e-02,-0.08,0.424
-1.342e-02,0.12,0.408
-1.341e-02,0.34,0.392
-1.339e-02,0.48,0.376
-1.338e-02,0.7,0.352
-1.336e-02,0.9,0.32
-1.334e-02,1.04,0.288
-1.333e-02,1.2,0.248
-1.331e-02,1.38,0.208
-1.330e-02,1.54,0.168
-1.328e-02,1.6,0.12
-1.326e-02,1.7,0.08
-1.325e-02,1.8,0.032
-1.323e-02,1.84,-0.008
-1.322e-02,1.88,-0.064
-1.320e-02,1.92,-0.096
-1.318e-02,1.96,-0.136
-1.317e-02,1.92,-0.184
-1.315e-02,1.9,-0.224
-1.314e-02,1.88,-0.256
-1.312e-02,1.84,-0.296
-1.310e-02,1.76,-0.328
-1.309e-02,1.66,-0.36
-1.307e-02,1.58,-0.384
-1.306e-02,1.48,-0.408
-1.304e-02,1.34,-0.424
-1.302e-02,1.18,-0.448
-1.301e-02,1.04,-0.448
-1.299e-02,0.86,-0.456
-1.298e-02,0.66,-0.456
-1.296e-02,0.44,-0.456
-1.294e-02,0.26,-0.448
-1.293e-02,0.06,-0.432
-1.291e-02,-0.14,-0.424
-1.290e-02,-0.36,-0.392
-1.288e-02,-0.52,-0.368
-1.286e-02,-0.68,-0.344
-1.285e-02,-0.84,-0.312
-1.283e-02,-1,-0.28
-1.282e-02,-1.1,-0.24
-1.280e-02,-1.2,-0.208
-1.278e-02,-1.28,-0.168
-1.277e-02,-1.36,-0.136
-1.275e-02,-1.38,-0.096
-1.274e-02,-1.42,-0.064
-1.272e-02,-1.46,-0.04
-1.270e-02,-1.48,-0.008
-1.269e-02,-1.48,0.024
-1.267e-02,-1.48,0.048
-1.266e-02,-1.5,0.08
-1.264e-02,-1.5,0.104
-1.262e-02,-1.46,0.136
-1.261e-02,-1.48,0.16
-1.259e-02,-1.5,0.184
-1.258e-02,-1.44,0.216
-1.256e-02,-1.44,0.232
-1.254e-02,-1.42,0.264
-1.253e-02,-1.42,0.288
-1.251e-02,-1.36,0.304
-1.250e-02,-1.3,0.328
-1.248e-02,-1.28,0.352
-1.246e-02,-1.2,0.368
-1.245e-02,-1.1,0.392
-1.243e-02,-1.04,0.408
-1.242e-02,-0.94,0.416
-1.240e-02,-0.78,0.424
-1.238e-02,-0.64,0.432
-1.237e-02,-0.52,0.432
-1.235e-02,-0.32,0.432
-1.234e-02,-0.12,0.432
-1.232e-02,0.04,0.416
-1.230e-02,0.2,0.4
-1.229e-02,0.44,0.384
-1.227e-02,0.62,0.36
-1.226e-02,0.78,0.328
-1.224e-02,0.98,0.296
-1.222e-02,1.16,0.264
-1.221e-02,1.3,0.224
-1.219e-02,1.42,0.184
-1.218e-02,1.58,0.136
-1.216e-02,1.68,0.096
-1.214e-02,1.74,0.048
-1.213e-02,1.82,0.008
-1.211e-02,1.88,-0.032
-1.210e-02,1.9,-0.072
-1.208e-02,1.9,-0.12
-1.206e-02,1.94,-0.16
-1.205e-02,1.92,-0.2
-1.203e-02,1.88,-0.248
-1.202e-02,1.84,-0.272
-1.200e-02,1.8,-0.312
-1.198e-02,1.72,-0.344
-1.197e-02,1.62,-0.368
-1.195e-02,1.5,-0.392
-1.194e-02,1.38,-0.416
-1.192e-02,1.28,-0.432
-1.190e-02,1.1,-0.448
-1.189e-02,0.92,-0.456
-1.187e-02,0.74,-0.456
-1.186e-02,0.56,-0.456
-1.184e-02,0.36,-0.448
-1.182e-02,0.12,-0.44
-1.181e-02,-0.04,-0.424
-1.179e-02,-0.24,-0.4
-1.178e-02,-0.44,-0.384
-1.176e-02,-0.62,-0.352
-1.174e-02,-0.78,-0.328
-1.173e-02,-0.9,-0.296
-1.171e-02,-1.04,-0.256
-1.170e-02,-1.16,-0.224
-1.168e-02,-1.24,-0.192
-1.166e-02,-1.3,-0.152
-1.165e-02,-1.36,-0.12
-1.163e-02,-1.42,-0.08
-1.162e-02,-1.44,-0.048
-1.160e-02,-1.46,-0.016
-1.158e-02,-1.5,0.016
-1.157e-02,-1.48,0.04
-1.155e-02,-1.48,0.064
-1.154e-02,-1.48,0.096
-1.152e-02,-1.48,0.12
-1.150e-02,-1.48,0.152
-1.149e-02,-1.46,0.176
-1.147e-02,-1.46,0.2
-1.146e-02,-1.46,0.224
-1.144e-02,-1.44,0.248
-1.142e-02,-1.4,0.28
-1.141e-02,-1.38,0.296
-1.139e-02,-1.34,0.32
-1.138e-02,-1.28,0.336
-1.136e-02,-1.22,0.36
-1.134e-02,-1.16,0.384
-1.133e-02,-1.08,0.4
-1.131e-02,-0.94,0.416
-1.130e-02,-0.86,0.424
-1.128e-02,-0.72,0.432
-1.126e-02,-0.56,0.44
-1.125e-02,-0.4,0.432
-1.123e-02,-0.26,0.432
-1.122e-02,-0.04,0.424
-1.120e-02,0.14,0.408
-1.118e-02,0.32,0.392
-1.117e-02,0.52,0.368
-1.115e-02,0.74,0.344
-1.114e-02,0.9,0.32
-1.112e-02,1.06,0.288
-1.110e-02,1.24,0.24
-1.109e-02,1.4,0.208
-1.107e-02,1.5,0.16
-1.106e-02,1.62,0.12
-1.104e-02,1.74,0.072
-1.102e-02,1.8,0.024
-1.101e-02,1.86,-0.016
-1.099e-02,1.88,-0.056
-1.098e-02,1.94,-0.104
-1.096e-02,1.94,-0.152
-1.094e-02,1.92,-0.184
-1.093e-02,1.9,-0.232
-1.091e-02,1.9,-0.272
-1.090e-02,1.82,-0.296
-1.088e-02,1.74,-0.328
-1.086e-02,1.7,-0.36
-1.085e-02,1.6,-0.384
-1.083e-02,1.46,-0.408
-1.082e-02,1.34,-0.424
-1.080e-02,1.18,-0.44
-1.078e-02,1.02,-0.448
-1.077e-02,0.86,-0.456
-1.075e-02,0.62,-0.456
-1.074e-02,0.44,-0.456
-1.072e-02,0.26,-0.448
-1.070e-02,0.04,-0.432
-1.069e-02,-0.16,-0.416
-1.067e-02,-0.38,-0.392
-1.066e-02,-0.52,-0.368
-1.064e-02,-0.7,-0.344
-1.062e-02,-0.88,-0.312
-1.061e-02,-1,-0.272
-1.059e-02,-1.1,-0.248
-1.058e-02,-1.2,-0.2
-1.056e-02,-1.3,-0.168
-1.054e-02,-1.34,-0.136
-1.053e-02,-1.38,-0.096
-1.051e-02,-1.42,-0.064
-1.050e-02,-1.46,-0.032
-1.048e-02,-1.46,0
-1.046e-02,-1.48,0.024
-1.045e-02,-1.5,0.056
-1.043e-02,-1.5,0.08
-1.042e-02,-1.48,0.112
-1.040e-02,-1.48,0.136
-1.038e-02,-1.5,0.168
-1.037e-02,-1.46,0.184
-1.035e-02,-1.46,0.216
-1.034e-02,-1.44,0.24
-1.032e-02,-1.42,0.272
-1.030e-02,-1.38,0.288
-1.029e-02,-1.34,0.312
-1.027e-02,-1.32,0.336
-1.026e-02,-1.26,0.36
-1.024e-02,-1.18,0.376
-1.022e-02,-1.1,0.392
-1.021e-02,-1.04,0.408
-1.019e-02,-0.9,0.416
-1.018e-02,-0.76,0.432
-1.016e-02,-0.64,0.432
-1.014e-02,-0.48,0.432
-1.013e-02,-0.28,0.432
-1.011e-02,-0.14,0.432
-1.010e-02,0.04,0.416
-1.008e-02,0.26,0.4
-1.006e-02,0.46,0.392
-1.005e-02,0.62,0.36
-1.003e-02,0.82,0.328
-1.002e-02,1.04,0.296
-1.000e-02,1.16,0.256
-9.984e-03,1.32,0.224
-9.968e-03,1.46,0.176
-9.952e-03,1.6,0.136
-9.936e-03,1.66,0.096
-9.920e-03,1.76,0.048
-9.904e-03,1.84,0.008
-9.888e-03,1.88,-0.032
-9.872e-03,1.9,-0.08
-9.856e-03,1.94,-0.128
-9.840e-03,1.94,-0.16
-9.824e-03,1.92,-0.208
-9.808e-03,1.88,-0.248
-9.792e-03,1.84,-0.28
-9.776e-03,1.8,-0.32
-9.760e-03,1.72,-0.352
-9.744e-03,1.6,-0.376
-9.728e-03,1.52,-0.4
-9.712e-03,1.4,-0.416
-9.696e-03,1.24,-0.432
-9.680e-03,1.06,-0.448
-9.664e-03,0.9,-0.456
-9.648e-03,0.74,-0.456
-9.632e-03,0.54,-0.456
-9.616e-03,0.32,-0.456
-9.600e-03,0.12,-0.448
-9.584e-03,-0.06,-0.424
-9.568e-03,-0.26,-0.4
-9.552e-03,-0.46,-0.376
-9.536e-03,-0.64,-0.352
-9.520e-03,-0.78,-0.32
-9.504e-03,-0.94,-0.296
-9.488e-03,-1.08,-0.264
-9.472e-03,-1.16,-0.216
-9.456e-03,-1.24,-0.184
-9.440e-03,-1.32,-0.144
-9.424e-03,-1.4,-0.112
-9.408e-03,-1.42,-0.08
-9.392e-03,-1.46,-0.048
-9.376e-03,-1.48,-0.016
-9.360e-03,-1.48,0.008
-9.344e-03,-1.48,0.04
-9.328e-03,-1.48,0.072
-9.312e-03,-1.5,0.104
-9.296e-03,-1.48,0.12
-9.280e-03,-1.46,0.152
-9.264e-03,-1.46,0.176
-9.248e-03,-1.48,0.2
-9.232e-03,-1.44,0.224
-9.216e-03,-1.42,0.256
-9.200e-03,-1.4,0.28
-9.184e-03,-1.38,0.296
-9.168e-03,-1.32,0.32
-9.152e-03,-1.28,0.344
-9.136e-03,-1.24,0.36
-9.120e-03,-1.14,0.384
-9.104e-03,-1.06,0.4
-9.088e-03,-0.96,0.416
-9.072e-03,-0.86,0.424
-9.056e-03,-0.7,0.432
-9.040e-03,-0.54,0.44
-9.024e-03,-0.4,0.44
-9.008e-03,-0.22,0.432
-8.992e-03,0,0.424
-8.976e-03,0.14,0.408
-8.960e-03,0.34,0.392
-8.944e-03,0.56,0.368
-8.928e-03,0.74,0.344
-8.912e-03,0.9,0.312
-8.896e-03,1.1,0.272
-8.880e-03,1.28,0.24
-8.864e-03,1.4,0.208
-8.848e-03,1.52,0.16
-8.832e-03,1.64,0.112
-8.816e-03,1.74,0.064
-8.800e-03,1.78,0.024
-8.784e-03,1.86,-0.016
-8.768e-03,1.92,-0.064
-8.752e-03,1.94,-0.104
-8.736e-03,1.92,-0.152
-8.720e-03,1.92,-0.192
-8.704e-03,1.92,-0.232
-8.688e-03,1.88,-0.264
-8.672e-03,1.8,-0.304
-8.656e-03,1.74,-0.336
-8.640e-03,1.68,-0.368
-8.624e-03,1.58,-0.392
-8.608e-03,1.44,-0.416
-8.592e-03,1.32,-0.432
-8.576e-03,1.18,-0.448
-8.560e-03,1,-0.456
-8.544e-03,0.8,-0.464
-8.528e-03,0.6,-0.456
-8.512e-03,0.44,-0.456
-8.496e-03,0.22,-0.44
-8.480e-03,0,-0.432
-8.464e-03,-0.2,-0.408
-8.448e-03,-0.36,-0.392
-8.432e-03,-0.56,-0.368
-8.416e-03,-0.74,-0.344
-8.400e-03,-0.88,-0.304
-8.384e-03,-1,-0.272
-8.368e-03,-1.12,-0.232
-8.352e-03,-1.24,-0.2
-8.336e-03,-1.3,-0.168
-8.320e-03,-1.34,-0.128
-8.304e-03,-1.4,-0.096
-8.288e-03,-1.44,-0.064
-8.272e-03,-1.46,-0.032
-8.256e-03,-1.46,0
-8.240e-03,-1.48,0.024
-8.224e-03,-1.5,0.056
-8.208e-03,-1.48,0.088
-8.192e-03,-1.48,0.112
-8.176e-03,-1.48,0.144
-8.160e-03,-1.48,0.168
-8.144e-03,-1.46,0.192
-8.128e-03,-1.44,0.216
-8.112e-03,-1.44,0.24
-8.096e-03,-1.4,0.272
-8.080e-03,-1.38,0.288
-8.064e-03,-1.36,0.312
-8.048e-03,-1.32,0.344
-8.032e-03,-1.24,0.352
-8.016e-03,-1.16,0.376
-8.000e-03,-1.12,0.392
-7.984e-03,-1,0.408
-7.968e-03,-0.88,0.416
-7.952e-03,-0.78,0.432
-7.936e-03,-0.62,0.432
-7.920e-03,-0.44,0.44
-7.904e-03,-0.28,0.432
-7.888e-03,-0.14,0.424
-7.872e-03,0.06,0.424
-7.856e-03,0.28,0.4
-7.840e-03,0.44,0.376
-7.824e-03,0.64,0.36
-7.808e-03,0.86,0.336
-7.792e-03,1.02,0.296
-7.776e-03,1.16,0.256
-7.760e-03,1.34,0.216
-7.744e-03,1.48,0.176
-7.728e-03,1.58,0.136
-7.712e-03,1.68,0.088
-7.696e-03,1.78,0.04
-7.680e-03,1.84,0
-7.664e-03,1.88,-0.04
-7.648e-03,1.92,-0.08
-7.632e-03,1.94,-0.128
-7.616e-03,1.94,-0.168
-7.600e-03,1.9,-0.208
-7.584e-03,1.88,-0.248
-7.568e-03,1.86,-0.296
-7.552e-03,1.78,-0.32
-7.536e-03,1.68,-0.352
-7.520e-03,1.6,-0.376
-7.504e-03,1.52,-0.4
-7.488e-03,1.38,-0.424
-7.472e-03,1.22,-0.432
-7.456e-03,1.06,-0.448
-7.440e-03,0.9,-0.456
-7.424e-03,0.72,-0.456
-7.408e-03,0.5,-0.456
-7.392e-03,0.3,-0.448
-7.376e-03,0.12,-0.44
-7.360e-03,-0.08,-0.416
-7.344e-03,-0.3,-0.4
-7.328e-03,-0.5,-0.376
-7.312e-03,-0.66,-0.352
-7.296e-03,-0.82,-0.32
-7.280e-03,-0.96,-0.28
-7.264e-03,-1.08,-0.248
-7.248e-03,-1.18,-0.216
-7.232e-03,-1.26,-0.184
-7.216e-03,-1.34,-0.144
-7.200e-03,-1.38,-0.112
-7.184e-03,-1.42,-0.072
-7.168e-03,-1.44,-0.04
-7.152e-03,-1.48,-0.016
-7.136e-03,-1.48,0.008
-7.120e-03,-1.5,0.04
-7.104e-03,-1.5,0.08
-7.088e-03,-1.5,0.096
-7.072e-03,-1.48,0.128
-7.056e-03,-1.48,0.16
-7.040e-03,-1.48,0.184
-7.024e-03,-1.46,0.208
-7.008e-03,-1.44,0.232
-6.992e-03,-1.44,0.256
-6.976e-03,-1.42,0.28
-6.960e-03,-1.38,0.304
-6.944e-03,-1.32,0.328
-6.928e-03,-1.28,0.344
-6.912e-03,-1.22,0.368
-6.896e-03,-1.14,0.384
-6.880e-03,-1.04,0.4
-6.864e-03,-0.96,0.416
-6.848e-03,-0.82,0.424
-6.832e-03,-0.66,0.44
-6.816e-03,-0.56,0.432
-6.800e-03,-0.36,0.44
-6.784e-03,-0.18,0.432
-6.768e-03,-0.02,0.424
-6.752e-03,0.18,0.416
-6.736e-03,0.38,0.384
-6.720e-03,0.58,0.368
-6.704e-03,0.76,0.336
-6.688e-03,0.94,0.304
-6.672e-03,1.14,0.272
-6.656e-03,1.28,0.232
-6.640e-03,1.4,0.192
-6.624e-03,1.56,0.152
-6.608e-03,1.68,0.112
-6.592e-03,1.74,0.064
-6.576e-03,1.82,0.008
-6.560e-03,1.88,-0.024
-6.544e-03,1.9,-0.072
-6.528e-03,1.92,-0.112
-6.512e-03,1.92,-0.16
-6.496e-03,1.94,-0.2
-6.480e-03,1.9,-0.232
-6.464e-03,1.84,-0.272
-6.448e-03,1.8,-0.304
-6.432e-03,1.76,-0.336
-6.416e-03,1.66,-0.368
-6.400e-03,1.56,-0.392
-6.384e-03,1.42,-0.416
-6.368e-03,1.32,-0.432
-6.352e-03,1.16,-0.44
-6.336e-03,0.96,-0.456
-6.320e-03,0.78,-0.456
-6.304e-03,0.6,-0.456
-6.288e-03,0.4,-0.456
-6.272e-03,0.2,-0.44
-6.256e-03,-0.02,-0.432
-6.240e-03,-0.2,-0.408
-6.224e-03,-0.4,-0.384
-6.208e-03,-0.6,-0.36
-6.192e-03,-0.74,-0.328
-6.176e-03,-0.88,-0.296
-6.160e-03,-1.02,-0.264
-6.144e-03,-1.14,-0.232
-6.128e-03,-1.24,-0.192
-6.112e-03,-1.3,-0.16
-6.096e-03,-1.36,-0.12
-6.080e-03,-1.42,-0.096
-6.064e-03,-1.44,-0.056
-6.048e-03,-1.44,-0.032
-6.032e-03,-1.48,0
-6.016e-03,-1.5,0.032
-6.000e-03,-1.48,0.056
-5.984e-03,-1.48,0.088
-5.968e-03,-1.5,0.112
-5.952e-03,-1.48,0.144
-5.936e-03,-1.46,0.168
-5.920e-03,-1.46,0.192
-5.904e-03,-1.46,0.216
-5.888e-03,-1.44,0.248
-5.872e-03,-1.4,0.272
-5.856e-03,-1.38,0.288
-5.840e-03,-1.36,0.32
-5.824e-03,-1.3,0.336
-5.808e-03,-1.24,0.36
-5.792e-03,-1.18,0.376
-5.776e-03,-1.1,0.392
-5.760e-03,-0.98,0.408
-5.744e-03,-0.88,0.424
-5.728e-03,-0.76,0.432
-5.712e-03,-0.58,0.432
-5.696e-03,-0.42,0.44
-5.680e-03,-0.28,0.432
-5.664e-03,-0.08,0.424
-5.648e-03,0.12,0.416
-5.632e-03,0.28,0.4
-5.616e-03,0.48,0.376
-5.600e-03,0.68,0.352
-5.584e-03,0.88,0.32
-5.568e-03,1.02,0.288
-5.552e-03,1.2,0.248
-5.536e-03,1.38,0.208
-5.520e-03,1.5,0.168
-5.504e-03,1.6,0.128
-5.488e-03,1.72,0.08
-5.472e-03,1.8,0.04
-5.456e-03,1.82,-0.008
-5.440e-03,1.9,-0.048
-5.424e-03,1.92,-0.088
-5.408e-03,1.94,-0.144
-5.392e-03,1.92,-0.176
-5.376e-03,1.9,-0.216
-5.360e-03,1.92,-0.256
-5.344e-03,1.84,-0.288
-5.328e-03,1.76,-0.32
-5.312e-03,1.7,-0.352
-5.296e-03,1.62,-0.384
-5.280e-03,1.52,-0.4
-5.264e-03,1.36,-0.424
-5.248e-03,1.22,-0.448
-5.232e-03,1.06,-0.448
-5.216e-03,0.9,-0.456
-5.200e-03,0.68,-0.456
-5.184e-03,0.48,-0.456
-5.168e-03,0.3,-0.456
-5.152e-03,0.1,-0.44
-5.136e-03,-0.12,-0.416
-5.120e-03,-0.32,-0.4
-5.104e-03,-0.48,-0.376
-5.088e-03,-0.66,-0.352
-5.072e-03,-0.84,-0.312
-5.056e-03,-0.98,-0.28
-5.040e-03,-1.08,-0.248
-5.024e-03,-1.18,-0.208
-5.008e-03,-1.28,-0.176
-4.992e-03,-1.34,-0.144
-4.976e-03,-1.38,-0.104
-4.960e-03,-1.42,-0.072
-4.944e-03,-1.46,-0.04
-4.928e-03,-1.46,-0.008
-4.912e-03,-1.48,0.016
-4.896e-03,-1.48,0.04
-4.880e-03,-1.5,0.072
-4.864e-03,-1.48,0.104
-4.848e-03,-1.48,0.128
-4.832e-03,-1.48,0.16
-4.816e-03,-1.46,0.184
-4.800e-03,-1.44,0.208
-4.784e-03,-1.46,0.24
-4.768e-03,-1.44,0.256
-4.752e-03,-1.4,0.28
-4.736e-03,-1.36,0.304
-4.720e-03,-1.32,0.328
-4.704e-03,-1.28,0.352
-4.688e-03,-1.2,0.368
-4.672e-03,-1.12,0.384
-4.656e-03,-1.06,0.4
-4.640e-03,-0.92,0.416
-4.624e-03,-0.8,0.432
-4.608e-03,-0.68,0.432
-4.592e-03,-0.52,0.44
-4.576e-03,-0.32,0.44
-4.560e-03,-0.16,0.432
-4.544e-03,0,0.424
-4.528e-03,0.2,0.408
-4.512e-03,0.42,0.384
-4.496e-03,0.58,0.36
-4.480e-03,0.78,0.336
-4.464e-03,0.98,0.304
-4.448e-03,1.14,0.272
-4.432e-03,1.28,0.232
-4.416e-03,1.44,0.192
-4.400e-03,1.58,0.144
-4.384e-03,1.66,0.104
-4.368e-03,1.74,0.064
-4.352e-03,1.82,0.008
-4.336e-03,1.9,-0.032
-4.320e-03,1.9,-0.072
-4.304e-03,1.92,-0.112
-4.288e-03,1.94,-0.16
-4.272e-03,1.92,-0.2
-4.256e-03,1.88,-0.24
-4.240e-03,1.84,-0.28
-4.224e-03,1.8,-0.312
-4.208e-03,1.74,-0.336
-4.192e-03,1.64,-0.368
-4.176e-03,1.54,-0.392
-4.160e-03,1.42,-0.416
-4.144e-03,1.3,-0.432
-4.128e-03,1.1,-0.448
-4.112e-03,0.96,-0.456
-4.096e-03,0.8,-0.456
-4.080e-03,0.6,-0.456
-4.064e-03,0.36,-0.448
-4.048e-03,0.18,-0.44
-4.032e-03,-0.02,-0.424
-4.016e-03,-0.2,-0.408
-4.000e-03,-0.44,-0.384
-3.984e-03,-0.6,-0.36
-3.968e-03,-0.76,-0.336
-3.952e-03,-0.9,-0.296
-3.936e-03,-1.06,-0.264
-3.920e-03,-1.14,-0.224
-3.904e-03,-1.24,-0.192
-3.888e-03,-1.3,-0.16
-3.872e-03,-1.38,-0.12
-3.856e-03,-1.4,-0.088
-3.840e-03,-1.42,-0.056
-3.824e-03,-1.46,-0.024
-3.808e-03,-1.48,0
-3.792e-03,-1.48,0.032
-3.776e-03,-1.48,0.064
-3.760e-03,-1.52,0.096
-3.744e-03,-1.5,0.12
-3.728e-03,-1.48,0.144
-3.712e-03,-1.46,0.176
-3.696e-03,-1.46,0.2
-3.680e-03,-1.48,0.224
-3.664e-03,-1.42,0.248
-3.648e-03,-1.4,0.272
-3.632e-03,-1.4,0.296
-3.616e-03,-1.34,0.32
-3.600e-03,-1.28,0.336
-3.584e-03,-1.24,0.36
-3.568e-03,-1.16,0.376
-3.552e-03,-1.06,0.4
-3.536e-03,-0.98,0.408
-3.520e-03,-0.88,0.424
-3.504e-03,-0.72,0.432
-3.488e-03,-0.54,0.432
-3.472e-03,-0.44,0.432
-3.456e-03,-0.26,0.432
-3.440e-03,-0.04,0.432
-3.424e-03,0.14,0.408
-3.408e-03,0.3,0.392
-3.392e-03,0.52,0.376
-3.376e-03,0.72,0.344
-3.360e-03,0.88,0.312
-3.344e-03,1.06,0.28
-3.328e-03,1.24,0.248
-3.312e-03,1.38,0.208
-3.296e-03,1.5,0.168
-3.280e-03,1.62,0.12
-3.264e-03,1.74,0.072
-3.248e-03,1.78,0.032
-3.232e-03,1.84,-0.008
-3.216e-03,1.9,-0.056
-3.200e-03,1.94,-0.096
-3.184e-03,1.92,-0.144
-3.168e-03,1.92,-0.192
-3.152e-03,1.92,-0.224
-3.136e-03,1.9,-0.256
-3.120e-03,1.82,-0.296
-3.104e-03,1.76,-0.328
-3.088e-03,1.7,-0.36
-3.072e-03,1.6,-0.384
-3.056e-03,1.46,-0.408
-3.040e-03,1.34,-0.424
-3.024e-03,1.22,-0.44
-3.008e-03,1.02,-0.448
-2.992e-03,0.82,-0.456
-2.976e-03,0.64,-0.456
-2.960e-03,0.48,-0.456
-2.944e-03,0.28,-0.448
-2.928e-03,0.04,-0.44
-2.912e-03,-0.14,-0.424
-2.896e-03,-0.32,-0.392
-2.880e-03,-0.52,-0.368
-2.864e-03,-0.7,-0.344
-2.848e-03,-0.86,-0.32
-2.832e-03,-0.98,-0.28
-2.816e-03,-1.1,-0.24
-2.800e-03,-1.2,-0.208
-2.784e-03,-1.28,-0.168
-2.768e-03,-1.34,-0.136
-2.752e-03,-1.4,-0.096
-2.736e-03,-1.44,-0.072
-2.720e-03,-1.46,-0.032
-2.704e-03,-1.48,-0.008
-2.688e-03,-1.48,0.016
-2.672e-03,-1.5,0.048
-2.656e-03,-1.48,0.08
-2.640e-03,-1.48,0.112
-2.624e-03,-1.48,0.144
-2.608e-03,-1.48,0.16
-2.592e-03,-1.46,0.184
-2.576e-03,-1.44,0.208
-2.560e-03,-1.44,0.24
-2.544e-03,-1.42,0.256
-2.528e-03,-1.38,0.288
-2.512e-03,-1.36,0.304
-2.496e-03,-1.34,0.328
-2.480e-03,-1.24,0.352
-2.464e-03,-1.18,0.368
-2.448e-03,-1.14,0.392
-2.432e-03,-1.02,0.4
-2.416e-03,-0.9,0.416
-2.400e-03,-0.78,0.424
-2.384e-03,-0.66,0.432
-2.368e-03,-0.48,0.432
-2.352e-03,-0.3,0.432
-2.336e-03,-0.16,0.432
-2.320e-03,0.02,0.424
-2.304e-03,0.24,0.4
-2.288e-03,0.42,0.384
-2.272e-03,0.6,0.36
-2.256e-03,0.82,0.328
-2.240e-03,1,0.296
-2.224e-03,1.14,0.264
-2.208e-03,1.32,0.216
-2.192e-03,1.46,0.184
-2.176e-03,1.58,0.136
-2.160e-03,1.66,0.096
-2.144e-03,1.76,0.048
-2.128e-03,1.84,0.008
-2.112e-03,1.86,-0.032
-2.096e-03,1.9,-0.08
-2.080e-03,1.94,-0.12
-2.064e-03,1.94,-0.16
-2.048e-03,1.9,-0.2
-2.032e-03,1.88,-0.24
