run2/TEK00021.CSV

Model,TBS2102B
Firmware Version,v1.31.14

Point Format,Y,
Horizontal Units,S,
Horizontal Scale,0.002,
Sample Interval,1.6e-05,
Filter Frequency,2e+08,
Record Length,2000,
Gating,0.0% to 100.0%,0.0% to 100.0%
Probe Attenuation,1,1
Vertical Units,V,V
Vertical Offset,0,0
Vertical Scale,1,0.2
Label,,
TIME,CH1,CH2
-1.600e-02,1.92,-0.8
-1.598e-02,1.76,-0.84
-1.597e-02,1.52,-0.864
-1.595e-02,1.2,-0.896
-1.594e-02,0.88,-0.904
-1.592e-02,0.52,-0.912
-1.590e-02,0.2,-0.904
-1.589e-02,-0.16,-0.88
-1.587e-02,-0.52,-0.856
-1.586e-02,-0.8,-0.824
-1.584e-02,-1.08,-0.776
-1.582e-02,-1.24,-0.728
-1.581e-02,-1.4,-0.68
-1.579e-02,-1.4,-0.624
-1.578e-02,-1.36,-0.576
-1.576e-02,-1.32,-0.528
-1.574e-02,-1.2,-0.488
-1.573e-02,-1,-0.448
-1.571e-02,-0.8,-0.424
-1.570e-02,-0.6,-0.4
-1.568e-02,-0.44,-0.384
-1.566e-02,-0.24,-0.376
-1.565e-02,0,-0.36
-1.563e-02,0.2,-0.36
-1.562e-02,0.4,-0.36
-1.560e-02,0.56,-0.36
-1.558e-02,0.76,-0.36
-1.557e-02,0.92,-0.368
-1.555e-02,1.04,-0.368
-1.554e-02,1.24,-0.376
-1.552e-02,1.4,-0.384
-1.550e-02,1.56,-0.392
-1.549e-02,1.68,-0.4
-1.547e-02,1.76,-0.408
-1.546e-02,1.92,-0.416
-1.544e-02,2.08,-0.424
-1.542e-02,2.12,-0.432
-1.541e-02,2.24,-0.44
-1.539e-02,2.32,-0.448
-1.538e-02,2.32,-0.448
-1.536e-02,2.4,-0.456
-1.534e-02,2.4,-0.464
-1.533e-02,2.4,-0.464
-1.531e-02,2.32,-0.464
-1.530e-02,2.32,-0.464
-1.528e-02,2.24,-0.464
-1.526e-02,2.16,-0.456
-1.525e-02,2,-0.448
-1.523e-02,1.88,-0.44
-1.522e-02,1.76,-0.432
-1.520e-02,1.6,-0.408
-1.518e-02,1.44,-0.392
-1.517e-02,1.2,-0.368
-1.515e-02,1.04,-0.344
-1.514e-02,0.84,-0.328
-1.512e-02,0.64,-0.296
-1.510e-02,0.52,-0.264
-1.509e-02,0.32,-0.24
-1.507e-02,0.2,-0.208
-1.506e-02,0,-0.184
-1.504e-02,-0.08,-0.16
-1.502e-02,-0.16,-0.136
-1.501e-02,-0.28,-0.128
-1.499e-02,-0.4,-0.096
-1.498e-02,-0.44,-0.088
-1.496e-02,-0.48,-0.072
-1.494e-02,-0.52,-0.064
-1.493e-02,-0.6,-0.056
-1.491e-02,-0.64,-0.056
-1.490e-02,-0.64,-0.056
-1.488e-02,-0.68,-0.056
-1.486e-02,-0.76,-0.064
-1.485e-02,-0.76,-0.072
-1.483e-02,-0.76,-0.072
-1.482e-02,-0.76,-0.08
-1.480e-02,-0.8,-0.104
-1.478e-02,-0.84,-0.104
-1.477e-02,-0.84,-0.112
-1.475e-02,-0.92,-0.12
-1.474e-02,-0.92,-0.12
-1.472e-02,-0.96,-0.128
-1.470e-02,-0.96,-0.128
-1.469e-02,-1.04,-0.136
-1.467e-02,-1.08,-0.136
-1.466e-02,-1.08,-0.128
-1.464e-02,-1.16,-0.12
-1.462e-02,-1.2,-0.112
-1.461e-02,-1.2,-0.096
-1.459e-02,-1.2,-0.08
-1.458e-02,-1.28,-0.064
-1.456e-02,-1.28,-0.04
-1.454e-02,-1.32,-0.016
-1.453e-02,-1.32,0.008
-1.451e-02,-1.32,0.04
-1.450e-02,-1.36,0.072
-1.448e-02,-1.36,0.112
-1.446e-02,-1.36,0.152
-1.445e-02,-1.36,0.184
-1.443e-02,-1.32,0.224
-1.442e-02,-1.32,0.264
-1.440e-02,-1.28,0.304
-1.438e-02,-1.28,0.36
-1.437e-02,-1.2,0.392
-1.435e-02,-1.12,0.432
-1.434e-02,-1.04,0.472
-1.432e-02,-0.92,0.504
-1.430e-02,-0.8,0.536
-1.429e-02,-0.68,0.568
-1.427e-02,-0.52,0.592
-1.426e-02,-0.28,0.608
-1.424e-02,-0.08,0.616
-1.422e-02,0.16,0.624
-1.421e-02,0.4,0.616
-1.419e-02,0.72,0.6
-1.418e-02,0.92,0.584
-1.416e-02,1.2,0.552
-1.414e-02,1.44,0.52
-1.413e-02,1.68,0.472
-1.411e-02,1.88,0.424
-1.410e-02,2.04,0.368
-1.408e-02,2.16,0.312
-1.406e-02,2.28,0.256
-1.405e-02,2.36,0.192
-1.403e-02,2.4,0.136
-1.402e-02,2.44,0.08
-1.400e-02,2.44,0.008
-1.398e-02,2.44,-0.048
-1.397e-02,2.48,-0.112
-1.395e-02,2.48,-0.176
-1.394e-02,2.4,-0.232
-1.392e-02,2.44,-0.296
-1.390e-02,2.44,-0.352
-1.389e-02,2.44,-0.416
-1.387e-02,2.4,-0.48
-1.386e-02,2.36,-0.528
-1.384e-02,2.32,-0.592
-1.382e-02,2.32,-0.648
-1.381e-02,2.16,-0.704
-1.379e-02,2.08,-0.752
-1.378e-02,1.92,-0.8
-1.376e-02,1.76,-0.84
-1.374e-02,1.44,-0.872
-1.373e-02,1.16,-0.896
-1.371e-02,0.84,-0.904
-1.370e-02,0.52,-0.912
-1.368e-02,0.16,-0.896
-1.366e-02,-0.24,-0.88
-1.365e-02,-0.52,-0.856
-1.363e-02,-0.84,-0.816
-1.362e-02,-1.08,-0.768
-1.360e-02,-1.28,-0.72
-1.358e-02,-1.36,-0.664
-1.357e-02,-1.4,-0.616
-1.355e-02,-1.4,-0.568
-1.354e-02,-1.32,-0.52
-1.352e-02,-1.16,-0.48
-1.350e-02,-1,-0.448
-1.349e-02,-0.84,-0.424
-1.347e-02,-0.6,-0.4
-1.346e-02,-0.4,-0.384
-1.344e-02,-0.16,-0.376
-1.342e-02,0.04,-0.36
-1.341e-02,0.16,-0.36
-1.339e-02,0.36,-0.36
-1.338e-02,0.6,-0.36
-1.336e-02,0.76,-0.368
-1.334e-02,0.92,-0.368
-1.333e-02,1.08,-0.368
-1.331e-02,1.24,-0.376
-1.330e-02,1.44,-0.384
-1.328e-02,1.52,-0.392
-1.326e-02,1.64,-0.4
-1.325e-02,1.8,-0.408
-1.323e-02,1.92,-0.416
-1.322e-02,2,-0.416
-1.320e-02,2.16,-0.432
-1.318e-02,2.2,-0.44
-1.317e-02,2.28,-0.44
-1.315e-02,2.32,-0.448
-1.314e-02,2.4,-0.456
-1.312e-02,2.4,-0.464
-1.310e-02,2.36,-0.464
-1.309e-02,2.36,-0.464
-1.307e-02,2.36,-0.464
-1.306e-02,2.24,-0.464
-1.304e-02,2.12,-0.456
-1.302e-02,2,-0.448
-1.301e-02,1.88,-0.44
-1.299e-02,1.76,-0.424
-1.298e-02,1.56,-0.408
-1.296e-02,1.4,-0.392
-1.294e-02,1.2,-0.368
-1.293e-02,1.08,-0.344
-1.291e-02,0.84,-0.32
-1.290e-02,0.64,-0.304
-1.288e-02,0.48,-0.264
-1.286e-02,0.36,-0.24
-1.285e-02,0.16,-0.208
-1.283e-02,0,-0.192
-1.282e-02,-0.08,-0.16
-1.280e-02,-0.2,-0.136
-1.278e-02,-0.32,-0.12
-1.277e-02,-0.4,-0.104
-1.275e-02,-0.44,-0.088
-1.274e-02,-0.52,-0.08
-1.272e-02,-0.56,-0.064
-1.270e-02,-0.64,-0.064
-1.269e-02,-0.64,-0.064
-1.267e-02,-0.68,-0.056
-1.266e-02,-0.72,-0.056
-1.264e-02,-0.76,-0.064
-1.262e-02,-0.76,-0.072
-1.261e-02,-0.8,-0.08
-1.259e-02,-0.8,-0.088
-1.258e-02,-0.84,-0.096
-1.256e-02,-0.84,-0.104
-1.254e-02,-0.88,-0.12
-1.253e-02,-0.92,-0.12
-1.251e-02,-0.96,-0.128
-1.250e-02,-0.96,-0.128
-1.248e-02,-1.04,-0.136
-1.246e-02,-1.04,-0.136
-1.245e-02,-1.08,-0.136
-1.243e-02,-1.08,-0.128
-1.242e-02,-1.16,-0.12
-1.240e-02,-1.2,-0.112
-1.238e-02,-1.2,-0.096
-1.237e-02,-1.24,-0.08
-1.235e-02,-1.28,-0.056
-1.234e-02,-1.32,-0.032
-1.232e-02,-1.28,-0.008
-1.230e-02,-1.36,0.016
-1.229e-02,-1.32,0.048
-1.227e-02,-1.36,0.08
-1.226e-02,-1.36,0.12
-1.224e-02,-1.36,0.152
-1.222e-02,-1.36,0.192
-1.221e-02,-1.32,0.232
-1.219e-02,-1.28,0.272
-1.218e-02,-1.28,0.312
-1.216e-02,-1.24,0.352
-1.214e-02,-1.16,0.392
-1.213e-02,-1.12,0.432
-1.211e-02,-1.04,0.472
-1.210e-02,-0.96,0.512
-1.208e-02,-0.76,0.544
-1.206e-02,-0.64,0.568
-1.205e-02,-0.48,0.592
-1.203e-02,-0.24,0.608
-1.202e-02,-0.08,0.616
-1.200e-02,0.2,0.624
-1.198e-02,0.48,0.608
-1.197e-02,0.72,0.6
-1.195e-02,0.96,0.576
-1.194e-02,1.2,0.544
-1.192e-02,1.48,0.512
-1.190e-02,1.68,0.472
-1.189e-02,1.92,0.408
-1.187e-02,2.04,0.36
-1.186e-02,2.2,0.304
-1.184e-02,2.28,0.248
-1.182e-02,2.36,0.184
-1.181e-02,2.4,0.128
-1.179e-02,2.44,0.064
-1.178e-02,2.44,0
-1.176e-02,2.48,-0.056
-1.174e-02,2.44,-0.12
-1.173e-02,2.44,-0.176
-1.171e-02,2.44,-0.24
-1.170e-02,2.4,-0.304
-1.168e-02,2.4,-0.36
-1.166e-02,2.4,-0.424
-1.165e-02,2.36,-0.48
-1.163e-02,2.4,-0.536
-1.162e-02,2.32,-0.6
-1.160e-02,2.28,-0.656
-1.158e-02,2.16,-0.712
-1.157e-02,2.04,-0.768
-1.155e-02,1.88,-0.8
-1.154e-02,1.68,-0.848
-1.152e-02,1.4,-0.872
-1.150e-02,1.12,-0.896
-1.149e-02,0.84,-0.904
-1.147e-02,0.44,-0.904
-1.146e-02,0.08,-0.896
-1.144e-02,-0.24,-0.872
-1.142e-02,-0.6,-0.848
-1.141e-02,-0.88,-0.808
-1.139e-02,-1.12,-0.76
-1.138e-02,-1.28,-0.712
-1.136e-02,-1.36,-0.664
-1.134e-02,-1.4,-0.608
-1.133e-02,-1.36,-0.56
-1.131e-02,-1.28,-0.52
-1.130e-02,-1.16,-0.48
-1.128e-02,-0.96,-0.448
-1.126e-02,-0.8,-0.416
-1.125e-02,-0.6,-0.392
-1.123e-02,-0.32,-0.376
-1.122e-02,-0.16,-0.368
-1.120e-02,0,-0.36
-1.118e-02,0.2,-0.36
-1.117e-02,0.44,-0.36
-1.115e-02,0.64,-0.36
-1.114e-02,0.76,-0.368
-1.112e-02,0.96,-0.368
-1.110e-02,1.12,-0.368
-1.109e-02,1.28,-0.376
-1.107e-02,1.4,-0.384
-1.106e-02,1.56,-0.392
-1.104e-02,1.72,-0.4
-1.102e-02,1.84,-0.408
-1.101e-02,1.96,-0.416
-1.099e-02,2.04,-0.424
-1.098e-02,2.16,-0.432
-1.096e-02,2.24,-0.44
-1.094e-02,2.28,-0.448
-1.093e-02,2.36,-0.448
-1.091e-02,2.4,-0.456
-1.090e-02,2.44,-0.464
-1.088e-02,2.36,-0.464
-1.086e-02,2.36,-0.464
-1.085e-02,2.36,-0.464
-1.083e-02,2.2,-0.464
-1.082e-02,2.08,-0.456
-1.080e-02,2,-0.448
-1.078e-02,1.88,-0.432
-1.077e-02,1.72,-0.424
-1.075e-02,1.52,-0.408
-1.074e-02,1.36,-0.384
-1.072e-02,1.24,-0.368
-1.070e-02,1,-0.344
-1.069e-02,0.8,-0.32
-1.067e-02,0.64,-0.288
-1.066e-02,0.52,-0.272
-1.064e-02,0.32,-0.232
-1.062e-02,0.12,-0.208
-1.061e-02,0,-0.192
-1.059e-02,-0.12,-0.16
-1.058e-02,-0.2,-0.144
-1.056e-02,-0.32,-0.112
-1.054e-02,-0.4,-0.096
-1.053e-02,-0.44,-0.088
-1.051e-02,-0.52,-0.072
-1.050e-02,-0.56,-0.064
-1.048e-02,-0.64,-0.064
-1.046e-02,-0.64,-0.056
-1.045e-02,-0.68,-0.056
-1.043e-02,-0.72,-0.056
-1.042e-02,-0.72,-0.064
-1.040e-02,-0.72,-0.072
-1.038e-02,-0.8,-0.08
-1.037e-02,-0.84,-0.088
-1.035e-02,-0.8,-0.096
-1.034e-02,-0.84,-0.104
-1.032e-02,-0.88,-0.12
-1.030e-02,-0.92,-0.128
-1.029e-02,-0.92,-0.12
-1.027e-02,-0.96,-0.128
-1.026e-02,-1.04,-0.128
-1.024e-02,-1.04,-0.136
-1.022e-02,-1.08,-0.128
-1.021e-02,-1.16,-0.128
-1.019e-02,-1.16,-0.12
-1.018e-02,-1.2,-0.104
-1.016e-02,-1.2,-0.088
-1.014e-02,-1.24,-0.072
-1.013e-02,-1.28,-0.056
-1.011e-02,-1.28,-0.032
-1.010e-02,-1.32,-0.008
-1.008e-02,-1.32,0.016
-1.006e-02,-1.36,0.056
-1.005e-02,-1.36,0.08
-1.003e-02,-1.36,0.12
-1.002e-02,-1.36,0.152
-1.000e-02,-1.32,0.2
-9.984e-03,-1.32,0.232
-9.968e-03,-1.32,0.28
-9.952e-03,-1.28,0.32
-9.936e-03,-1.24,0.36
-9.920e-03,-1.2,0.4
-9.904e-03,-1.16,0.44
-9.888e-03,-1.04,0.48
-9.872e-03,-0.92,0.512
-9.856e-03,-0.8,0.544
-9.840e-03,-0.64,0.568
-9.824e-03,-0.4,0.6
-9.808e-03,-0.28,0.608
-9.792e-03,-0.04,0.624
-9.776e-03,0.2,0.616
-9.760e-03,0.48,0.608
-9.744e-03,0.72,0.6
-9.728e-03,1,0.576
-9.712e-03,1.32,0.544
-9.696e-03,1.48,0.504
-9.680e-03,1.68,0.456
-9.664e-03,1.92,0.408
-9.648e-03,2.04,0.36
-9.632e-03,2.16,0.296
-9.616e-03,2.28,0.24
-9.600e-03,2.36,0.184
-9.584e-03,2.4,0.128
-9.568e-03,2.4,0.056
-9.552e-03,2.44,0
-9.536e-03,2.48,-0.072
-9.520e-03,2.44,-0.128
-9.504e-03,2.44,-0.184
-9.488e-03,2.44,-0.248
-9.472e-03,2.44,-0.304
-9.456e-03,2.44,-0.368
-9.440e-03,2.4,-0.424
-9.424e-03,2.4,-0.488
-9.408e-03,2.4,-0.552
-9.392e-03,2.32,-0.608
-9.376e-03,2.24,-0.664
-9.360e-03,2.16,-0.712
-9.344e-03,2.04,-0.768
-9.328e-03,1.84,-0.816
-9.312e-03,1.64,-0.848
-9.296e-03,1.4,-0.88
-9.280e-03,1.12,-0.896
-9.264e-03,0.8,-0.912
-9.248e-03,0.4,-0.912
-9.232e-03,0.04,-0.896
-9.216e-03,-0.32,-0.872
-9.200e-03,-0.6,-0.84
-9.184e-03,-0.92,-0.8
-9.168e-03,-1.16,-0.76
-9.152e-03,-1.28,-0.704
-9.136e-03,-1.36,-0.656
-9.120e-03,-1.4,-0.608
-9.104e-03,-1.36,-0.56
-9.088e-03,-1.24,-0.512
-9.072e-03,-1.12,-0.472
-9.056e-03,-1,-0.44
-9.040e-03,-0.8,-0.416
-9.024e-03,-0.52,-0.392
-9.008e-03,-0.36,-0.384
-8.992e-03,-0.16,-0.368
-8.976e-03,0.04,-0.36
-8.960e-03,0.28,-0.36
-8.944e-03,0.44,-0.36
-8.928e-03,0.6,-0.36
-8.912e-03,0.8,-0.368
-8.896e-03,0.96,-0.368
-8.880e-03,1.12,-0.376
-8.864e-03,1.28,-0.376
-8.848e-03,1.44,-0.392
-8.832e-03,1.6,-0.392
-8.816e-03,1.72,-0.4
-8.800e-03,1.88,-0.408
-8.784e-03,1.92,-0.416
-8.768e-03,2.08,-0.424
-8.752e-03,2.16,-0.432
-8.736e-03,2.24,-0.44
-8.720e-03,2.32,-0.448
-8.704e-03,2.36,-0.456
-8.688e-03,2.4,-0.464
-8.672e-03,2.36,-0.464
-8.656e-03,2.36,-0.464
-8.640e-03,2.36,-0.464
-8.624e-03,2.28,-0.464
-8.608e-03,2.2,-0.464
-8.592e-03,2.08,-0.456
-8.576e-03,2,-0.448
-8.560e-03,1.84,-0.44
-8.544e-03,1.64,-0.424
-8.528e-03,1.48,-0.4
-8.512e-03,1.36,-0.384
-8.496e-03,1.16,-0.36
-8.480e-03,0.96,-0.336
-8.464e-03,0.8,-0.32
-8.448e-03,0.6,-0.28
-8.432e-03,0.44,-0.256
-8.416e-03,0.28,-0.232
-8.400e-03,0.16,-0.2
-8.384e-03,0,-0.176
-8.368e-03,-0.12,-0.152
-8.352e-03,-0.24,-0.128
-8.336e-03,-0.32,-0.112
-8.320e-03,-0.4,-0.096
-8.304e-03,-0.48,-0.08
-8.288e-03,-0.52,-0.072
-8.272e-03,-0.56,-0.056
-8.256e-03,-0.6,-0.056
-8.240e-03,-0.64,-0.064
-8.224e-03,-0.72,-0.056
-8.208e-03,-0.72,-0.056
-8.192e-03,-0.72,-0.064
-8.176e-03,-0.76,-0.072
-8.160e-03,-0.76,-0.072
-8.144e-03,-0.8,-0.088
-8.128e-03,-0.8,-0.104
-8.112e-03,-0.84,-0.104
-8.096e-03,-0.88,-0.112
-8.080e-03,-0.92,-0.12
-8.064e-03,-0.96,-0.128
-8.048e-03,-1,-0.128
-8.032e-03,-1,-0.136
-8.016e-03,-1.04,-0.136
-8.000e-03,-1.08,-0.128
-7.984e-03,-1.12,-0.128
-7.968e-03,-1.16,-0.12
-7.952e-03,-1.2,-0.104
-7.936e-03,-1.24,-0.088
-7.920e-03,-1.24,-0.072
-7.904e-03,-1.24,-0.056
-7.888e-03,-1.28,-0.032
-7.872e-03,-1.32,-0.008
-7.856e-03,-1.32,0.024
-7.840e-03,-1.32,0.048
-7.824e-03,-1.32,0.088
-7.808e-03,-1.36,0.12
-7.792e-03,-1.36,0.16
-7.776e-03,-1.32,0.2
-7.760e-03,-1.32,0.24
-7.744e-03,-1.32,0.28
-7.728e-03,-1.28,0.32
-7.712e-03,-1.2,0.36
-7.696e-03,-1.2,0.4
-7.680e-03,-1.12,0.448
-7.664e-03,-1,0.48
-7.648e-03,-0.92,0.512
-7.632e-03,-0.8,0.552
-7.616e-03,-0.64,0.576
-7.600e-03,-0.4,0.6
-7.584e-03,-0.24,0.608
-7.568e-03,-0.04,0.616
-7.552e-03,0.24,0.616
-7.536e-03,0.48,0.608
-7.520e-03,0.76,0.592
-7.504e-03,1.04,0.568
-7.488e-03,1.28,0.536
-7.472e-03,1.48,0.504
-7.456e-03,1.76,0.456
-7.440e-03,1.92,0.4
-7.424e-03,2.04,0.352
-7.408e-03,2.24,0.296
-7.392e-03,2.32,0.232
-7.376e-03,2.36,0.184
-7.360e-03,2.4,0.112
-7.344e-03,2.44,0.048
-7.328e-03,2.48,-0.008
-7.312e-03,2.48,-0.072
-7.296e-03,2.48,-0.128
-7.280e-03,2.44,-0.192
-7.264e-03,2.4,-0.256
-7.248e-03,2.44,-0.32
-7.232e-03,2.4,-0.376
-7.216e-03,2.4,-0.44
-7.200e-03,2.4,-0.488
-7.184e-03,2.32,-0.552
-7.168e-03,2.28,-0.616
-7.152e-03,2.24,-0.664
-7.136e-03,2.16,-0.72
-7.120e-03,2,-0.768
-7.104e-03,1.88,-0.816
-7.088e-03,1.68,-0.848
-7.072e-03,1.4,-0.88
-7.056e-03,1.08,-0.904
-7.040e-03,0.72,-0.912
-7.024e-03,0.36,-0.904
-7.008e-03,0.04,-0.888
-6.992e-03,-0.32,-0.872
-6.976e-03,-0.64,-0.84
-6.960e-03,-0.92,-0.8
-6.944e-03,-1.12,-0.752
-6.928e-03,-1.32,-0.704
-6.912e-03,-1.4,-0.648
-6.896e-03,-1.4,-0.6
-6.880e-03,-1.32,-0.56
-6.864e-03,-1.24,-0.512
-6.848e-03,-1.16,-0.48
-6.832e-03,-0.92,-0.44
-6.816e-03,-0.72,-0.416
-6.800e-03,-0.52,-0.392
-6.784e-03,-0.32,-0.376
-6.768e-03,-0.16,-0.376
-6.752e-03,0.12,-0.36
-6.736e-03,0.28,-0.36
-6.720e-03,0.44,-0.36
-6.704e-03,0.64,-0.36
-6.688e-03,0.84,-0.368
-6.672e-03,1,-0.368
-6.656e-03,1.16,-0.376
-6.640e-03,1.28,-0.384
-6.624e-03,1.48,-0.384
-6.608e-03,1.6,-0.4
-6.592e-03,1.72,-0.4
-6.576e-03,1.84,-0.408
-6.560e-03,2,-0.416
-6.544e-03,2.08,-0.432
-6.528e-03,2.16,-0.44
-6.512e-03,2.28,-0.44
-6.496e-03,2.32,-0.448
-6.480e-03,2.36,-0.464
-6.464e-03,2.36,-0.456
-6.448e-03,2.4,-0.464
-6.432e-03,2.4,-0.472
-6.416e-03,2.32,-0.464
-6.400e-03,2.28,-0.464
-6.384e-03,2.2,-0.464
-6.368e-03,2.08,-0.456
-6.352e-03,1.96,-0.448
-6.336e-03,1.84,-0.432
-6.320e-03,1.64,-0.416
-6.304e-03,1.48,-0.4
-6.288e-03,1.32,-0.384
-6.272e-03,1.12,-0.36
-6.256e-03,0.96,-0.336
-6.240e-03,0.8,-0.312
-6.224e-03,0.6,-0.28
-6.208e-03,0.4,-0.256
-6.192e-03,0.24,-0.224
-6.176e-03,0.12,-0.2
-6.160e-03,-0.04,-0.168
-6.144e-03,-0.16,-0.152
-6.128e-03,-0.24,-0.128
-6.112e-03,-0.32,-0.112
-6.096e-03,-0.4,-0.088
-6.080e-03,-0.52,-0.08
-6.064e-03,-0.52,-0.072
-6.048e-03,-0.56,-0.056
-6.032e-03,-0.6,-0.056
-6.016e-03,-0.64,-0.056
-6.000e-03,-0.68,-0.056
-5.984e-03,-0.68,-0.056
-5.968e-03,-0.72,-0.064
-5.952e-03,-0.76,-0.08
-5.936e-03,-0.76,-0.08
-5.920e-03,-0.8,-0.088
-5.904e-03,-0.84,-0.096
-5.888e-03,-0.84,-0.104
-5.872e-03,-0.88,-0.12
-5.856e-03,-0.92,-0.12
-5.840e-03,-0.96,-0.128
-5.824e-03,-0.96,-0.144
-5.808e-03,-1,-0.136
-5.792e-03,-1.04,-0.136
-5.776e-03,-1.12,-0.136
-5.760e-03,-1.12,-0.128
-5.744e-03,-1.16,-0.12
-5.728e-03,-1.2,-0.104
-5.712e-03,-1.24,-0.088
-5.696e-03,-1.28,-0.072
-5.680e-03,-1.28,-0.056
-5.664e-03,-1.32,-0.032
-5.648e-03,-1.32,0
-5.632e-03,-1.28,0.024
-5.616e-03,-1.36,0.056
-5.600e-03,-1.36,0.088
-5.584e-03,-1.32,0.128
-5.568e-03,-1.36,0.168
-5.552e-03,-1.36,0.2
-5.536e-03,-1.36,0.24
-5.520e-03,-1.32,0.288
-5.504e-03,-1.24,0.336
-5.488e-03,-1.24,0.368
-5.472e-03,-1.16,0.408
-5.456e-03,-1.12,0.448
-5.440e-03,-1,0.48
-5.424e-03,-0.92,0.52
-5.408e-03,-0.76,0.552
-5.392e-03,-0.6,0.576
-5.376e-03,-0.44,0.6
-5.360e-03,-0.2,0.616
-5.344e-03,0.04,0.624
-5.328e-03,0.24,0.616
-5.312e-03,0.48,0.608
-5.296e-03,0.8,0.592
-5.280e-03,1.04,0.568
-5.264e-03,1.32,0.536
-5.248e-03,1.56,0.496
-5.232e-03,1.76,0.448
-5.216e-03,1.92,0.4
-5.200e-03,2.08,0.344
-5.184e-03,2.2,0.288
-5.168e-03,2.32,0.232
-5.152e-03,2.36,0.168
-5.136e-03,2.44,0.104
-5.120e-03,2.44,0.04
-5.104e-03,2.44,-0.016
-5.088e-03,2.44,-0.072
-5.072e-03,2.48,-0.136
-5.056e-03,2.44,-0.2
-5.040e-03,2.44,-0.264
-5.024e-03,2.44,-0.32
-5.008e-03,2.44,-0.384
-4.992e-03,2.4,-0.44
-4.976e-03,2.36,-0.496
-4.960e-03,2.36,-0.56
-4.944e-03,2.32,-0.616
-4.928e-03,2.24,-0.68
-4.912e-03,2.12,-0.728
-4.896e-03,1.96,-0.776
-4.880e-03,1.84,-0.816
-4.864e-03,1.64,-0.848
-4.848e-03,1.36,-0.888
-4.832e-03,1,-0.904
-4.816e-03,0.68,-0.912
-4.800e-03,0.36,-0.904
-4.784e-03,0,-0.888
-4.768e-03,-0.36,-0.864
-4.752e-03,-0.68,-0.832
-4.736e-03,-0.96,-0.792
-4.720e-03,-1.16,-0.744
-4.704e-03,-1.32,-0.696
-4.688e-03,-1.4,-0.648
-4.672e-03,-1.4,-0.592
-4.656e-03,-1.36,-0.552
-4.640e-03,-1.24,-0.504
-4.624e-03,-1.12,-0.464
-4.608e-03,-0.88,-0.432
-4.592e-03,-0.68,-0.416
-4.576e-03,-0.52,-0.392
-4.560e-03,-0.32,-0.376
-4.544e-03,-0.12,-0.368
-4.528e-03,0.12,-0.36
-4.512e-03,0.28,-0.36
-4.496e-03,0.48,-0.36
-4.480e-03,0.68,-0.36
-4.464e-03,0.84,-0.368
-4.448e-03,1,-0.368
-4.432e-03,1.16,-0.376
-4.416e-03,1.32,-0.384
-4.400e-03,1.48,-0.392
-4.384e-03,1.6,-0.392
-4.368e-03,1.72,-0.408
-4.352e-03,1.88,-0.408
-4.336e-03,2,-0.416
-4.320e-03,2.08,-0.432
-4.304e-03,2.16,-0.44
-4.288e-03,2.24,-0.448
-4.272e-03,2.32,-0.448
-4.256e-03,2.36,-0.456
-4.240e-03,2.36,-0.464
-4.224e-03,2.44,-0.464
-4.208e-03,2.36,-0.464
-4.192e-03,2.32,-0.464
-4.176e-03,2.28,-0.464
-4.160e-03,2.2,-0.464
-4.144e-03,2.04,-0.456
-4.128e-03,1.92,-0.44
-4.112e-03,1.8,-0.432
-4.096e-03,1.64,-0.416
-4.080e-03,1.48,-0.4
-4.064e-03,1.24,-0.376
-4.048e-03,1.08,-0.352
-4.032e-03,0.92,-0.328
-4.016e-03,0.76,-0.304
-4.000e-03,0.52,-0.272
-3.984e-03,0.4,-0.248
-3.968e-03,0.28,-0.216
-3.952e-03,0.08,-0.192
-3.936e-03,-0.04,-0.168
-3.920e-03,-0.2,-0.144
-3.904e-03,-0.24,-0.12
-3.888e-03,-0.32,-0.104
-3.872e-03,-0.44,-0.088
-3.856e-03,-0.48,-0.072
-3.840e-03,-0.52,-0.064
-3.824e-03,-0.6,-0.056
-3.808e-03,-0.64,-0.048
-3.792e-03,-0.64,-0.048
-3.776e-03,-0.68,-0.056
-3.760e-03,-0.72,-0.056
-3.744e-03,-0.76,-0.072
-3.728e-03,-0.76,-0.072
-3.712e-03,-0.76,-0.08
-3.696e-03,-0.8,-0.088
-3.680e-03,-0.8,-0.096
-3.664e-03,-0.84,-0.112
-3.648e-03,-0.88,-0.12
-3.632e-03,-0.92,-0.128
-3.616e-03,-0.96,-0.128
-3.600e-03,-0.96,-0.136
-3.584e-03,-1,-0.136
-3.568e-03,-1.08,-0.136
-3.552e-03,-1.08,-0.136
-3.536e-03,-1.12,-0.128
-3.520e-03,-1.16,-0.12
-3.504e-03,-1.2,-0.104
-3.488e-03,-1.24,-0.088
-3.472e-03,-1.24,-0.072
-3.456e-03,-1.28,-0.048
-3.440e-03,-1.28,-0.032
-3.424e-03,-1.32,0
-3.408e-03,-1.32,0.024
-3.392e-03,-1.36,0.056
-3.376e-03,-1.36,0.088
-3.360e-03,-1.36,0.128
-3.344e-03,-1.36,0.168
-3.328e-03,-1.32,0.208
-3.312e-03,-1.32,0.248
-3.296e-03,-1.28,0.288
-3.280e-03,-1.28,0.328
-3.264e-03,-1.24,0.376
-3.248e-03,-1.16,0.408
-3.232e-03,-1.12,0.448
-3.216e-03,-1.04,0.488
-3.200e-03,-0.88,0.528
-3.184e-03,-0.72,0.552
-3.168e-03,-0.6,0.584
-3.152e-03,-0.4,0.6
-3.136e-03,-0.16,0.616
-3.120e-03,0,0.624
-3.104e-03,0.28,0.624
-3.088e-03,0.56,0.608
-3.072e-03,0.8,0.592
-3.056e-03,1.04,0.568
-3.040e-03,1.36,0.536
-3.024e-03,1.56,0.504
-3.008e-03,1.76,0.448
-2.992e-03,1.92,0.392
-2.976e-03,2.08,0.336
-2.960e-03,2.28,0.288
-2.944e-03,2.28,0.224
-2.928e-03,2.4,0.16
-2.912e-03,2.44,0.096
-2.896e-03,2.44,0.04
-2.880e-03,2.44,-0.016
-2.864e-03,2.44,-0.08
-2.848e-03,2.44,-0.152
-2.832e-03,2.44,-0.2
-2.816e-03,2.4,-0.264
-2.800e-03,2.44,-0.328
-2.784e-03,2.44,-0.384
-2.768e-03,2.4,-0.44
-2.752e-03,2.36,-0.504
-2.736e-03,2.36,-0.568
-2.720e-03,2.32,-0.624
-2.704e-03,2.24,-0.68
-2.688e-03,2.12,-0.736
-2.672e-03,1.96,-0.784
-2.656e-03,1.8,-0.824
-2.640e-03,1.6,-0.856
-2.624e-03,1.28,-0.888
-2.608e-03,0.96,-0.904
-2.592e-03,0.68,-0.912
-2.576e-03,0.32,-0.904
-2.560e-03,-0.08,-0.888
-2.544e-03,-0.4,-0.864
-2.528e-03,-0.68,-0.832
-2.512e-03,-0.96,-0.792
-2.496e-03,-1.2,-0.744
-2.480e-03,-1.36,-0.688
-2.464e-03,-1.36,-0.64
-2.448e-03,-1.4,-0.592
-2.432e-03,-1.36,-0.544
-2.416e-03,-1.24,-0.504
-2.400e-03,-1.04,-0.464
-2.384e-03,-0.88,-0.432
-2.368e-03,-0.68,-0.408
-2.352e-03,-0.48,-0.392
-2.336e-03,-0.28,-0.376
-2.320e-03,-0.08,-0.368
-2.304e-03,0.12,-0.368
-2.288e-03,0.28,-0.36
-2.272e-03,0.48,-0.36
-2.256e-03,0.72,-0.36
-2.240e-03,0.84,-0.36
-2.224e-03,1,-0.368
-2.208e-03,1.2,-0.376
-2.192e-03,1.36,-0.384
-2.176e-03,1.48,-0.392
-2.160e-03,1.6,-0.4
-2.144e-03,1.76,-0.4
-2.128e-03,1.88,-0.416
