run2/TEK00002.CSV

Model,TBS2102B
Firmware Version,v1.31.14

Point Format,Y,
Horizontal Units,S,
Horizontal Scale,0.002,
Sample Interval,1.6e-05,
Filter Frequency,2e+08,
Record Length,2000,
Gating,0.0% to 100.0%,0.0% to 100.0%
Probe Attenuation,1,1
Vertical Units,V,V
Vertical Offset,0,0
Vertical Scale,1,0.2
Label,,
TIME,CH1,CH2
-1.600e-02,-1.4,0.672
-1.598e-02,-1.4,0.712
-1.597e-02,-1.32,0.752
-1.595e-02,-1.16,0.776
-1.594e-02,-1.08,0.8
-1.592e-02,-0.88,0.816
-1.590e-02,-0.56,0.816
-1.589e-02,-0.32,0.808
-1.587e-02,0,0.792
-1.586e-02,0.36,0.76
-1.584e-02,0.76,0.72
-1.582e-02,1.08,0.664
-1.581e-02,1.4,0.6
-1.579e-02,1.68,0.536
-1.578e-02,1.92,0.456
-1.576e-02,2.12,0.368
-1.574e-02,2.28,0.272
-1.573e-02,2.36,0.184
-1.571e-02,2.4,0.104
-1.570e-02,2.48,0.016
-1.568e-02,2.48,-0.064
-1.566e-02,2.48,-0.152
-1.565e-02,2.48,-0.24
-1.563e-02,2.48,-0.312
-1.562e-02,2.44,-0.392
-1.560e-02,2.4,-0.464
-1.558e-02,2.4,-0.528
-1.557e-02,2.4,-0.592
-1.555e-02,2.4,-0.656
-1.554e-02,2.32,-0.72
-1.552e-02,2.24,-0.776
-1.550e-02,2.08,-0.824
-1.549e-02,1.92,-0.864
-1.547e-02,1.68,-0.904
-1.546e-02,1.4,-0.928
-1.544e-02,1.08,-0.936
-1.542e-02,0.76,-0.944
-1.541e-02,0.44,-0.928
-1.539e-02,0,-0.904
-1.538e-02,-0.36,-0.872
-1.536e-02,-0.64,-0.824
-1.534e-02,-0.92,-0.776
-1.533e-02,-1.16,-0.712
-1.531e-02,-1.32,-0.648
-1.530e-02,-1.4,-0.584
-1.528e-02,-1.4,-0.52
-1.526e-02,-1.4,-0.456
-1.525e-02,-1.28,-0.408
-1.523e-02,-1.16,-0.352
-1.522e-02,-0.96,-0.312
-1.520e-02,-0.84,-0.272
-1.518e-02,-0.68,-0.24
-1.517e-02,-0.52,-0.208
-1.515e-02,-0.36,-0.184
-1.514e-02,-0.24,-0.16
-1.512e-02,-0.12,-0.144
-1.510e-02,0,-0.12
-1.509e-02,0.08,-0.112
-1.507e-02,0.16,-0.096
-1.506e-02,0.24,-0.08
-1.504e-02,0.32,-0.072
-1.502e-02,0.36,-0.056
-1.501e-02,0.4,-0.04
-1.499e-02,0.44,-0.032
-1.498e-02,0.52,-0.016
-1.496e-02,0.52,0
-1.494e-02,0.56,0.008
-1.493e-02,0.56,0.024
-1.491e-02,0.6,0.032
-1.490e-02,0.6,0.048
-1.488e-02,0.56,0.056
-1.486e-02,0.6,0.072
-1.485e-02,0.56,0.088
-1.483e-02,0.52,0.104
-1.482e-02,0.52,0.112
-1.480e-02,0.52,0.128
-1.478e-02,0.48,0.136
-1.477e-02,0.4,0.144
-1.475e-02,0.36,0.152
-1.474e-02,0.32,0.16
-1.472e-02,0.28,0.168
-1.470e-02,0.16,0.176
-1.469e-02,0.12,0.184
-1.467e-02,0.04,0.192
-1.466e-02,-0.04,0.2
-1.464e-02,-0.08,0.2
-1.462e-02,-0.16,0.2
-1.461e-02,-0.28,0.216
-1.459e-02,-0.32,0.208
-1.458e-02,-0.36,0.216
-1.456e-02,-0.48,0.208
-1.454e-02,-0.56,0.216
-1.453e-02,-0.68,0.216
-1.451e-02,-0.72,0.208
-1.450e-02,-0.8,0.208
-1.448e-02,-0.88,0.216
-1.446e-02,-0.92,0.208
-1.445e-02,-1,0.208
-1.443e-02,-1.04,0.208
-1.442e-02,-1.12,0.2
-1.440e-02,-1.16,0.2
-1.438e-02,-1.2,0.2
-1.437e-02,-1.24,0.192
-1.435e-02,-1.32,0.192
-1.434e-02,-1.32,0.2
-1.432e-02,-1.36,0.192
-1.430e-02,-1.4,0.2
-1.429e-02,-1.4,0.192
-1.427e-02,-1.4,0.192
-1.426e-02,-1.44,0.192
-1.424e-02,-1.44,0.192
-1.422e-02,-1.44,0.2
-1.421e-02,-1.44,0.2
-1.419e-02,-1.44,0.208
-1.418e-02,-1.48,0.224
-1.416e-02,-1.4,0.232
-1.414e-02,-1.4,0.24
-1.413e-02,-1.4,0.248
-1.411e-02,-1.4,0.264
-1.410e-02,-1.32,0.272
-1.408e-02,-1.32,0.288
-1.406e-02,-1.28,0.304
-1.405e-02,-1.24,0.32
-1.403e-02,-1.12,0.336
-1.402e-02,-1.08,0.352
-1.400e-02,-1,0.368
-1.398e-02,-0.88,0.384
-1.397e-02,-0.76,0.392
-1.395e-02,-0.68,0.4
-1.394e-02,-0.52,0.408
-1.392e-02,-0.32,0.416
-1.390e-02,-0.24,0.416
-1.389e-02,-0.04,0.416
-1.387e-02,0.16,0.416
-1.386e-02,0.32,0.408
-1.384e-02,0.48,0.392
-1.382e-02,0.72,0.376
-1.381e-02,0.88,0.36
-1.379e-02,1.08,0.344
-1.378e-02,1.24,0.304
-1.376e-02,1.4,0.28
-1.374e-02,1.52,0.24
-1.373e-02,1.68,0.208
-1.371e-02,1.76,0.168
-1.370e-02,1.88,0.136
-1.368e-02,1.92,0.096
-1.366e-02,2,0.048
-1.365e-02,2.12,0.008
-1.363e-02,2.12,-0.024
-1.362e-02,2.08,-0.064
-1.360e-02,2.16,-0.112
-1.358e-02,2.12,-0.152
-1.357e-02,2.12,-0.192
-1.355e-02,2.08,-0.232
-1.354e-02,2.04,-0.272
-1.352e-02,2.04,-0.312
-1.350e-02,1.96,-0.344
-1.349e-02,1.88,-0.384
-1.347e-02,1.8,-0.416
-1.346e-02,1.76,-0.448
-1.344e-02,1.6,-0.472
-1.342e-02,1.44,-0.496
-1.341e-02,1.24,-0.52
-1.339e-02,1.12,-0.536
-1.338e-02,0.88,-0.544
-1.336e-02,0.64,-0.552
-1.334e-02,0.44,-0.552
-1.333e-02,0.24,-0.544
-1.331e-02,-0.04,-0.536
-1.330e-02,-0.28,-0.528
-1.328e-02,-0.52,-0.496
-1.326e-02,-0.68,-0.472
-1.325e-02,-0.88,-0.44
-1.323e-02,-1.04,-0.408
-1.322e-02,-1.16,-0.376
-1.320e-02,-1.28,-0.344
-1.318e-02,-1.36,-0.304
-1.317e-02,-1.48,-0.272
-1.315e-02,-1.44,-0.24
-1.314e-02,-1.48,-0.208
-1.312e-02,-1.52,-0.168
-1.310e-02,-1.48,-0.136
-1.309e-02,-1.44,-0.104
-1.307e-02,-1.44,-0.08
-1.306e-02,-1.4,-0.048
-1.304e-02,-1.4,-0.024
-1.302e-02,-1.36,0.008
-1.301e-02,-1.32,0.032
-1.299e-02,-1.36,0.056
-1.298e-02,-1.36,0.08
-1.296e-02,-1.32,0.112
-1.294e-02,-1.32,0.144
-1.293e-02,-1.32,0.176
-1.291e-02,-1.32,0.208
-1.290e-02,-1.36,0.24
-1.288e-02,-1.36,0.28
-1.286e-02,-1.4,0.312
-1.285e-02,-1.4,0.352
-1.283e-02,-1.4,0.392
-1.282e-02,-1.44,0.432
-1.280e-02,-1.44,0.472
-1.278e-02,-1.44,0.52
-1.277e-02,-1.4,0.552
-1.275e-02,-1.36,0.6
-1.274e-02,-1.28,0.632
-1.272e-02,-1.16,0.656
-1.270e-02,-1.12,0.688
-1.269e-02,-0.88,0.704
-1.267e-02,-0.64,0.72
-1.266e-02,-0.44,0.728
-1.264e-02,-0.16,0.728
-1.262e-02,0.12,0.712
-1.261e-02,0.44,0.688
-1.259e-02,0.76,0.656
-1.258e-02,1.04,0.616
-1.256e-02,1.36,0.568
-1.254e-02,1.64,0.512
-1.253e-02,1.8,0.456
-1.251e-02,2.04,0.376
-1.250e-02,2.2,0.304
-1.248e-02,2.28,0.232
-1.246e-02,2.36,0.16
-1.245e-02,2.48,0.088
-1.243e-02,2.48,0.016
-1.242e-02,2.44,-0.056
-1.240e-02,2.48,-0.12
-1.238e-02,2.48,-0.192
-1.237e-02,2.44,-0.256
-1.235e-02,2.44,-0.328
-1.234e-02,2.44,-0.384
-1.232e-02,2.44,-0.44
-1.230e-02,2.4,-0.504
-1.229e-02,2.4,-0.56
-1.227e-02,2.32,-0.616
-1.226e-02,2.24,-0.672
-1.224e-02,2.12,-0.72
-1.222e-02,2,-0.76
-1.221e-02,1.84,-0.808
-1.219e-02,1.64,-0.832
-1.218e-02,1.36,-0.856
-1.216e-02,1.08,-0.864
-1.214e-02,0.76,-0.872
-1.213e-02,0.44,-0.864
-1.211e-02,0.08,-0.84
-1.210e-02,-0.32,-0.816
-1.208e-02,-0.6,-0.768
-1.206e-02,-0.88,-0.728
-1.205e-02,-1.12,-0.68
-1.203e-02,-1.28,-0.624
-1.202e-02,-1.4,-0.568
-1.200e-02,-1.44,-0.504
-1.198e-02,-1.44,-0.448
-1.197e-02,-1.4,-0.4
-1.195e-02,-1.28,-0.352
-1.194e-02,-1.16,-0.312
-1.192e-02,-1.04,-0.28
-1.190e-02,-0.88,-0.24
-1.189e-02,-0.76,-0.224
-1.187e-02,-0.6,-0.192
-1.186e-02,-0.48,-0.176
-1.184e-02,-0.4,-0.16
-1.182e-02,-0.24,-0.136
-1.181e-02,-0.16,-0.12
-1.179e-02,-0.08,-0.112
-1.178e-02,0,-0.096
-1.176e-02,0.08,-0.088
-1.174e-02,0.12,-0.072
-1.173e-02,0.16,-0.064
-1.171e-02,0.2,-0.048
-1.170e-02,0.28,-0.032
-1.168e-02,0.32,-0.016
-1.166e-02,0.32,-0.008
-1.165e-02,0.36,0.008
-1.163e-02,0.36,0.032
-1.162e-02,0.44,0.04
-1.160e-02,0.36,0.056
-1.158e-02,0.4,0.072
-1.157e-02,0.4,0.096
-1.155e-02,0.4,0.104
-1.154e-02,0.36,0.128
-1.152e-02,0.36,0.144
-1.150e-02,0.32,0.152
-1.149e-02,0.24,0.176
-1.147e-02,0.2,0.192
-1.146e-02,0.16,0.216
-1.144e-02,0.08,0.224
-1.142e-02,-0.04,0.24
-1.141e-02,-0.08,0.256
-1.139e-02,-0.16,0.272
-1.138e-02,-0.24,0.288
-1.136e-02,-0.36,0.304
-1.134e-02,-0.4,0.32
-1.133e-02,-0.56,0.336
-1.131e-02,-0.68,0.352
-1.130e-02,-0.76,0.368
-1.128e-02,-0.88,0.376
-1.126e-02,-0.96,0.392
-1.125e-02,-1.08,0.408
-1.123e-02,-1.16,0.424
-1.122e-02,-1.24,0.432
-1.120e-02,-1.32,0.44
-1.118e-02,-1.4,0.456
-1.117e-02,-1.4,0.448
-1.115e-02,-1.44,0.456
-1.114e-02,-1.44,0.456
-1.112e-02,-1.4,0.456
-1.110e-02,-1.36,0.448
-1.109e-02,-1.36,0.44
-1.107e-02,-1.24,0.424
-1.106e-02,-1.16,0.408
-1.104e-02,-1.04,0.384
-1.102e-02,-0.92,0.368
-1.101e-02,-0.76,0.328
-1.099e-02,-0.6,0.296
-1.098e-02,-0.48,0.256
-1.096e-02,-0.32,0.216
-1.094e-02,-0.12,0.176
-1.093e-02,-0.04,0.144
-1.091e-02,0.04,0.088
-1.090e-02,0.16,0.04
-1.088e-02,0.28,0
-1.086e-02,0.32,-0.032
-1.085e-02,0.36,-0.072
-1.083e-02,0.4,-0.112
-1.082e-02,0.4,-0.144
-1.080e-02,0.36,-0.168
-1.078e-02,0.32,-0.184
-1.077e-02,0.32,-0.208
-1.075e-02,0.28,-0.208
-1.074e-02,0.16,-0.216
-1.072e-02,0.04,-0.216
-1.070e-02,0,-0.2
-1.069e-02,-0.08,-0.184
-1.067e-02,-0.2,-0.168
-1.066e-02,-0.28,-0.136
-1.064e-02,-0.36,-0.104
-1.062e-02,-0.44,-0.072
-1.061e-02,-0.52,-0.032
-1.059e-02,-0.56,0
-1.058e-02,-0.64,0.04
-1.056e-02,-0.68,0.088
-1.054e-02,-0.72,0.128
-1.053e-02,-0.68,0.176
-1.051e-02,-0.64,0.216
-1.050e-02,-0.68,0.256
-1.048e-02,-0.6,0.296
-1.046e-02,-0.52,0.328
-1.045e-02,-0.48,0.36
-1.043e-02,-0.36,0.384
-1.042e-02,-0.24,0.416
-1.040e-02,-0.08,0.424
-1.038e-02,0.04,0.424
-1.037e-02,0.2,0.432
-1.035e-02,0.44,0.424
-1.034e-02,0.6,0.416
-1.032e-02,0.76,0.392
-1.030e-02,0.96,0.368
-1.029e-02,1.16,0.336
-1.027e-02,1.32,0.296
-1.026e-02,1.48,0.256
-1.024e-02,1.64,0.216
-1.022e-02,1.8,0.152
-1.021e-02,1.84,0.104
-1.019e-02,1.92,0.04
-1.018e-02,2,-0.016
-1.016e-02,2.04,-0.072
-1.014e-02,2.08,-0.136
-1.013e-02,2.08,-0.2
-1.011e-02,2.08,-0.256
-1.010e-02,2.04,-0.32
-1.008e-02,2,-0.376
-1.006e-02,1.96,-0.432
-1.005e-02,1.88,-0.48
-1.003e-02,1.76,-0.528
-1.002e-02,1.68,-0.568
-1.000e-02,1.52,-0.608
-9.984e-03,1.36,-0.64
-9.968e-03,1.08,-0.664
-9.952e-03,0.84,-0.672
-9.936e-03,0.6,-0.68
-9.920e-03,0.32,-0.68
-9.904e-03,0.04,-0.672
-9.888e-03,-0.24,-0.656
-9.872e-03,-0.52,-0.632
-9.856e-03,-0.72,-0.6
-9.840e-03,-1,-0.56
-9.824e-03,-1.16,-0.52
-9.808e-03,-1.28,-0.472
-9.792e-03,-1.36,-0.424
-9.776e-03,-1.44,-0.376
-9.760e-03,-1.48,-0.336
-9.744e-03,-1.44,-0.288
-9.728e-03,-1.44,-0.248
-9.712e-03,-1.4,-0.208
-9.696e-03,-1.32,-0.168
-9.680e-03,-1.24,-0.136
-9.664e-03,-1.2,-0.096
-9.648e-03,-1.16,-0.064
-9.632e-03,-1.08,-0.032
-9.616e-03,-1,0
-9.600e-03,-0.96,0.024
-9.584e-03,-1,0.056
-9.568e-03,-0.92,0.08
-9.552e-03,-0.92,0.112
-9.536e-03,-0.92,0.152
-9.520e-03,-0.96,0.184
-9.504e-03,-0.96,0.216
-9.488e-03,-0.96,0.248
-9.472e-03,-1.04,0.288
-9.456e-03,-1.08,0.328
-9.440e-03,-1.16,0.376
-9.424e-03,-1.2,0.408
-9.408e-03,-1.24,0.456
-9.392e-03,-1.32,0.504
-9.376e-03,-1.36,0.544
-9.360e-03,-1.36,0.592
-9.344e-03,-1.44,0.632
-9.328e-03,-1.4,0.68
-9.312e-03,-1.36,0.712
-9.296e-03,-1.32,0.752
-9.280e-03,-1.2,0.776
-9.264e-03,-1.04,0.8
-9.248e-03,-0.88,0.816
-9.232e-03,-0.6,0.816
-9.216e-03,-0.32,0.808
-9.200e-03,0,0.792
-9.184e-03,0.32,0.768
-9.168e-03,0.68,0.72
-9.152e-03,1,0.672
-9.136e-03,1.36,0.608
-9.120e-03,1.64,0.536
-9.104e-03,1.92,0.448
-9.088e-03,2.08,0.368
-9.072e-03,2.24,0.28
-9.056e-03,2.36,0.192
-9.040e-03,2.44,0.104
-9.024e-03,2.48,0.008
-9.008e-03,2.44,-0.072
-8.992e-03,2.52,-0.152
-8.976e-03,2.48,-0.232
-8.960e-03,2.44,-0.312
-8.944e-03,2.44,-0.392
-8.928e-03,2.44,-0.464
-8.912e-03,2.44,-0.536
-8.896e-03,2.4,-0.6
-8.880e-03,2.36,-0.664
-8.864e-03,2.28,-0.72
-8.848e-03,2.2,-0.776
-8.832e-03,2.04,-0.832
-8.816e-03,1.88,-0.872
-8.800e-03,1.68,-0.904
-8.784e-03,1.4,-0.928
-8.768e-03,1.08,-0.944
-8.752e-03,0.68,-0.936
-8.736e-03,0.36,-0.928
-8.720e-03,0,-0.904
-8.704e-03,-0.36,-0.872
-8.688e-03,-0.72,-0.824
-8.672e-03,-1,-0.768
-8.656e-03,-1.16,-0.704
-8.640e-03,-1.32,-0.64
-8.624e-03,-1.4,-0.576
-8.608e-03,-1.4,-0.512
-8.592e-03,-1.36,-0.448
-8.576e-03,-1.24,-0.392
-8.560e-03,-1.16,-0.344
-8.544e-03,-1,-0.304
-8.528e-03,-0.8,-0.272
-8.512e-03,-0.64,-0.232
-8.496e-03,-0.52,-0.2
-8.480e-03,-0.32,-0.176
-8.464e-03,-0.2,-0.152
-8.448e-03,-0.12,-0.136
-8.432e-03,0,-0.12
-8.416e-03,0.08,-0.104
-8.400e-03,0.2,-0.088
-8.384e-03,0.24,-0.08
-8.368e-03,0.28,-0.064
-8.352e-03,0.4,-0.048
-8.336e-03,0.4,-0.032
-8.320e-03,0.44,-0.024
-8.304e-03,0.48,-0.008
-8.288e-03,0.52,0
-8.272e-03,0.52,0.016
-8.256e-03,0.52,0.04
-8.240e-03,0.56,0.048
-8.224e-03,0.56,0.056
-8.208e-03,0.52,0.072
-8.192e-03,0.52,0.088
-8.176e-03,0.52,0.104
-8.160e-03,0.52,0.112
-8.144e-03,0.44,0.128
-8.128e-03,0.4,0.144
-8.112e-03,0.4,0.152
-8.096e-03,0.32,0.16
-8.080e-03,0.28,0.176
-8.064e-03,0.2,0.184
-8.048e-03,0.16,0.192
-8.032e-03,0.08,0.2
-8.016e-03,0,0.208
-8.000e-03,-0.04,0.216
-7.984e-03,-0.12,0.224
-7.968e-03,-0.24,0.232
-7.952e-03,-0.32,0.232
-7.936e-03,-0.36,0.24
-7.920e-03,-0.52,0.24
-7.904e-03,-0.56,0.248
-7.888e-03,-0.64,0.248
-7.872e-03,-0.72,0.256
-7.856e-03,-0.84,0.256
-7.840e-03,-0.96,0.256
-7.824e-03,-0.96,0.256
-7.808e-03,-1.04,0.256
-7.792e-03,-1.16,0.256
-7.776e-03,-1.2,0.256
-7.760e-03,-1.24,0.264
-7.744e-03,-1.28,0.256
-7.728e-03,-1.36,0.256
-7.712e-03,-1.36,0.264
-7.696e-03,-1.4,0.256
-7.680e-03,-1.44,0.248
-7.664e-03,-1.48,0.248
-7.648e-03,-1.48,0.256
-7.632e-03,-1.48,0.248
-7.616e-03,-1.44,0.248
-7.600e-03,-1.48,0.24
-7.584e-03,-1.4,0.248
-7.568e-03,-1.4,0.248
-7.552e-03,-1.4,0.248
-7.536e-03,-1.32,0.24
-7.520e-03,-1.28,0.24
-7.504e-03,-1.24,0.24
-7.488e-03,-1.2,0.24
-7.472e-03,-1.12,0.24
-7.456e-03,-1.04,0.24
-7.440e-03,-1,0.24
-7.424e-03,-0.92,0.24
-7.408e-03,-0.8,0.248
-7.392e-03,-0.76,0.248
-7.376e-03,-0.68,0.248
-7.360e-03,-0.6,0.256
-7.344e-03,-0.48,0.256
-7.328e-03,-0.4,0.256
-7.312e-03,-0.32,0.256
-7.296e-03,-0.16,0.264
-7.280e-03,-0.08,0.256
-7.264e-03,0,0.256
-7.248e-03,0.16,0.256
-7.232e-03,0.28,0.264
-7.216e-03,0.36,0.248
-7.200e-03,0.48,0.248
-7.184e-03,0.64,0.24
-7.168e-03,0.76,0.232
-7.152e-03,0.84,0.224
-7.136e-03,0.96,0.208
-7.120e-03,1.12,0.2
-7.104e-03,1.16,0.184
-7.088e-03,1.24,0.16
-7.072e-03,1.36,0.144
-7.056e-03,1.4,0.128
-7.040e-03,1.48,0.112
-7.024e-03,1.56,0.08
-7.008e-03,1.64,0.048
-6.992e-03,1.64,0.024
-6.976e-03,1.68,0
-6.960e-03,1.72,-0.024
-6.944e-03,1.76,-0.056
-6.928e-03,1.76,-0.08
-6.912e-03,1.72,-0.112
-6.896e-03,1.72,-0.144
-6.880e-03,1.72,-0.176
-6.864e-03,1.68,-0.208
-6.848e-03,1.64,-0.24
-6.832e-03,1.6,-0.264
-6.816e-03,1.52,-0.296
-6.800e-03,1.44,-0.32
-6.784e-03,1.32,-0.344
-6.768e-03,1.24,-0.368
-6.752e-03,1.16,-0.392
-6.736e-03,0.92,-0.408
-6.720e-03,0.8,-0.424
-6.704e-03,0.64,-0.432
-6.688e-03,0.52,-0.44
-6.672e-03,0.24,-0.44
-6.656e-03,0.12,-0.44
-6.640e-03,-0.08,-0.44
-6.624e-03,-0.28,-0.424
-6.608e-03,-0.48,-0.416
-6.592e-03,-0.64,-0.392
-6.576e-03,-0.8,-0.376
-6.560e-03,-0.92,-0.352
-6.544e-03,-1.04,-0.328
-6.528e-03,-1.2,-0.304
-6.512e-03,-1.24,-0.272
-6.496e-03,-1.32,-0.24
-6.480e-03,-1.4,-0.208
-6.464e-03,-1.44,-0.184
-6.448e-03,-1.44,-0.152
-6.432e-03,-1.48,-0.12
-6.416e-03,-1.48,-0.096
-6.400e-03,-1.48,-0.064
-6.384e-03,-1.48,-0.032
-6.368e-03,-1.48,-0.008
-6.352e-03,-1.48,0.024
-6.336e-03,-1.44,0.056
-6.320e-03,-1.44,0.088
-6.304e-03,-1.44,0.112
-6.288e-03,-1.44,0.152
-6.272e-03,-1.44,0.184
-6.256e-03,-1.44,0.216
-6.240e-03,-1.48,0.248
-6.224e-03,-1.44,0.28
-6.208e-03,-1.44,0.328
-6.192e-03,-1.48,0.36
-6.176e-03,-1.48,0.4
-6.160e-03,-1.4,0.432
-6.144e-03,-1.36,0.472
-6.128e-03,-1.36,0.512
-6.112e-03,-1.24,0.544
-6.096e-03,-1.16,0.576
-6.080e-03,-1.04,0.6
-6.064e-03,-0.92,0.624
-6.048e-03,-0.72,0.64
-6.032e-03,-0.52,0.656
-6.016e-03,-0.32,0.656
-6.000e-03,-0.04,0.656
-5.984e-03,0.24,0.64
-5.968e-03,0.48,0.624
-5.952e-03,0.8,0.592
-5.936e-03,1.08,0.56
-5.920e-03,1.36,0.512
-5.904e-03,1.6,0.456
-5.888e-03,1.8,0.4
-5.872e-03,1.96,0.336
-5.856e-03,2.12,0.28
-5.840e-03,2.24,0.216
-5.824e-03,2.32,0.152
-5.808e-03,2.36,0.08
-5.792e-03,2.4,0.016
-5.776e-03,2.44,-0.048
-5.760e-03,2.44,-0.112
-5.744e-03,2.44,-0.168
-5.728e-03,2.44,-0.232
-5.712e-03,2.44,-0.296
-5.696e-03,2.44,-0.352
-5.680e-03,2.4,-0.408
-5.664e-03,2.32,-0.472
-5.648e-03,2.32,-0.52
-5.632e-03,2.28,-0.576
-5.616e-03,2.2,-0.624
-5.600e-03,2.04,-0.672
-5.584e-03,1.96,-0.704
-5.568e-03,1.84,-0.744
-5.552e-03,1.56,-0.776
-5.536e-03,1.32,-0.792
-5.520e-03,1.04,-0.808
-5.504e-03,0.72,-0.808
-5.488e-03,0.4,-0.808
-5.472e-03,0.04,-0.792
-5.456e-03,-0.24,-0.768
-5.440e-03,-0.56,-0.728
-5.424e-03,-0.8,-0.688
-5.408e-03,-1.04,-0.64
-5.392e-03,-1.24,-0.592
-5.376e-03,-1.32,-0.536
-5.360e-03,-1.4,-0.48
-5.344e-03,-1.48,-0.432
-5.328e-03,-1.44,-0.384
-5.312e-03,-1.4,-0.336
-5.296e-03,-1.28,-0.296
-5.280e-03,-1.2,-0.256
-5.264e-03,-1.08,-0.232
-5.248e-03,-0.96,-0.208
-5.232e-03,-0.88,-0.176
-5.216e-03,-0.76,-0.144
-5.200e-03,-0.64,-0.128
-5.184e-03,-0.52,-0.112
-5.168e-03,-0.48,-0.104
-5.152e-03,-0.4,-0.08
-5.136e-03,-0.32,-0.064
-5.120e-03,-0.28,-0.04
-5.104e-03,-0.24,-0.024
-5.088e-03,-0.2,-0.008
-5.072e-03,-0.16,0
-5.056e-03,-0.12,0.024
-5.040e-03,-0.16,0.04
-5.024e-03,-0.16,0.072
-5.008e-03,-0.12,0.088
-4.992e-03,-0.12,0.112
-4.976e-03,-0.16,0.136
-4.960e-03,-0.2,0.168
-4.944e-03,-0.2,0.192
-4.928e-03,-0.24,0.216
-4.912e-03,-0.32,0.248
-4.896e-03,-0.32,0.28
-4.880e-03,-0.4,0.312
-4.864e-03,-0.48,0.344
-4.848e-03,-0.6,0.384
-4.832e-03,-0.72,0.408
-4.816e-03,-0.8,0.448
-4.800e-03,-0.92,0.48
-4.784e-03,-1,0.528
-4.768e-03,-1.16,0.56
-4.752e-03,-1.24,0.592
-4.736e-03,-1.32,0.624
-4.720e-03,-1.36,0.656
-4.704e-03,-1.4,0.688
-4.688e-03,-1.4,0.712
-4.672e-03,-1.4,0.736
-4.656e-03,-1.32,0.744
-4.640e-03,-1.2,0.752
-4.624e-03,-1,0.752
-4.608e-03,-0.76,0.744
-4.592e-03,-0.52,0.72
-4.576e-03,-0.28,0.68
-4.560e-03,0.08,0.648
-4.544e-03,0.36,0.584
-4.528e-03,0.68,0.512
-4.512e-03,1,0.44
-4.496e-03,1.28,0.36
-4.480e-03,1.48,0.272
-4.464e-03,1.72,0.168
-4.448e-03,1.92,0.08
-4.432e-03,2.04,-0.016
-4.416e-03,2.08,-0.112
-4.400e-03,2.2,-0.208
-4.384e-03,2.2,-0.304
-4.368e-03,2.16,-0.392
-4.352e-03,2.12,-0.48
-4.336e-03,2.08,-0.552
-4.320e-03,2,-0.616
-4.304e-03,1.92,-0.672
-4.288e-03,1.68,-0.728
-4.272e-03,1.48,-0.768
-4.256e-03,1.32,-0.8
-4.240e-03,1.04,-0.816
-4.224e-03,0.72,-0.824
-4.208e-03,0.36,-0.816
-4.192e-03,0.04,-0.792
-4.176e-03,-0.28,-0.76
-4.160e-03,-0.56,-0.72
-4.144e-03,-0.88,-0.664
-4.128e-03,-1.04,-0.6
-4.112e-03,-1.24,-0.544
-4.096e-03,-1.36,-0.472
-4.080e-03,-1.44,-0.4
-4.064e-03,-1.44,-0.336
-4.048e-03,-1.44,-0.264
-4.032e-03,-1.44,-0.192
-4.016e-03,-1.36,-0.136
-4.000e-03,-1.24,-0.08
-3.984e-03,-1.2,-0.024
-3.968e-03,-1.12,0.024
-3.952e-03,-1.08,0.08
-3.936e-03,-1.04,0.128
-3.920e-03,-1.04,0.168
-3.904e-03,-1,0.216
-3.888e-03,-1,0.256
-3.872e-03,-1.04,0.312
-3.856e-03,-1.08,0.344
-3.840e-03,-1.12,0.392
-3.824e-03,-1.16,0.432
-3.808e-03,-1.24,0.48
-3.792e-03,-1.32,0.536
-3.776e-03,-1.36,0.576
-3.760e-03,-1.4,0.616
-3.744e-03,-1.44,0.664
-3.728e-03,-1.4,0.704
-3.712e-03,-1.36,0.744
-3.696e-03,-1.28,0.776
-3.680e-03,-1.2,0.8
-3.664e-03,-1.04,0.816
-3.648e-03,-0.76,0.816
-3.632e-03,-0.56,0.824
-3.616e-03,-0.28,0.8
-3.600e-03,0.12,0.776
-3.584e-03,0.44,0.736
-3.568e-03,0.76,0.688
-3.552e-03,1.16,0.632
-3.536e-03,1.48,0.552
-3.520e-03,1.68,0.472
-3.504e-03,1.96,0.384
-3.488e-03,2.16,0.296
-3.472e-03,2.28,0.2
-3.456e-03,2.36,0.112
-3.440e-03,2.44,0.016
-3.424e-03,2.48,-0.072
-3.408e-03,2.48,-0.16
-3.392e-03,2.48,-0.248
-3.376e-03,2.52,-0.336
-3.360e-03,2.48,-0.408
-3.344e-03,2.44,-0.488
-3.328e-03,2.4,-0.56
-3.312e-03,2.36,-0.632
-3.296e-03,2.32,-0.696
-3.280e-03,2.2,-0.76
-3.264e-03,2.08,-0.816
-3.248e-03,1.92,-0.856
-3.232e-03,1.72,-0.896
-3.216e-03,1.48,-0.92
-3.200e-03,1.12,-0.936
-3.184e-03,0.84,-0.944
-3.168e-03,0.48,-0.936
-3.152e-03,0.08,-0.912
-3.136e-03,-0.28,-0.88
-3.120e-03,-0.64,-0.832
-3.104e-03,-0.88,-0.784
-3.088e-03,-1.12,-0.72
-3.072e-03,-1.32,-0.656
-3.056e-03,-1.36,-0.592
-3.040e-03,-1.4,-0.52
-3.024e-03,-1.4,-0.456
-3.008e-03,-1.32,-0.4
-2.992e-03,-1.2,-0.344
-2.976e-03,-1,-0.296
-2.960e-03,-0.88,-0.256
-2.944e-03,-0.76,-0.208
-2.928e-03,-0.56,-0.192
-2.912e-03,-0.4,-0.152
-2.896e-03,-0.28,-0.128
-2.880e-03,-0.2,-0.104
-2.864e-03,-0.08,-0.08
-2.848e-03,0,-0.064
-2.832e-03,0.04,-0.048
-2.816e-03,0.08,-0.032
-2.800e-03,0.16,-0.008
-2.784e-03,0.2,0
-2.768e-03,0.2,0.032
-2.752e-03,0.24,0.04
-2.736e-03,0.28,0.064
-2.720e-03,0.24,0.08
-2.704e-03,0.2,0.104
-2.688e-03,0.2,0.128
-2.672e-03,0.2,0.144
-2.656e-03,0.16,0.168
-2.640e-03,0.12,0.184
-2.624e-03,0.08,0.208
-2.608e-03,0,0.232
-2.592e-03,-0.08,0.256
-2.576e-03,-0.16,0.28
-2.560e-03,-0.24,0.296
-2.544e-03,-0.32,0.32
-2.528e-03,-0.44,0.344
-2.512e-03,-0.52,0.368
-2.496e-03,-0.64,0.392
-2.480e-03,-0.76,0.416
-2.464e-03,-0.88,0.44
-2.448e-03,-0.96,0.464
-2.432e-03,-1.08,0.488
-2.416e-03,-1.16,0.504
-2.400e-03,-1.28,0.528
-2.384e-03,-1.32,0.544
-2.368e-03,-1.4,0.568
-2.352e-03,-1.44,0.576
-2.336e-03,-1.44,0.584
-2.320e-03,-1.4,0.592
-2.304e-03,-1.36,0.584
-2.288e-03,-1.24,0.584
-2.272e-03,-1.12,0.568
-2.256e-03,-1,0.552
-2.240e-03,-0.8,0.52
-2.224e-03,-0.6,0.488
-2.208e-03,-0.36,0.448
-2.192e-03,-0.16,0.392
-2.176e-03,0.08,0.336
-2.160e-03,0.36,0.28
-2.144e-03,0.52,0.216
-2.128e-03,0.68,0.144
-2.112e-03,0.88,0.072
-2.096e-03,1.04,0
-2.080e-03,1.08,-0.072
-2.064e-03,1.16,-0.136
-2.048e-03,1.2,-0.208
-2.032e-03,1.24,-0.272
-2.016e-03,1.16,-0.328
-2.000e-03,1.12,-0.384
-1.984e-03,1.04,-0.424
